Analyzing Animal Crossing Reviews | Qiushi Yan
…
Sentiment analysis of user reviews

Predictive modeling for grades with user reviews

reviews %>% 
  transmute(rating = case_when(
    grade <= 4 ~ "low",
    grade > 4 & grade <= 8 ~ "medium",
    grade > 8 ~ "high",
  ),
  text) %>% 
  unnest_tokens(line, text, token = "lines") 
#> # A tibble: 1,473 x 2
#>    rating line                                                                  
#>    <chr>  <chr>                                                                 
#>  1 high   cant stop playing!                                                    
#>  2 high   as a first timer to the animal crossing series, it was a bit hard to ~
#>  3 high   this is my first animal crossing game i’ve ever played. i am seriousl~
#>  4 high   i like it so far. unfair to rate the game a 0 because of a poor desig~
#>  5 high   this game is absolutely amazing as a constant side game for one's day~
#>  6 high   probably the best animal crossing has ever been, and to fans of the s~
#>  7 high   an amazing game and the best ac yet! if you don’t understand there is~
#>  8 high   an absolutely awesome addition to the franchise. everything about thi~
#>  9 high   this review contains spoilers, click expand to view.                 ~
#> 10 high   there are no words to describe the flawlessly, gorgeous graphics and ~
#> # ... with 1,463 more rows
…
