…
<img src="analyzing-word-and-document-frequency_files/figure-html/unnamed-chunk-19-1.png" width="864" style="display: block; margin: auto;" />

Why there is `_k` and `_x` in Einstein's text ?  


```r
physics %>% 
  filter(author == "Einstein, Albert",
         str_detect(text, "_[kx]_?")) %>% 
  select(text)
#> # A tibble: 97 x 1
#>   text                                                                  
#>   <chr>                                                                 
#> 1 co-ordinates (_x, y, z_) which can be dropped from the scene of the   
#> 2 space with respect to _K_ by the three perpendiculars _x, y, z_ on the
#> 3 time by corresponding values _x', y', z', t'_, which of course are not
#> 4 identical with _x, y, z, t_. It has already been set forth in detail  
#> 5 manner. What are the values _x', y', z', t'_, of an event with respect
#> 6 to _K'_, when the magnitudes _x, y, z, t_, of the same event with     
#> # ... with 91 more rows
```

Some cleaning up of the text may be in demand. Also notice that there are separate “co” and “ordinate” items in the high tf-idf words for the Einstein text; the `unnest_tokens()` function separates around punctuation like hyphens by default. Notice that the tf-idf scores for “co” and “ordinate” are close to same!

“AB”, “RC”, and so forth are names of rays, circles, angles, and so forth for Huygens.  


```r
physics %>% 
  filter(str_detect(text, "RC")) %>% 
  select(text)
#> # A tibble: 44 x 1
#>   text                                                                  
#>   <chr>                                                                 
#> 1 line RC, parallel and equal to AB, to be a portion of a wave of light,
#> 2 represents the partial wave coming from the point A, after the wave RC
#> 3 be the propagation of the wave RC which fell on AB, and would be the  
#> 4 transparent body; seeing that the wave RC, having come to the aperture
#> 5 incident rays. Let there be such a ray RC falling upon the surface    
#> 6 CK. Make CO perpendicular to RC, and across the angle KCO adjust OK,  
#> # ... with 38 more rows
```
…
