4.2 Counting and correlating pairs of words with widyr | Notes for “Text Mining with R: A Tidy Approach”
…
We can easily find the words that most often occur with Darcy. Since pairwise_count records both the counts of (word_A, word_B) and (word_B, word_B), it does not matter we filter at item1 or item2

austen_section_words %>% 
  pairwise_count(word, section, sort = TRUE) %>% 
  filter(item1 == "darcy")
#> # A tibble: 2,930 x 3
#>   item1 item2         n
#>   <chr> <chr>     <dbl>
#> 1 darcy elizabeth   144
#> 2 darcy miss         92
#> 3 darcy bingley      86
#> 4 darcy jane         46
#> 5 darcy bennet       45
#> 6 darcy sister       45
#> # ... with 2,924 more rows
…
Which word is most correlated with “lady”?

word_cors %>% 
  filter(item1 == "lady")
#> # A tibble: 393 x 3
#>   item1 item2     correlation
#>   <chr> <chr>           <dbl>
#> 1 lady  catherine       0.663
#> 2 lady  de              0.283
#> 3 lady  bourgh          0.254
#> 4 lady  ladyship        0.227
#> 5 lady  lucas           0.198
#> 6 lady  collins         0.176
#> # ... with 387 more rows
…
