6.2 Example: the great library heist | Text Mining with R — Notes
…
# find document-word counts
word_counts <- by_chapter %>%
  unnest_tokens(word, text) %>% 
  anti_join(stop_words) %>%
  rename(chapter = document) %>% 
  count(chapter, word, sort = TRUE) %>%
  ungroup()

word_counts
#> # A tibble: 104,722 x 3
#>   chapter               word        n
#>   <chr>                 <chr>   <int>
#> 1 Great Expectations_57 joe        88
#> 2 Great Expectations_7  joe        70
#> 3 Great Expectations_17 biddy      63
#> 4 Great Expectations_27 joe        58
#> 5 Great Expectations_38 estella    58
#> 6 Great Expectations_2  joe        56
#> # ... with 104,716 more rows

6.2.1 LDA on chapters

chapters_dtm <- word_counts %>% 
  cast_dtm(document = chapter, term = word, value = n)

chapters_lda <- chapters_dtm %>%
  LDA(k  = 4)

Much as we did on the Associated Press data, we can examine per-topic-per-word probabilities.

chapter_topics <- tidy(chapters_lda, matrix = "beta")
chapter_topics
#> # A tibble: 72,860 x 3
#>   topic term       beta
#>   <int> <chr>     <dbl>
#> 1     1 joe   1.45e- 52
#> 2     2 joe   1.44e-  2
#> 3     3 joe   4.69e-118
#> 4     4 joe   3.61e- 19
#> 5     1 biddy 5.21e-181
#> 6     2 biddy 4.75e-  3
#> # ... with 72,854 more rows
…
I am not an expert on the other 3 books aside from Pride & Prejudice, but according to Julia, each topic did correspond to one book by and large!

6.2.2 Per-document classification

We may want to how which topics are associated with each document, in particular, the majority of chapters in the same book should belong to the same topic (if we assign a chapter\(_m\) to a topic\(_k\) when the \(k\)th postion in \(\hat{\theta}_m\) is significantly higher).

chapters_gamma <- tidy(chapters_lda, matrix = "gamma") %>% 
  separate(document, c("title", "chapter"), sep = "_", convert = TRUE) %>% 
  mutate(topic = factor(topic) %>% fct_inseq())

chapters_gamma
#> # A tibble: 772 x 4
#>   title              chapter topic     gamma
#>   <chr>                <int> <fct>     <dbl>
#> 1 Great Expectations      57 1     0.0000150
#> 2 Great Expectations       7 1     0.0000163
#> 3 Great Expectations      17 1     0.0000234
#> 4 Great Expectations      27 1     0.0000213
#> 5 Great Expectations      38 1     0.0000142
#> 6 Great Expectations       2 1     0.0000191
#> # ... with 766 more rows
…
Ideally we would expect that in every book panel, there is one boxplot highly centered at 1 with the other 3 boxes at 0, since chapters in the same book are categorized in the same topic.

It does look like some chapters from Great Expectations (which should be topic 4) were somewhat associated with other topics. Are there any cases where the topic most associated with a chapter belonged to another book?

First we’d find the topic that was most associated with each chapter using top_n(), which is effectively the “classification” of that chapter.

chapter_classifications <- chapters_gamma %>%
  group_by(title, chapter) %>%
  top_n(1, gamma) %>%
  ungroup()

chapter_classifications
#> # A tibble: 193 x 4
#>   title               chapter topic gamma
#>   <chr>                 <int> <fct> <dbl>
#> 1 Pride and Prejudice      43 1     1.00 
#> 2 Pride and Prejudice      18 1     1.00 
#> 3 Pride and Prejudice      45 1     1.00 
#> 4 Pride and Prejudice      16 1     1.00 
#> 5 Pride and Prejudice      29 1     0.988
#> 6 Pride and Prejudice      10 1     1.00 
#> # ... with 187 more rows
…
We see that one chapter in “Great Expectation” is misidentified as a member of topic 3, which is essentially “The War of the Worlds”

6.2.3 By word assignments: augment()

One step of the LDA algorithm is assigning each word in each document to a topic \(z_{m, n}\). The more words in a document are assigned to that topic, generally, the more weight \(\theta_m\) will go on that document-topic classification.

We may want to take the original document-word pairs and find which words in each document were assigned to which topic. This is the job of the augment() function, which is to add information to each observation in the original data.

assignments <- augment(chapters_lda, data = chapters_dtm) %>% 
  rename(chapter = document)
assignments
#> # A tibble: 104,722 x 4
#>   chapter               term  count .topic
#>   <chr>                 <chr> <dbl>  <dbl>
#> 1 Great Expectations_57 joe      88      2
#> 2 Great Expectations_7  joe      70      2
#> 3 Great Expectations_17 joe       5      2
#> 4 Great Expectations_27 joe      58      2
#> 5 Great Expectations_2  joe      56      2
#> 6 Great Expectations_23 joe       1      2
#> # ... with 104,716 more rows
…
We can combine this assignments table with the consensus book titles to find which words were incorrectly classified by a coofusion matrix.

assignments <- assignments %>%
  separate(chapter, c("title", "chapter"), sep = "_", convert = TRUE) %>%
  inner_join(book_topics, by = c(".topic" = "topic"))

assignments
#> # A tibble: 104,722 x 6
#>   title              chapter term  count .topic consensus         
#>   <chr>                <int> <chr> <dbl>  <dbl> <chr>             
#> 1 Great Expectations      57 joe      88      2 Great Expectations
#> 2 Great Expectations       7 joe      70      2 Great Expectations
#> 3 Great Expectations      17 joe       5      2 Great Expectations
#> 4 Great Expectations      27 joe      58      2 Great Expectations
#> 5 Great Expectations       2 joe      56      2 Great Expectations
#> 6 Great Expectations      23 joe       1      2 Great Expectations
#> # ... with 104,716 more rows
…
What were the most commonly mistaken words?

assignments %>% 
  filter(title != consensus) %>% 
  count(title, consensus, term, .wt = count) %>%
  arrange(desc(n))
#> # A tibble: 3,523 x 5
#>   title              consensus             term        .wt     n
#>   <chr>              <chr>                 <chr>     <dbl> <int>
#> 1 Great Expectations The War of the Worlds britain       1    11
#> 2 Great Expectations The War of the Worlds yards         1     8
#> 3 Great Expectations The War of the Worlds deep          1     7
#> 4 Great Expectations The War of the Worlds direction     1     7
#> 5 Great Expectations The War of the Worlds feet          1     7
#> 6 Great Expectations The War of the Worlds london        1     7
#> # ... with 3,517 more rows
…
