…
As a quick demostration of this function, we can plot the top 10 common words in Jane Austen's six books:  


```r
austen_common <- janeaustenr::austen_books() %>% 
  unnest_tokens(word, text) %>% 
  anti_join(stop_words) %>% 
  count(book, word) %>% 
  group_by(book) %>% 
  top_n(10) %>% 
  ungroup()

austen_common
#> # A tibble: 60 x 3
#>   book                word         n
#>   <fct>               <chr>    <int>
#> 1 Sense & Sensibility dashwood   231
#> 2 Sense & Sensibility edward     220
#> 3 Sense & Sensibility elinor     623
#> 4 Sense & Sensibility jennings   199
#> 5 Sense & Sensibility marianne   492
#> 6 Sense & Sensibility miss       210
#> # ... with 54 more rows
```
…
