6.1 Latent Dirichlet Allocation | Text Mining with R — Notes
…
6.1.1 Example: Associated Press

We come to the AssociatedPress document term matrix (the required data strcture for the modeling function) and fit a two topic LDA model with topicmodels::LDA()

library(topicmodels)
data("AssociatedPress")

ap_lda <- LDA(AssociatedPress, k = 2)
ap_lda
#> A LDA_VEM topic model with 2 topics.

For tidying model objects, tidy(model_object, matrix = "beta") (the default) access the topic-word probability vector (we denotes with \(\vec{\phi_k}\))

tidy(ap_lda)
#> # A tibble: 20,946 x 3
#>   topic term            beta
#>   <int> <chr>          <dbl>
#> 1     1 aaron     0.00000513
#> 2     2 aaron     0.0000403 
#> 3     1 abandon   0.0000499 
#> 4     2 abandon   0.0000193 
#> 5     1 abandoned 0.0000116 
#> 6     2 abandoned 0.000170  
#> # ... with 20,940 more rows
…
To extrac the word proportion vector \(\vec{\theta_m}\) for document \(m\), use matrix = "gamma" in tidy()

tidy(ap_lda, matrix = "gamma")
#> # A tibble: 4,492 x 3
#>   document topic gamma
#>      <int> <int> <dbl>
#> 1        1     1 0.552
#> 2        2     1 0.623
#> 3        3     1 0.491
#> 4        4     1 0.464
#> 5        5     1 0.517
#> 6        6     1 0.482
#> # ... with 4,486 more rows
…
