…
We can thus use the `tidy()` method to construct a table with one row per document, including the metadata  


```r
acq_tidy <- tidy(acq)
acq_tidy
#> # A tibble: 50 x 16
#>   author datetimestamp       description heading id    language origin topics
#>   <chr>  <dttm>              <chr>       <chr>   <chr> <chr>    <chr>  <chr> 
#> 1 <NA>   1987-02-26 23:18:06 ""          COMPUT~ 10    en       Reute~ YES   
#> 2 <NA>   1987-02-26 23:19:15 ""          OHIO M~ 12    en       Reute~ YES   
#> 3 <NA>   1987-02-26 23:49:56 ""          MCLEAN~ 44    en       Reute~ YES   
#> 4 By Ca~ 1987-02-26 23:51:17 ""          CHEMLA~ 45    en       Reute~ YES   
#> 5 <NA>   1987-02-27 00:08:33 ""          <COFAB~ 68    en       Reute~ YES   
#> 6 <NA>   1987-02-27 00:32:37 ""          INVEST~ 96    en       Reute~ YES   
#> # ... with 44 more rows, and 8 more variables: lewissplit <chr>,
#> #   cgisplit <chr>, oldid <chr>, places <named list>, people <lgl>, orgs <lgl>,
#> #   exchanges <lgl>, text <chr>
```
