…
### Analyzing bigrams  

The result of separating bigrams is helpful for exploratory analyses of the text. As a simple example, we might be interested in the most common “streets” mentioned in each book:  


```r
austen_bigrams %>% 
  separate(bigram, into = c("word1", "word2"), sep = " ")  %>% 
  filter(word2 == "street") %>% 
  count(street = str_c(word1, word2, sep = " "), sort = TRUE)
#> # A tibble: 28 x 2
#>   street              n
#>   <chr>           <int>
#> 1 berkeley street    16
#> 2 harley street      16
#> 3 milsom street      16
#> 4 pulteney street    15
#> 5 wimpole street     10
#> 6 bond street         9
#> # ... with 22 more rows
```
…
### Using bigrams to provide context in sentiment analysis    

Context matters in sentiment analysis. For example, the words “happy” and “like” will be counted as positive, even in a sentence like 

> "I'm not happy and I don't like it!"

Now that we have the data organized into bigrams, it’s easy to tell how often words are preceded by a word like "not":


```r
austen_separated %>% 
  filter(word1 == "not") %>% 
  filter(!word2 %in% stop_words$word) %>%
  count(word1, word2, sort = TRUE)
#> # A tibble: 988 x 3
#>   word1 word2          n
#>   <chr> <chr>      <int>
#> 1 not   hear          39
#> 2 not   speak         35
#> 3 not   expect        34
#> 4 not   bear          33
#> 5 not   imagine       26
#> 6 not   understand    26
#> # ... with 982 more rows
```

Let’s use the AFINN lexicon for sentiment analysis, which you may recall gives a numeric sentiment value for each word, with positive or negative numbers indicating the direction of the sentiment.


```r
not_words <- austen_separated %>%
  filter(word1 == "not") %>%
  inner_join(get_sentiments("afinn"), by = c(word2 = "word")) %>%
  count(word1, word2, value, sort = TRUE)

not_words
#> # A tibble: 245 x 4
#>   word1 word2 value     n
#>   <chr> <chr> <dbl> <int>
#> 1 not   like      2    99
#> 2 not   help      2    82
#> 3 not   want      1    45
#> 4 not   wish      1    39
#> 5 not   allow     1    36
#> 6 not   care      2    23
#> # ... with 239 more rows
```
…
```r
friends_bigram <- friends %>% 
  unnest_tokens(word, line, token = "ngrams", n = 2) %>%
  separate(word, into = c("word1", "word2"), sep = " ") %>% 
  filter(!word1 %in% stop_words$word,
         !word2 %in% stop_words$word) %>% 
  filter(! (is.na(word1) | is.na(word2)))

friends_count <- friends_bigram %>% 
  count(word1, word2, sort = TRUE)

friends_count
#> # A tibble: 5,466 x 3
#>   word1 word2     n
#>   <chr> <chr> <int>
#> 1 hey   hey      36
#> 2 ow    ow       29
#> 3 la    la       27
#> 4 yeah  yeah     27
#> 5 wait  wait     17
#> 6 uh    huh      16
#> # ... with 5,460 more rows
```
…
We can easily find the words that most often occur with Darcy. Since `pairwise_count` records both the counts of `(word_A, word_B)` and `(word_B, word_B)`, it does not matter we `filter` at `item1` or `item2`  


```r
austen_section_words %>% 
  pairwise_count(word, section, sort = TRUE) %>% 
  filter(item1 == "darcy")
#> # A tibble: 2,930 x 3
#>   item1 item2         n
#>   <chr> <chr>     <dbl>
#> 1 darcy elizabeth   144
#> 2 darcy miss         92
#> 3 darcy bingley      86
#> 4 darcy jane         46
#> 5 darcy bennet       45
#> 6 darcy sister       45
#> # ... with 2,924 more rows
```
…
Which word is most correlated with "lady"?  


```r
word_cors %>% 
  filter(item1 == "lady")
#> # A tibble: 393 x 3
#>   item1 item2     correlation
#>   <chr> <chr>           <dbl>
#> 1 lady  catherine       0.663
#> 2 lady  de              0.283
#> 3 lady  bourgh          0.254
#> 4 lady  ladyship        0.227
#> 5 lady  lucas           0.198
#> 6 lady  collins         0.176
#> # ... with 387 more rows
```
…
