2.2 Sentiment analysis with inner join | Notes for “Text Mining with R: A Tidy Approach”
…
Because we name the count column word in unnest_tokens(), it’s convenient to join with the sentiment dataset:

nrc_joy <- get_sentiments("nrc") %>%
  filter(sentiment == "joy")

tidy_books %>%
  filter(book == "Emma") %>%
  inner_join(nrc_joy) %>%
  count(word, sort = TRUE)
#> # A tibble: 303 x 2
#>   word       n
#>   <chr>  <int>
#> 1 good     359
#> 2 young    192
#> 3 friend   166
#> 4 hope     143
#> 5 happy    125
#> 6 love     117
#> # ... with 297 more rows

Next, we count up how many positive and negative words there are in defined sections of each book. We define an index here to keep track of where we are in the narrative; this index (using integer division) counts up sections of 80 lines of text.

jane_austen_sentiment <- tidy_books %>%
  inner_join(get_sentiments("bing")) %>%
  mutate(index = linenumber %/% 80) %>% 
  count(book, index, sentiment) %>%
  pivot_wider(names_from = sentiment, values_from = n, values_fill = list(n = 0)) %>%
  mutate(sentiment = positive - negative)

jane_austen_sentiment
#> # A tibble: 920 x 5
#>   book                index negative positive sentiment
#>   <fct>               <dbl>    <int>    <int>     <int>
#> 1 Sense & Sensibility     0       16       32        16
#> 2 Sense & Sensibility     1       19       53        34
#> 3 Sense & Sensibility     2       12       31        19
#> 4 Sense & Sensibility     3       15       31        16
#> 5 Sense & Sensibility     4       16       34        18
#> 6 Sense & Sensibility     5       16       51        35
#> # ... with 914 more rows
…
