…
# install.packages("textdata")
get_sentiments("bing")
#> # A tibble: 6,786 x 2
#>   word       sentiment
#>   <chr>      <chr>    
#> 1 2-faces    negative 
#> 2 abnormal   negative 
#> 3 abolish    negative 
#> 4 abominable negative 
#> 5 abominably negative 
#> 6 abominate  negative 
#> # ... with 6,780 more rows

get_sentiments("afinn")
#> # A tibble: 2,477 x 2
#>   word       value
#>   <chr>      <dbl>
#> 1 abandon       -2
#> 2 abandoned     -2
#> 3 abandons      -2
#> 4 abducted      -2
#> 5 abduction     -2
#> 6 abductions    -2
#> # ... with 2,471 more rows

get_sentiments("loughran") %>% 
  filter(sentiment == "superfluous")
#> # A tibble: 21 x 2
#>   word         sentiment  
#>   <chr>        <chr>      
#> 1 aegis        superfluous
#> 2 amorphous    superfluous
#> 3 anticipatory superfluous
#> 4 appertaining superfluous
#> 5 assimilate   superfluous
#> 6 assimilating superfluous
#> # ... with 15 more rows
```
…
Because we name the count column `word` in `unnest_tokens()`, it's convenient to join with the sentiment dataset:  


```r
nrc_joy <- get_sentiments("nrc") %>%
  filter(sentiment == "joy")

tidy_books %>%
  filter(book == "Emma") %>%
  inner_join(nrc_joy) %>%
  count(word, sort = TRUE)
#> # A tibble: 303 x 2
#>   word       n
#>   <chr>  <int>
#> 1 good     359
#> 2 young    192
#> 3 friend   166
#> 4 hope     143
#> 5 happy    125
#> 6 love     117
#> # ... with 297 more rows
```

Next, we count up how many positive and negative words there are in defined sections of each book. We define an `index` here to keep track of where we are in the narrative; this index (using integer division) counts up sections of 80 lines of text.



```r
jane_austen_sentiment <- tidy_books %>%
  inner_join(get_sentiments("bing")) %>%
  mutate(index = linenumber %/% 80) %>% 
  count(book, index, sentiment) %>%
  pivot_wider(names_from = sentiment, values_from = n, values_fill = list(n = 0)) %>%
  mutate(sentiment = positive - negative)

jane_austen_sentiment
#> # A tibble: 920 x 5
#>   book                index negative positive sentiment
#>   <fct>               <dbl>    <int>    <int>     <int>
#> 1 Sense & Sensibility     0       16       32        16
#> 2 Sense & Sensibility     1       19       53        34
#> 3 Sense & Sensibility     2       12       31        19
#> 4 Sense & Sensibility     3       15       31        16
#> 5 Sense & Sensibility     4       16       34        18
#> 6 Sense & Sensibility     5       16       51        35
#> # ... with 914 more rows
```
…
Both lexicons have more negative than positive words, but the ratio of negative to positive words is higher in the `Bing` lexicon than the `NRC` lexicon. This will contribute to the effect we see in the plot above, as will any systematic difference in word matches, e.g. if the negative words in the NRC lexicon do not match the words that Jane Austen uses very well.. Whatever the source of these differences, we see similar relative trajectories across the narrative arc, with similar changes in slope, but marked differences in absolute sentiment from lexicon to lexicon. This is all important context to keep in mind when choosing a sentiment lexicon for analysis.


## Most common positive and negative words 


```r
bing_word_counts <- tidy_books %>%
  inner_join(get_sentiments("bing")) %>%
  count(word, sentiment, sort = TRUE) %>%
  ungroup()

bing_word_counts
#> # A tibble: 2,585 x 3
#>   word   sentiment     n
#>   <chr>  <chr>     <int>
#> 1 miss   negative   1855
#> 2 well   positive   1523
#> 3 good   positive   1380
#> 4 great  positive    981
#> 5 like   positive    725
#> 6 better positive    639
#> # ... with 2,579 more rows
```
…
## Units other than words  

Some sentiment analysis algorithms look beyond only unigrams (i.e. single words) to try to understand the sentiment of a sentence as a whole.  

We may want to tokenize text into sentences, and it makes sense to use a new name for the output column in such a case.  


```r
PandP_sentences <- tibble(text = prideprejudice) %>% 
  unnest_tokens(sentence, text, token = "sentences")

PandP_sentences
#> # A tibble: 7,066 x 1
#>   sentence                                                                      
#>   <chr>                                                                         
#> 1 "pride and prejudice  by jane austen    chapter 1   it is a truth universally~
#> 2 "however little known the feelings or views of such a man may be on his first~
#> 3 "\"my dear mr."                                                               
#> 4 "bennet,\" said his lady to him one day, \"have you heard that netherfield pa~
#> 5 "mr."                                                                         
#> 6 "bennet replied that he had not."                                             
#> # ... with 7,060 more rows
```

The sentence tokenizing does seem to have a bit of trouble with UTF-8 encoded text, especially with sections of dialogue; it does much better with punctuation in ASCII. One possibility, if this is important, is to try using `iconv()`, with something like `iconv(text, to = 'latin1')` in a mutate statement before unnesting.  


```r
tibble(text = prideprejudice) %>% 
  mutate(text = iconv(text, to = "ASCII")) %>% 
  unnest_tokens(sentence, text, token = "sentences")
#> # A tibble: 7,066 x 1
#>   sentence                                                                      
#>   <chr>                                                                         
#> 1 "pride and prejudice  by jane austen    chapter 1   it is a truth universally~
#> 2 "however little known the feelings or views of such a man may be on his first~
#> 3 "\"my dear mr."                                                               
#> 4 "bennet,\" said his lady to him one day, \"have you heard that netherfield pa~
#> 5 "mr."                                                                         
#> 6 "bennet replied that he had not."                                             
#> # ... with 7,060 more rows
```

Another option in `unnest_tokens()` is to split into tokens using a regex pattern. We could use this, for example, to split the text of Jane Austen’s novels into a data frame by chapter.


```r

austen_chapters <- austen_books() %>%
  group_by(book) %>%
  unnest_tokens(chapter, text, token = "regex", 
                pattern = "Chapter|CHAPTER [\\dIVXLC]") %>%
  ungroup()

# 275 rows
austen_chapters
#> # A tibble: 275 x 2
#>   book             chapter                                                      
#>   <fct>            <chr>                                                        
#> 1 Sense & Sensibi~ "sense and sensibility\n\nby jane austen\n\n(1811)\n\n\n\n\n"
#> 2 Sense & Sensibi~ "\n\n\nthe family of dashwood had long been settled in susse~
#> 3 Sense & Sensibi~ "\n\n\nmrs. john dashwood now installed herself mistress of ~
#> 4 Sense & Sensibi~ "\n\n\nmrs. dashwood remained at norland several months; not~
#> 5 Sense & Sensibi~ "\n\n\n\"what a pity it is, elinor,\" said marianne, \"that ~
#> 6 Sense & Sensibi~ "\n\n\nno sooner was her answer dispatched, than mrs. dashwo~
#> # ... with 269 more rows

# 275 rows
tidy_books %>%
  distinct(book, chapter)
#> # A tibble: 275 x 2
#>   book                chapter
#>   <fct>                 <int>
#> 1 Sense & Sensibility       0
#> 2 Sense & Sensibility       1
#> 3 Sense & Sensibility       2
#> 4 Sense & Sensibility       3
#> 5 Sense & Sensibility       4
#> 6 Sense & Sensibility       5
#> # ... with 269 more rows
```

In the `austen_chapters` data frame, each row corresponds to one chapter.


Near the beginning of this chapter, we used a similar regex to find where all the chapters were in Austen’s novels for a tidy data frame organized by one-word-per-row (Section \@ref(sentiment-analysis-with-inner-join)). Using a regex as the token is somewhat similar to 


```r
tidy_books %>% 
  group_by(book, chapter) %>% 
  summarize(str_c(word, collapse = " "))
#> # A tibble: 275 x 3
#> # Groups:   book [6]
#>   book           chapter `str_c(word, collapse = " ")`                          
#>   <fct>            <int> <chr>                                                  
#> 1 Sense & Sensi~       0 sense and sensibility by jane austen 1811              
#> 2 Sense & Sensi~       1 chapter 1 the family of dashwood had long been settled~
#> 3 Sense & Sensi~       2 chapter 2 mrs john dashwood now installed herself mist~
#> 4 Sense & Sensi~       3 chapter 3 mrs dashwood remained at norland several mon~
#> 5 Sense & Sensi~       4 chapter 4 what a pity it is elinor said marianne that ~
#> 6 Sense & Sensi~       5 chapter 5 no sooner was her answer dispatched than mrs~
#> # ... with 269 more rows
```
…
