…
```r
stop_words 
#> # A tibble: 1,149 x 2
#>   word      lexicon
#>   <chr>     <chr>  
#> 1 a         SMART  
#> 2 a's       SMART  
#> 3 able      SMART  
#> 4 about     SMART  
#> 5 above     SMART  
#> 6 according SMART  
#> # ... with 1,143 more rows
…
In many analyses, you may want to filter just for English works, avoid duplicates, and include only books that have text that can be downloaded. The `gutenberg_works()` function does this pre-filtering. It also allows you to perform filtering as an argument:


```r
gutenberg_works(author == "Austen, Jane")
#> # A tibble: 10 x 8
#>   gutenberg_id title author gutenberg_autho~ language gutenberg_books~ rights
#>          <int> <chr> <chr>             <int> <chr>    <chr>            <chr> 
#> 1          105 Pers~ Auste~               68 en       <NA>             Publi~
#> 2          121 Nort~ Auste~               68 en       Gothic Fiction   Publi~
#> 3          141 Mans~ Auste~               68 en       <NA>             Publi~
#> 4          158 Emma  Auste~               68 en       <NA>             Publi~
#> 5          161 Sens~ Auste~               68 en       <NA>             Publi~
#> 6          946 Lady~ Auste~               68 en       <NA>             Publi~
#> # ... with 4 more rows, and 1 more variable: has_text <lgl>
```
…
```r
# lines
df %>% unnest_tokens(line, text, token = "lines")
#> # A tibble: 12 x 1
#>   line                        
#>   <chr>                       
#> 1 "this is, my bookdown book."
#> 2 "chapter 1: preface"        
#> 3 "thanks for "               
#> 4 " reading this book"        
#> 5 "chapter 2: introduction"   
#> 6 "chapter 3: methods"        
#> # ... with 6 more rows
# sentences, split by period
df %>% unnest_tokens(sentences, text, token = "sentences")
#> # A tibble: 3 x 1
#>   sentences                                                                     
#>   <chr>                                                                         
#> 1 this is, my bookdown book.                                                    
#> 2 chapter 1: preface  thanks for   reading this book  chapter 2: introduction  ~
#> 3 chapter 4: discussion  blablabla, blablabla, blablabla.
# paragraphs
df %>% unnest_tokens(paragraphs, text, token = "paragraphs")
#> # A tibble: 7 x 1
#>   paragraphs                                                      
#>   <chr>                                                           
#> 1 "this is, my bookdown book. chapter 1: preface"                 
#> 2 "thanks for   reading this book"                                
#> 3 "chapter 2: introduction"                                       
#> 4 "chapter 3: methods"                                            
#> 5 "i demonstrate all of the methods here, well, not all actually."
#> 6 " chapter 4: discussion"                                        
#> # ... with 1 more row
```



```r
# split into characters or multiple characters 
df %>% unnest_tokens(character, text, token = "characters")
#> # A tibble: 188 x 1
#>   character
#>   <chr>    
#> 1 t        
#> 2 h        
#> 3 i        
#> 4 s        
#> 5 i        
#> 6 s        
#> # ... with 182 more rows
df %>% unnest_tokens(characters, text, token = "character_shingles", n = 4)
#> # A tibble: 185 x 1
#>   characters
#>   <chr>     
#> 1 this      
#> 2 hisi      
#> 3 isis      
#> 4 sism      
#> 5 ismy      
#> 6 smyb      
#> # ... with 179 more rows
```
…
