4.1 Tokenizing by n-gram | Notes for “Text Mining with R: A Tidy Approach”
…
4.1.2 Analyzing bigrams

The result of separating bigrams is helpful for exploratory analyses of the text. As a simple example, we might be interested in the most common “streets” mentioned in each book:

austen_bigrams %>% 
  separate(bigram, into = c("word1", "word2"), sep = " ")  %>% 
  filter(word2 == "street") %>% 
  count(street = str_c(word1, word2, sep = " "), sort = TRUE)
#> # A tibble: 28 x 2
#>   street              n
#>   <chr>           <int>
#> 1 berkeley street    16
#> 2 harley street      16
#> 3 milsom street      16
#> 4 pulteney street    15
#> 5 wimpole street     10
#> 6 bond street         9
#> # ... with 22 more rows
…
4.1.3 Using bigrams to provide context in sentiment analysis

Context matters in sentiment analysis. For example, the words “happy” and “like” will be counted as positive, even in a sentence like

“I’m not happy and I don’t like it!”

Now that we have the data organized into bigrams, it’s easy to tell how often words are preceded by a word like “not”:

austen_separated %>% 
  filter(word1 == "not") %>% 
  filter(!word2 %in% stop_words$word) %>%
  count(word1, word2, sort = TRUE)
#> # A tibble: 988 x 3
#>   word1 word2          n
#>   <chr> <chr>      <int>
#> 1 not   hear          39
#> 2 not   speak         35
#> 3 not   expect        34
#> 4 not   bear          33
#> 5 not   imagine       26
#> 6 not   understand    26
#> # ... with 982 more rows

Let’s use the AFINN lexicon for sentiment analysis, which you may recall gives a numeric sentiment value for each word, with positive or negative numbers indicating the direction of the sentiment.

not_words <- austen_separated %>%
  filter(word1 == "not") %>%
  inner_join(get_sentiments("afinn"), by = c(word2 = "word")) %>%
  count(word1, word2, value, sort = TRUE)

not_words
#> # A tibble: 245 x 4
#>   word1 word2 value     n
#>   <chr> <chr> <dbl> <int>
#> 1 not   like      2    99
#> 2 not   help      2    82
#> 3 not   want      1    45
#> 4 not   wish      1    39
#> 5 not   allow     1    36
#> 6 not   care      2    23
#> # ... with 239 more rows
…
Retrieve a clean data frame with word counts (bigrams did not work very well)

friends_bigram <- friends %>% 
  unnest_tokens(word, line, token = "ngrams", n = 2) %>%
  separate(word, into = c("word1", "word2"), sep = " ") %>% 
  filter(!word1 %in% stop_words$word,
         !word2 %in% stop_words$word) %>% 
  filter(! (is.na(word1) | is.na(word2)))

friends_count <- friends_bigram %>% 
  count(word1, word2, sort = TRUE)

friends_count
#> # A tibble: 5,466 x 3
#>   word1 word2     n
#>   <chr> <chr> <int>
#> 1 hey   hey      36
#> 2 ow    ow       29
#> 3 la    la       27
#> 4 yeah  yeah     27
#> 5 wait  wait     17
#> 6 uh    huh      16
#> # ... with 5,460 more rows
…
