…
words
#> # A tibble: 245,052 x 16
#>    title authors published_year published_month journal volume issue pages
#>    <chr> <chr>            <dbl> <lgl>           <chr>   <chr>  <chr> <chr>
#>  1 SARS~ Qiu, L~           2020 NA              Clinic~ <NA>   <NA>  <NA> 
#>  2 SARS~ Qiu, L~           2020 NA              Clinic~ <NA>   <NA>  <NA> 
#>  3 SARS~ Qiu, L~           2020 NA              Clinic~ <NA>   <NA>  <NA> 
#>  4 SARS~ Qiu, L~           2020 NA              Clinic~ <NA>   <NA>  <NA> 
#>  5 SARS~ Qiu, L~           2020 NA              Clinic~ <NA>   <NA>  <NA> 
#>  6 SARS~ Qiu, L~           2020 NA              Clinic~ <NA>   <NA>  <NA> 
#>  7 SARS~ Qiu, L~           2020 NA              Clinic~ <NA>   <NA>  <NA> 
#>  8 SARS~ Qiu, L~           2020 NA              Clinic~ <NA>   <NA>  <NA> 
#>  9 SARS~ Qiu, L~           2020 NA              Clinic~ <NA>   <NA>  <NA> 
#> 10 SARS~ Qiu, L~           2020 NA              Clinic~ <NA>   <NA>  <NA> 
#> # ... with 245,042 more rows, and 8 more variables: accession_number <chr>,
#> #   doi <chr>, ref <dbl>, covidence_number <chr>, study <chr>, notes <chr>,
#> #   tags <chr>, word <chr>
…
Another question of interest is the relationship between words: what group of words tend to appear together? I look at the phi coefficient, which is essentailly \(\chi^2\) statistc in a contingency table applied to categorical variables.

As each abstract is a natual unit of measure, a pair of words that both appear in the same abstract are seen as “appearing together”. We could compute \(\phi\) based on pairwise counts:

library(widyr)

word_cors <- words %>% 
  add_count(word) %>% 
  filter(n > 20) %>%
  select(-n) %>%
  pairwise_cor(item = word, feature = title, sort = TRUE)

word_cors
#> # A tibble: 2,385,480 x 3
#>    item1        item2        correlation
#>    <chr>        <chr>              <dbl>
#>  1 arabia       saudi              1    
#>  2 saudi        arabia             1    
#>  3 pave         crazi              0.970
#>  4 crazi        pave               0.970
#>  5 kong         hong               0.935
#>  6 hong         kong               0.935
#>  7 dehydrogenas lactat             0.931
#>  8 lactat       dehydrogenas       0.931
#>  9 reserv       copyright          0.928
#> 10 copyright    reserv             0.928
#> # ... with 2,385,470 more rows
…
