A Taste of dplyr 1.0.0 | Qiushi Yan
…
References

This post uses the penguins dataset (Gorman 2014) for most demonstration puporses, modified by Allison Horst (as an alternative to iris).

library(dplyr)
library(ggplot2)

packageVersion("dplyr")
#> [1] '1.0.0'

penguins <- readr::read_csv("D:/RProjects/data/blog/penguins.csv")
penguins
#> # A tibble: 344 x 7
#>    species island culmen_length_mm culmen_depth_mm flipper_length_~ body_mass_g
#>    <chr>   <chr>             <dbl>           <dbl>            <dbl>       <dbl>
#>  1 Adelie  Torge~             39.1            18.7              181        3750
#>  2 Adelie  Torge~             39.5            17.4              186        3800
#>  3 Adelie  Torge~             40.3            18                195        3250
#>  4 Adelie  Torge~             NA              NA                 NA          NA
#>  5 Adelie  Torge~             36.7            19.3              193        3450
#>  6 Adelie  Torge~             39.3            20.6              190        3650
#>  7 Adelie  Torge~             38.9            17.8              181        3625
#>  8 Adelie  Torge~             39.2            19.6              195        4675
#>  9 Adelie  Torge~             34.1            18.1              193        3475
#> 10 Adelie  Torge~             42              20.2              190        4250
#> # ... with 334 more rows, and 1 more variable: sex <chr>
…
For conditional selection (previous _if variants), predicate function should be wrapped in where.

# double all numeric columns
penguins %>% 
  mutate(across(where(is.numeric), ~ .x * 2))
#> # A tibble: 344 x 7
#>    species island culmen_length_mm culmen_depth_mm flipper_length_~ body_mass_g
#>    <chr>   <chr>             <dbl>           <dbl>            <dbl>       <dbl>
#>  1 Adelie  Torge~             78.2            37.4              362        7500
#>  2 Adelie  Torge~             79              34.8              372        7600
#>  3 Adelie  Torge~             80.6            36                390        6500
#>  4 Adelie  Torge~             NA              NA                 NA          NA
#>  5 Adelie  Torge~             73.4            38.6              386        6900
#>  6 Adelie  Torge~             78.6            41.2              380        7300
#>  7 Adelie  Torge~             77.8            35.6              362        7250
#>  8 Adelie  Torge~             78.4            39.2              390        9350
#>  9 Adelie  Torge~             68.2            36.2              386        6950
#> 10 Adelie  Torge~             84              40.4              380        8500
#> # ... with 334 more rows, and 1 more variable: sex <chr>
…
In combination with rowwise operations, summarize() is now sufficiently powerful to replace many workflows that previously required a map() function.

For example, to read all the all the .csv files in the current directory, you could write:

tibble(path = dir(pattern = "\\.csv$")) %>% 
  rowwise(path) %>% 
  summarize(read_csv(path))

Move columns around within data frames

New verb relocate is provided to change column positions with the same syntax as select. The default behaviour is to move selected columns to the left-hand side

penguins %>% relocate(island)
#> # A tibble: 344 x 7
#>    island species culmen_length_mm culmen_depth_mm flipper_length_~ body_mass_g
#>    <chr>  <chr>              <dbl>           <dbl>            <dbl>       <dbl>
#>  1 Torge~ Adelie              39.1            18.7              181        3750
#>  2 Torge~ Adelie              39.5            17.4              186        3800
#>  3 Torge~ Adelie              40.3            18                195        3250
#>  4 Torge~ Adelie              NA              NA                 NA          NA
#>  5 Torge~ Adelie              36.7            19.3              193        3450
#>  6 Torge~ Adelie              39.3            20.6              190        3650
#>  7 Torge~ Adelie              38.9            17.8              181        3625
#>  8 Torge~ Adelie              39.2            19.6              195        4675
#>  9 Torge~ Adelie              34.1            18.1              193        3475
#> 10 Torge~ Adelie              42              20.2              190        4250
#> # ... with 334 more rows, and 1 more variable: sex <chr>

penguins %>% relocate(starts_with("culmen"))
#> # A tibble: 344 x 7
#>    culmen_length_mm culmen_depth_mm species island flipper_length_~ body_mass_g
#>               <dbl>           <dbl> <chr>   <chr>             <dbl>       <dbl>
#>  1             39.1            18.7 Adelie  Torge~              181        3750
#>  2             39.5            17.4 Adelie  Torge~              186        3800
#>  3             40.3            18   Adelie  Torge~              195        3250
#>  4             NA              NA   Adelie  Torge~               NA          NA
#>  5             36.7            19.3 Adelie  Torge~              193        3450
#>  6             39.3            20.6 Adelie  Torge~              190        3650
#>  7             38.9            17.8 Adelie  Torge~              181        3625
#>  8             39.2            19.6 Adelie  Torge~              195        4675
#>  9             34.1            18.1 Adelie  Torge~              193        3475
#> 10             42              20.2 Adelie  Torge~              190        4250
#> # ... with 334 more rows, and 1 more variable: sex <chr>

penguins %>% relocate(sex, body_mass_g, .after = species)
#> # A tibble: 344 x 7
#>    species sex   body_mass_g island culmen_length_mm culmen_depth_mm
#>    <chr>   <chr>       <dbl> <chr>             <dbl>           <dbl>
#>  1 Adelie  MALE         3750 Torge~             39.1            18.7
#>  2 Adelie  FEMA~        3800 Torge~             39.5            17.4
#>  3 Adelie  FEMA~        3250 Torge~             40.3            18  
#>  4 Adelie  <NA>           NA Torge~             NA              NA  
#>  5 Adelie  FEMA~        3450 Torge~             36.7            19.3
#>  6 Adelie  MALE         3650 Torge~             39.3            20.6
#>  7 Adelie  FEMA~        3625 Torge~             38.9            17.8
#>  8 Adelie  MALE         4675 Torge~             39.2            19.6
#>  9 Adelie  <NA>         3475 Torge~             34.1            18.1
#> 10 Adelie  <NA>         4250 Torge~             42              20.2
#> # ... with 334 more rows, and 1 more variable: flipper_length_mm <dbl>

Similarly, mutate gains new arguments .after and .before to control where new columns should appear.

penguins %>% 
  mutate(mass_double = body_mass_g * 2, .before = 1)
#> # A tibble: 344 x 8
#>    mass_double species island culmen_length_mm culmen_depth_mm flipper_length_~
#>          <dbl> <chr>   <chr>             <dbl>           <dbl>            <dbl>
#>  1        7500 Adelie  Torge~             39.1            18.7              181
#>  2        7600 Adelie  Torge~             39.5            17.4              186
#>  3        6500 Adelie  Torge~             40.3            18                195
#>  4          NA Adelie  Torge~             NA              NA                 NA
#>  5        6900 Adelie  Torge~             36.7            19.3              193
#>  6        7300 Adelie  Torge~             39.3            20.6              190
#>  7        7250 Adelie  Torge~             38.9            17.8              181
#>  8        9350 Adelie  Torge~             39.2            19.6              195
#>  9        6950 Adelie  Torge~             34.1            18.1              193
#> 10        8500 Adelie  Torge~             42              20.2              190
#> # ... with 334 more rows, and 2 more variables: body_mass_g <dbl>, sex <chr>
…
penguins %>% 
  slice_sample(prop = 0.1)
#> # A tibble: 34 x 7
#>    species island culmen_length_mm culmen_depth_mm flipper_length_~ body_mass_g
#>    <chr>   <chr>             <dbl>           <dbl>            <dbl>       <dbl>
#>  1 Adelie  Dream              39.6            18.8              190        4600
#>  2 Chinst~ Dream              53.5            19.9              205        4500
#>  3 Chinst~ Dream              49.8            17.3              198        3675
#>  4 Adelie  Dream              37.6            19.3              181        3300
#>  5 Adelie  Biscoe             38.2            18.1              185        3950
#>  6 Gentoo  Biscoe             52.2            17.1              228        5400
#>  7 Gentoo  Biscoe             42.6            13.7              213        4950
#>  8 Adelie  Dream              39              18.7              185        3650
#>  9 Adelie  Torge~             40.2            17                176        3450
#> 10 Gentoo  Biscoe             46.2            14.9              221        5300
#> # ... with 24 more rows, and 1 more variable: sex <chr>
…
.groups = "drop_last" drops the last grouping level (i.e. the default behaviour).

.groups = "drop" drops all grouping levels and returns a tibble.

.groups = "keep" preserves the grouping of the input.

.groups = "rowwise" turns each row into its own group.

Other changes

The new rename_with() makes it easier to rename variables programmatically:

penguins %>%
  rename_with(stringr::str_to_upper)
#> # A tibble: 344 x 7
#>    SPECIES ISLAND CULMEN_LENGTH_MM CULMEN_DEPTH_MM FLIPPER_LENGTH_~ BODY_MASS_G
#>    <chr>   <chr>             <dbl>           <dbl>            <dbl>       <dbl>
#>  1 Adelie  Torge~             39.1            18.7              181        3750
#>  2 Adelie  Torge~             39.5            17.4              186        3800
#>  3 Adelie  Torge~             40.3            18                195        3250
#>  4 Adelie  Torge~             NA              NA                 NA          NA
#>  5 Adelie  Torge~             36.7            19.3              193        3450
#>  6 Adelie  Torge~             39.3            20.6              190        3650
#>  7 Adelie  Torge~             38.9            17.8              181        3625
#>  8 Adelie  Torge~             39.2            19.6              195        4675
#>  9 Adelie  Torge~             34.1            18.1              193        3475
#> 10 Adelie  Torge~             42              20.2              190        4250
#> # ... with 334 more rows, and 1 more variable: SEX <chr>

You can optionally choose which columns to apply the transformation to with the second argument:

penguins %>%
  rename_with(stringr::str_to_upper, starts_with("culmen"))
#> # A tibble: 344 x 7
#>    species island CULMEN_LENGTH_MM CULMEN_DEPTH_MM flipper_length_~ body_mass_g
#>    <chr>   <chr>             <dbl>           <dbl>            <dbl>       <dbl>
#>  1 Adelie  Torge~             39.1            18.7              181        3750
#>  2 Adelie  Torge~             39.5            17.4              186        3800
#>  3 Adelie  Torge~             40.3            18                195        3250
#>  4 Adelie  Torge~             NA              NA                 NA          NA
#>  5 Adelie  Torge~             36.7            19.3              193        3450
#>  6 Adelie  Torge~             39.3            20.6              190        3650
#>  7 Adelie  Torge~             38.9            17.8              181        3625
#>  8 Adelie  Torge~             39.2            19.6              195        4675
#>  9 Adelie  Torge~             34.1            18.1              193        3475
#> 10 Adelie  Torge~             42              20.2              190        4250
#> # ... with 334 more rows, and 1 more variable: sex <chr>

mutate() gains argument .keep that allows you to control which columns are retained in the output:

penguins %>% mutate(double_mass = body_mass_g * 2,
                    island_lower = stringr::str_to_lower(island), 
                    .keep = "used")
#> # A tibble: 344 x 4
#>    island    body_mass_g double_mass island_lower
#>    <chr>           <dbl>       <dbl> <chr>       
#>  1 Torgersen        3750        7500 torgersen   
#>  2 Torgersen        3800        7600 torgersen   
#>  3 Torgersen        3250        6500 torgersen   
#>  4 Torgersen          NA          NA torgersen   
#>  5 Torgersen        3450        6900 torgersen   
#>  6 Torgersen        3650        7300 torgersen   
#>  7 Torgersen        3625        7250 torgersen   
#>  8 Torgersen        4675        9350 torgersen   
#>  9 Torgersen        3475        6950 torgersen   
#> 10 Torgersen        4250        8500 torgersen   
#> # ... with 334 more rows

penguins %>% mutate(double_mass = body_mass_g * 2, .keep = "none")
#> # A tibble: 344 x 1
#>    double_mass
#>          <dbl>
#>  1        7500
#>  2        7600
#>  3        6500
#>  4          NA
#>  5        6900
#>  6        7300
#>  7        7250
#>  8        9350
#>  9        6950
#> 10        8500
#> # ... with 334 more rows
…
