Tidy Data with Python | Qiushi Yan
…
Case study: mortality data from Mexico

After stating these common problems and their remidies, Hadley presented a case study section on how tidy dataset can facilitate data analysis. The case study uses individual-level mortality data from Mexico. The goal is to find causes of death with unusual temporal patterns, at hour level. It’s time to move back from Python to R!

library(tidyverse)
deaths <- read_csv("D:/RProjects/data/blog/mexico-deaths.csv") %>% na.omit()
deaths
#> # A tibble: 513,273 x 5
#>      yod   mod   dod   hod cod  
#>    <dbl> <dbl> <dbl> <dbl> <chr>
#>  1  1920    11    17     3 W78  
#>  2  1923     2     4    16 J44  
#>  3  1923     6    23    19 E12  
#>  4  1926     2     5    16 C67  
#>  5  1926     4     1    16 J44  
#>  6  1928    10    30    19 I27  
#>  7  1929     4    23    15 I25  
#>  8  1930     9    11    19 E14  
#>  9  1930    12    22    19 E11  
#> 10  1931     5    26    11 K65  
#> # ... with 513,263 more rows

The columns are year, month, day, hour and cause of specific death respectively. Another table codes explains what acronyms in cod mean.

codes <- read_csv("D:/RProjects/data/blog/codes.csv")
codes
#> # A tibble: 1,851 x 2
#>    cod   disease                                                              
#>    <chr> <chr>                                                                
#>  1 A00   "Cholera"                                                            
#>  2 A01   "Typhoid and paratyphoid\nfevers"                                    
#>  3 A02   "Other salmonella infections"                                        
#>  4 A03   "Shigellosis"                                                        
#>  5 A04   "Other bacterial intestinal\ninfections"                             
#>  6 A05   "Other bacterial foodborne\nintoxications, not elsewhere\nclassified"
#>  7 A06   "Amebiasis"                                                          
#>  8 A07   "Other protozoal intestinal\ndiseases"                               
#>  9 A08   "Viral and other specified\nintestinal infections"                   
#> 10 A09   "Diarrhea and gastroenteritis\nof infectious origin"                 
#> # ... with 1,841 more rows
…
dist <- prop1 %>% 
  filter(per_cause > 50) %>% 
  left_join(prop2, on = "hod") %>% 
  select(hour = hod,
         cause,
         n = per_cause,
         prop1,
         prop2) %>% 
  group_by(cause, n) %>% 
  summarize(dist = mean((prop1 - prop2) ^ 2)) %>% 
  ungroup()

dist %>% 
  arrange(desc(dist))
#> # A tibble: 447 x 3
#>    cause                                                               n    dist
#>    <chr>                                                           <int>   <dbl>
#>  1 "Accident to powered aircraft\ncausing injury to occupant"         57 0.00573
#>  2 "Victim of lightning"                                              97 0.00513
#>  3 "Bus occupant injured in other\nand unspecified transport\nacc~    52 0.00419
#>  4 "Assault (homicide) by smoke,\nfire, and flames"                   51 0.00229
#>  5 "Exposure to electric\ntransmission lines"                         77 0.00161
#>  6 "Sudden infant death syndrome"                                    323 0.00156
#>  7 "Drowning and submersion while\nin natural water"                 469 0.00133
#>  8 "Motorcycle rider injured in\ncollision with car, pickup\ntruc~    66 0.00126
#>  9 "Contact with hornets, wasps,\nand bees"                           86 0.00118
#> 10 "Exposure to smoke, fire, and\nflames, undetermined intent"        51 0.00110
#> # ... with 437 more rows
…
