…
\BeginKnitrBlock{exercise}<div class="exercise"><span class="exercise" id="exr:unnamed-chunk-6"><strong>(\#exr:unnamed-chunk-6) </strong></span>The `aus_livestock` data contains the monthly total number of pigs slaughtered in Victoria, Australia, from Jul 1972 to Dec 2018. Use `filter()` to extract pig slaughters in Victoria between 1990 and 1995. Use `autoplot()` and ACF for this data and compare these to white noise plots.</div>\EndKnitrBlock{exercise}




```r
aus_livestock <- aus_livestock %>%
  mutate(year = year(Month)) %>% 
  filter(year >= 1990, year <= 1995, 
         Animal == "Pigs",
         State == "Victoria")

aus_livestock
#> # A tsibble: 72 x 5 [1M]
#> # Key:       Animal, State [1]
#>      Month Animal State    Count  year
#>      <mth> <fct>  <fct>    <dbl> <dbl>
#> 1 1990 Jan Pigs   Victoria 76000  1990
#> 2 1990 Feb Pigs   Victoria 78100  1990
#> 3 1990 Mar Pigs   Victoria 77600  1990
#> 4 1990 Apr Pigs   Victoria 84100  1990
#> 5 1990 May Pigs   Victoria 98000  1990
#> 6 1990 Jun Pigs   Victoria 89100  1990
#> # ... with 66 more rows
```
…
