Text Classfication with Penalized Logistic Regression | Qiushi Yan
…
books <- gutenberg_works() %>% 
  filter(str_detect(author, "Brontë, Emily|Brontë, Charlotte")) %>% 
  gutenberg_download(meta_fields = c("title", "author")) %>% 
  transmute(title,
            author = if_else(author == "Brontë, Emily", 
                             "Emily Brontë", 
                             "Charlotte Brontë") %>% factor(),
            line_index = row_number(),
            text)

books is at line level

books
## # A tibble: 88,989 x 4
##    title        author     line_index text                                      
##    <chr>        <fct>           <int> <chr>                                     
##  1 Wuthering H~ Emily Bro~          1 "WUTHERING HEIGHTS"                       
##  2 Wuthering H~ Emily Bro~          2 ""                                        
##  3 Wuthering H~ Emily Bro~          3 ""                                        
##  4 Wuthering H~ Emily Bro~          4 "CHAPTER I"                               
##  5 Wuthering H~ Emily Bro~          5 ""                                        
##  6 Wuthering H~ Emily Bro~          6 ""                                        
##  7 Wuthering H~ Emily Bro~          7 "1801.--I have just returned from a visit~
##  8 Wuthering H~ Emily Bro~          8 "neighbour that I shall be troubled with.~
##  9 Wuthering H~ Emily Bro~          9 "country!  In all England, I do not belie~
## 10 Wuthering H~ Emily Bro~         10 "situation so completely removed from the~
## # ... with 88,979 more rows
…
Now it’s time to widen our data to reach an appropriate model structure, this similar to a document-term matrix, with rows being a line and column word count.

library(tidymodels)
set.seed(2020)
doParallel::registerDoParallel()

model_df <- tidy_books %>% 
  count(line_index, word) %>% 
  pivot_wider(names_from = word, values_from = n,
              values_fill = list(n = 0)) %>% 
  left_join(books, by = c("line_index" = "line_index")) %>% 
  select(-title, -text)

model_df
## # A tibble: 47,119 x 425
##    line_index heights wuthering chapter returned visit heathcliff heaven black
##         <int>   <int>     <int>   <int>    <int> <int>      <int>  <int> <int>
##  1          1       1         1       0        0     0          0      0     0
##  2          4       0         0       1        0     0          0      0     0
##  3          7       0         0       0        1     1          0      0     0
##  4         11       0         0       0        0     0          1      1     0
##  5         13       0         0       0        0     0          0      0     1
##  6         15       0         0       0        0     0          0      0     0
##  7         18       0         0       0        0     0          1      0     0
##  8         20       0         0       0        0     0          0      0     0
##  9         22       0         0       0        0     0          0      0     0
## 10         23       0         0       0        0     0          0      0     0
## # ... with 47,109 more rows, and 416 more variables: eyes <int>, heart <int>,
## #   fingers <int>, answer <int>, sir <int>, hope <int>, grange <int>,
## #   heard <int>, thrushcross <int>, interrupted <int>, walk <int>,
## #   closed <int>, uttered <int>, gate <int>, words <int>, horse <int>,
## #   hand <int>, entered <int>, joseph <int>, bring <int>, suppose <int>,
## #   nay <int>, dinner <int>, guess <int>, times <int>, wind <int>, house <int>,
## #   strong <int>, set <int>, wall <int>, door <int>, earnshaw <int>,
## #   hareton <int>, short <int>, appeared <int>, desire <int>, entrance <int>,
## #   brought <int>, family <int>, sitting <int>, call <int>, kitchen <int>,
…
book_wf <- workflow() %>% 
  add_model(logistic_spec) %>% 
  add_recipe(book_rec)

initial_fit <- book_wf %>% 
  fit(data = book_train)

initial_fit is a simple fitted regression model without any hyperparameters. By default glmnet calls for 100 values of lambda even if I specify \(\lambda = 0.05\). So the extracted result aren’t that helpful.

initial_fit %>%
  pull_workflow_fit() %>% 
  tidy()
## # A tibble: 26,019 x 5
##    term         step estimate lambda dev.ratio
##    <chr>       <dbl>    <dbl>  <dbl>     <dbl>
##  1 (Intercept)     1 -1.64    0.0838  5.24e-14
##  2 (Intercept)     2 -1.64    0.0764  8.68e- 3
##  3 heathcliff      2  0.0469  0.0764  8.68e- 3
##  4 linton          2  0.00120 0.0764  8.68e- 3
##  5 (Intercept)     3 -1.64    0.0696  2.51e- 2
##  6 heathcliff      3  0.0801  0.0696  2.51e- 2
##  7 catherine       3  0.0269  0.0696  2.51e- 2
##  8 linton          3  0.0413  0.0696  2.51e- 2
##  9 (Intercept)     4 -1.64    0.0634  3.80e- 2
## 10 heathcliff      4  0.107   0.0634  3.80e- 2
## # ... with 26,009 more rows

We can make predictions with initial_fit anyway, and examine metrics like overall accuracy.

initial_predict <- predict(initial_fit, book_test) %>% 
    bind_cols(predict(initial_fit, book_test, type = "prob")) %>%
    bind_cols(book_test %>% select(author, line_index))

initial_predict
## # A tibble: 11,779 x 5
##    .pred_class     `.pred_Charlotte Bro~ `.pred_Emily Bron~ author    line_index
##    <fct>                           <dbl>              <dbl> <fct>          <int>
##  1 Charlotte Bron~                 0.844              0.156 Emily Br~          1
##  2 Charlotte Bron~                 0.844              0.156 Emily Br~         13
##  3 Charlotte Bron~                 0.844              0.156 Emily Br~         30
##  4 Charlotte Bron~                 0.844              0.156 Emily Br~         31
##  5 Charlotte Bron~                 0.844              0.156 Emily Br~         36
##  6 Charlotte Bron~                 0.844              0.156 Emily Br~         56
##  7 Charlotte Bron~                 0.844              0.156 Emily Br~         68
##  8 Charlotte Bron~                 0.844              0.156 Emily Br~         75
##  9 Charlotte Bron~                 0.844              0.156 Emily Br~         89
## 10 Charlotte Bron~                 0.844              0.156 Emily Br~         96
## # ... with 11,769 more rows
…
