GGPLOT2 Tips and Maps in R: A spoonful of ggplot2 3.3.0
…
Better contour calculations

A recurring request has been to allow for filled contours. This has been problematic in the past because stat_density_2d() only calculated the outer contour and didnt cut out any inner holes or next level contours. This meant that if either the fill was partly transparent, or if the level contained any holes, the output would not be a true representation of the data.

volcano_long <- tibble(
  x = as.vector(col(volcano)),
  y = as.vector(row(volcano)),
  z = as.vector(volcano)
)

volcano_long
#> # A tibble: 5,307 x 3
#>        x     y     z
#>    <int> <int> <dbl>
#>  1     1     1   100
#>  2     1     2   101
#>  3     1     3   102
#>  4     1     4   103
#>  5     1     5   104
#>  6     1     6   105
#>  7     1     7   105
#>  8     1     8   106
#>  9     1     9   107
#> 10     1    10   108
#> # ... with 5,297 more rows
…
