Analyzing COVID-19 Publications | Qiushi Yan
…
As illuatrated in Text Mining with R, text analysis commonly requires preprocessing steps like tokenizing, eliminating stop words and word stemming. A little problem is that unnest_tokens() recognize “covid” and “19” as two separated words, so I just add “19” to my custom stop words list. As a result, we have to bear in mind that most “covid” seen below is actually “covid19”.

library(tidytext)
library(SnowballC)

words <- df %>% 
  unnest_tokens(word, abstract) %>% 
  mutate(word = wordStem(word)) %>% 
  anti_join(stop_words %>% 
              add_row(word = c("19", "2", "1", "manag", "dai", "studi", "epidem", "includ", "coronaviru", "diseas", "emetin", "dai", "acut", "dub", "hospit", "hfnc", "caus", "develop", "thi"), 
                      lexicon = "custom")) 

words
#> # A tibble: 159,434 x 2
#>    title                                                              word      
#>    <chr>                                                              <chr>     
#>  1 SARS-CoV-2 is not detectable in the vaginal fluid of women with s~ background
#>  2 SARS-CoV-2 is not detectable in the vaginal fluid of women with s~ sever     
#>  3 SARS-CoV-2 is not detectable in the vaginal fluid of women with s~ respirato~
#>  4 SARS-CoV-2 is not detectable in the vaginal fluid of women with s~ syndrom   
#>  5 SARS-CoV-2 is not detectable in the vaginal fluid of women with s~ sar       
#>  6 SARS-CoV-2 is not detectable in the vaginal fluid of women with s~ cov       
#>  7 SARS-CoV-2 is not detectable in the vaginal fluid of women with s~ mainli    
#>  8 SARS-CoV-2 is not detectable in the vaginal fluid of women with s~ spread    
#>  9 SARS-CoV-2 is not detectable in the vaginal fluid of women with s~ respirato~
#> 10 SARS-CoV-2 is not detectable in the vaginal fluid of women with s~ droplet   
#> # ... with 159,424 more rows
…
Another question of interest is the relationship between words: what group of words tend to appear together? I look at the phi coefficient, which is essentailly \(\chi^2\) statistc in a contingency table applied to categorical variables.

As each abstract is a natual unit of measure, a pair of words that both appear in the same abstract are seen as “appearing together”. We could compute \(\phi\) based on pairwise counts:

library(widyr)

word_cors <- words %>% 
  add_count(word) %>% 
  filter(n > 20) %>%
  select(-n) %>%
  pairwise_cor(item = word, feature = title, sort = TRUE)

word_cors
#> # A tibble: 1,386,506 x 3
#>    item1     item2     correlation
#>    <chr>     <chr>           <dbl>
#>  1 65288     65289           0.960
#>  2 65289     65288           0.960
#>  3 lopinavir ritonavir       0.955
#>  4 ritonavir lopinavir       0.955
#>  5 reserv    copyright       0.947
#>  6 copyright reserv          0.947
#>  7 glass     ground          0.946
#>  8 ground    glass           0.946
#>  9 effus     pleural         0.940
#> 10 pleural   effus           0.940
#> # ... with 1,386,496 more rows
…
