…
This blog post is inspired by Julia Silge’s Reordering and facetting for ggplot2. By reproducing the original post using another different dataset, I hope this could still shed some light on a handful of ggplot2 tips.

Most common words in Jane Austen’s books

Here is a simple task: we want to find the top-10 most common words in several Jane Austen’s books, draw a bar graph, and then put them into different facets.

# load package
library(tidyverse)
library(tidytext)
library(janeaustenr)

austen_books()
#> # A tibble: 73,422 x 2
#>    text                    book               
#>  * <chr>                   <fct>              
#>  1 "SENSE AND SENSIBILITY" Sense & Sensibility
#>  2 ""                      Sense & Sensibility
#>  3 "by Jane Austen"        Sense & Sensibility
#>  4 ""                      Sense & Sensibility
#>  5 "(1811)"                Sense & Sensibility
#>  6 ""                      Sense & Sensibility
#>  7 ""                      Sense & Sensibility
#>  8 ""                      Sense & Sensibility
#>  9 ""                      Sense & Sensibility
#> 10 "CHAPTER 1"             Sense & Sensibility
#> # ... with 73,412 more rows
…
Here we use unnest_tokens from the tidytext package (Robinson and Silge 2019) to break the text into individual tokens and transform it into a tidy structure:

# calculate 10 most common words in each book
common_words <- austen_books() %>%
  unnest_tokens(word, text) %>% 
  anti_join(stop_words) %>% 
  count(book, word) %>% 
  group_by(book) %>% 
  top_n(10)

Take a look at our prepared data:

common_words
#> # A tibble: 60 x 3
#> # Groups:   book [6]
#>    book                word           n
#>    <fct>               <chr>      <int>
#>  1 Sense & Sensibility dashwood     231
#>  2 Sense & Sensibility edward       220
#>  3 Sense & Sensibility elinor       623
#>  4 Sense & Sensibility jennings     199
#>  5 Sense & Sensibility marianne     492
#>  6 Sense & Sensibility miss         210
#>  7 Sense & Sensibility mother       213
#>  8 Sense & Sensibility sister       229
#>  9 Sense & Sensibility time         239
#> 10 Sense & Sensibility willoughby   181
#> # ... with 50 more rows
…
