…
``` r
dps_deadlifts <- dps_records %>% 
  filter(stat_name == "Final Blows") %>% 
  mutate(final_blows = stat_amount) %>% 
  select(-stat_name, -stat_amount) %>%
  add_count(date, team, wt = final_blows, name = "team_final_blows") %>%
  filter(team_final_blows > 10) %>% 
  group_by(date, player, team_final_blows) %>%
  summarize(player_final_blows = sum(final_blows)) %>%
  ungroup() %>%
  mutate(rate = player_final_blows / team_final_blows) %>%
  filter(rate > 0.5) 

dps_deadlifts
#> # A tibble: 827 x 5
#>    date       player   team_final_blows player_final_blows  rate
#>    <date>     <chr>               <dbl>              <dbl> <dbl>
#>  1 2018-01-11 babybay                95                 48 0.505
#>  2 2018-01-11 carpe                  44                 25 0.568
#>  3 2018-01-11 EFFECT                139                 70 0.504
#>  4 2018-01-11 Fleta                 131                 68 0.519
#>  5 2018-01-11 Jake                   35                 20 0.571
#>  6 2018-01-11 Profit                 90                 58 0.644
#>  7 2018-01-11 TviQ                   80                 42 0.525
#>  8 2018-01-11 Undead                 35                 18 0.514
#>  9 2018-01-12 Jake                   95                 49 0.516
#> 10 2018-01-13 Birdring              100                 52 0.52 
#> # ... with 817 more rows
```
