5.2 排序 | R for data science: tidyverse and beyond
…
            R for data science: tidyverse and beyond

5.2 排序

5.2.1 按照水平的频次排序

fct_infreq() 函数根据在数据集中出现的频次对因子的不同水平进行排序。

starwars数据集是对剧中角色信息的一些整理，假设我们想知道全部角色中最常见的发色是什么，可能会做出类似如下的条形图：

starwars
#> # A tibble: 87 x 13
#>   name  height  mass hair_color skin_color eye_color birth_year gender homeworld
#>   <chr>  <int> <dbl> <chr>      <chr>      <chr>          <dbl> <chr>  <chr>    
#> 1 Luke~    172    77 blond      fair       blue            19   male   Tatooine 
#> 2 C-3PO    167    75 <NA>       gold       yellow         112   <NA>   Tatooine 
#> 3 R2-D2     96    32 <NA>       white, bl~ red             33   <NA>   Naboo    
#> 4 Dart~    202   136 none       white      yellow          41.9 male   Tatooine 
#> 5 Leia~    150    49 brown      light      brown           19   female Alderaan 
#> 6 Owen~    178   120 brown, gr~ light      blue            52   male   Tatooine 
#> # ... with 81 more rows, and 4 more variables: species <chr>, films <list>,
#> #   vehicles <list>, starships <list>
…
如果返回starwars数据集，你会发现hair_color其实是字符串变量，但是完全适用于fct_infreq()的操作。

5.2.2 按照其他变量排序

fct_reorder() 其实就是 reorder() 在 forcats 中的实现，它根据因子在其他变量上的统计量（中位数、平均数、···）的值对个水平进行排序，当绘制非频次条形图(stat = "identity")时它便很有用。
我们可以通过 fun 设定统计函数（默认为 median()），desc = T 设定降序排列（默认升序）：

## 对发色分组，计算身高的中位数
(avg_height <- starwars %>% group_by(hair_color) %>%
  summarize(avg_height = mean(height)))
#> # A tibble: 13 x 2
#>   hair_color    avg_height
#>   <chr>              <dbl>
#> 1 auburn              150 
#> 2 auburn, grey        180 
#> 3 auburn, white       182 
#> 4 black                NA 
#> 5 blond               177.
#> 6 blonde              168 
#> # ... with 7 more rows
…
