5.3 Chaning number of levels | R for data science: tidyverse and beyond
…
            R for data science: tidyverse and beyond

5.3 Chaning number of levels

5.3.1 合并水平

fct_count()函数可以很方便地查看因子各水平分布的情况，使用count()函数也可以达到同样的效果

fct_count(starwars$skin_color, sort = T)
#> # A tibble: 31 x 2
#>   f         n
#>   <fct> <int>
#> 1 fair     17
#> 2 light    11
#> 3 dark      6
#> 4 green     6
#> 5 grey      6
#> 6 pale      5
#> # ... with 25 more rows
…
如果给 n 或者 prop 指定一个负数，则频数最多的一些水平将被合并：

## 留下频次最低的5个水平
starwars %>%
  mutate(skin_color = fct_lump(skin_color, n = -5)) %>%
  count(skin_color, sort = T)
#> # A tibble: 17 x 2
#>   skin_color              n
#>   <fct>               <int>
#> 1 Other                  71
#> 2 brown mottle            1
#> 3 brown, white            1
#> 4 fair, green, yellow     1
#> 5 gold                    1
#> 6 green-tan, brown        1
#> # ... with 11 more rows
## 占据频数超过90%的水平被合并为other
starwars %>%
  mutate(skin_color = fct_lump(skin_color, prop = -0.1)) %>%
  count(skin_color, sort = T)
#> # A tibble: 30 x 2
#>   skin_color     n
#>   <fct>      <int>
#> 1 Other         28
#> 2 dark           6
#> 3 green          6
#> 4 grey           6
#> 5 pale           5
#> 6 brown          4
#> # ... with 24 more rows

如果想人为地对水平进行合并，而不考虑频次，可以使用fct_other(f, keep, drop, other_level = "Other)，keep 指定保留水平，drop 指定合并水平：

x <- factor(rep(LETTERS[1:9], times = c(40, 10, 5, 27, 1, 1, 1, 1, 1)))
fct_count(x,sort=T)
#> # A tibble: 9 x 2
#>   f         n
#>   <fct> <int>
#> 1 A        40
#> 2 D        27
#> 3 B        10
#> 4 C         5
#> 5 E         1
#> 6 F         1
#> # ... with 3 more rows
…
5.3.3 舍弃水平(Dropping unused levels)

有时候我们希望在数据中取出一个子集，这可能导致在子集中，因子在某些水平上的频次为0，但R并不会自动舍弃舍弃频次为0的水平：

## 在原始数据汇总，hair_color共有12个水平
nlevels(factor(starwars$hair_color))
#> [1] 12

fct_count(starwars$hair_color)
#> # A tibble: 13 x 2
#>   f                 n
#>   <fct>         <int>
#> 1 auburn            1
#> 2 auburn, grey      1
#> 3 auburn, white     1
#> 4 black            13
#> 5 blond             3
#> 6 blonde            1
#> # ... with 7 more rows

## 筛选重量在70~135的角色，得到一个子集
(starwars_sub <- starwars %>%
  filter(between(mass, 70, 135)))
#> # A tibble: 34 x 13
#>   name  height  mass hair_color skin_color eye_color birth_year gender homeworld
#>   <chr>  <int> <dbl> <chr>      <chr>      <chr>          <dbl> <chr>  <chr>    
#> 1 Luke~    172    77 blond      fair       blue              19 male   Tatooine 
#> 2 C-3PO    167    75 <NA>       gold       yellow           112 <NA>   Tatooine 
#> 3 Owen~    178   120 brown, gr~ light      blue              52 male   Tatooine 
#> 4 Beru~    165    75 brown      light      blue              47 female Tatooine 
#> 5 Bigg~    183    84 black      light      brown             24 male   Tatooine 
#> 6 Obi-~    182    77 auburn, w~ fair       blue-gray         57 male   Stewjon  
#> # ... with 28 more rows, and 4 more variables: species <chr>, films <list>,
#> #   vehicles <list>, starships <list>

## 现在hair_color只在8个有效水平上有记录，但是总的水平个数没有改变 
nlevels(factor(starwars$hair_color))
#> [1] 12
fct_count(starwars_sub$hair_color)
#> # A tibble: 9 x 2
#>   f                 n
#>   <fct>         <int>
#> 1 auburn, white     1
#> 2 black             5
#> 3 blond             2
#> 4 brown             7
#> 5 brown, grey       1
#> 6 grey              1
#> # ... with 3 more rows
…
