1 dplyr | R for data science: tidyverse and beyond
…
这些函数有完全相同的参数结构和工作方式：

第一个参数是数据集，表明我们想对什么数据进行处理

随后的参数是变量名称（不带引号）描述了在数据上进行什么处理，不同的变量之间用逗号分隔

它们不会改变原数据，而是生成一个新的数据框

1.2 filter()筛选行

filter()函数可以基于观测值筛选行，符合条件的行留下，不符合条件的被剔除，最终得到一个观测子集。第一个参数是数据集的名称，第二个参数以及随后的参数是用来筛选行的条件。例如，我们可以使用以下代码筛选出一月一日的所有航班（条件：月 = 1 且 日=1）

flights %>% filter(month == 1, day == 1)
#> # A tibble: 842 x 19
#>    year month   day dep_time sched_dep_time dep_delay arr_time sched_arr_time
#>   <int> <int> <int>    <int>          <int>     <dbl>    <int>          <int>
#> 1  2013     1     1      517            515         2      830            819
#> 2  2013     1     1      533            529         4      850            830
#> 3  2013     1     1      542            540         2      923            850
#> 4  2013     1     1      544            545        -1     1004           1022
#> 5  2013     1     1      554            600        -6      812            837
#> 6  2013     1     1      554            558        -4      740            728
#> # … with 836 more rows, and 11 more variables: arr_delay <dbl>, carrier <chr>,
#> #   flight <int>, tailnum <chr>, origin <chr>, dest <chr>, air_time <dbl>,
#> #   distance <dbl>, hour <dbl>, minute <dbl>, time_hour <dttm>

filter()函数的内部执行原理：
以行为单位，如果该行满足所指定的条件，则被筛选出 ； 若不满足，则被剔除。使用filter()时，总应该从每一行的角度来思考问题。

因为dplyr中的函数从不改变原数据，如果想储存filter()得出的结果，那么需要把它赋值给一个变量。

jan = flights %>% filter(month == 1, day == 1)

R 要么输出结果，要么将结果保存在变量中。如果想要在存储的同时显示结果，可以用括号将赋值语句括起来：

(jan = flights %>% filter(month == 1, day == 1))
#> # A tibble: 842 x 19
#>    year month   day dep_time sched_dep_time dep_delay arr_time sched_arr_time
#>   <int> <int> <int>    <int>          <int>     <dbl>    <int>          <int>
#> 1  2013     1     1      517            515         2      830            819
#> 2  2013     1     1      533            529         4      850            830
#> 3  2013     1     1      542            540         2      923            850
#> 4  2013     1     1      544            545        -1     1004           1022
#> 5  2013     1     1      554            600        -6      812            837
#> 6  2013     1     1      554            558        -4      740            728
#> # … with 836 more rows, and 11 more variables: arr_delay <dbl>, carrier <chr>,
#> #   flight <int>, tailnum <chr>, origin <chr>, dest <chr>, air_time <dbl>,
#> #   distance <dbl>, hour <dbl>, minute <dbl>, time_hour <dttm>
…
飞往休斯顿（IAH机场或者HOU机场）的航班

flights %>% filter(dest == "IAH" | dest == "HOU")
#> # A tibble: 9,313 x 19
#>    year month   day dep_time sched_dep_time dep_delay arr_time sched_arr_time
#>   <int> <int> <int>    <int>          <int>     <dbl>    <int>          <int>
#> 1  2013     1     1      517            515         2      830            819
#> 2  2013     1     1      533            529         4      850            830
#> 3  2013     1     1      623            627        -4      933            932
#> 4  2013     1     1      728            732        -4     1041           1038
#> 5  2013     1     1      739            739         0     1104           1038
#> 6  2013     1     1      908            908         0     1228           1219
#> # … with 9,307 more rows, and 11 more variables: arr_delay <dbl>,
#> #   carrier <chr>, flight <int>, tailnum <chr>, origin <chr>, dest <chr>,
#> #   air_time <dbl>, distance <dbl>, hour <dbl>, minute <dbl>, time_hour <dttm>
…
我们可以在airlines数据集中找到这些缩写的含义：

airlines
#> # A tibble: 16 x 2
#>   carrier name                    
#>   <chr>   <chr>                   
#> 1 9E      Endeavor Air Inc.       
#> 2 AA      American Airlines Inc.  
#> 3 AS      Alaska Airlines Inc.    
#> 4 B6      JetBlue Airways         
#> 5 DL      Delta Air Lines Inc.    
#> 6 EV      ExpressJet Airlines Inc.
#> # … with 10 more rows
…
到达时间延误超过两小时，但出发时间没有延误的航班

flights %>% filter(dep_delay > 120 ,
                   arr_delay <= 120)
#> # A tibble: 1,262 x 19
#>    year month   day dep_time sched_dep_time dep_delay arr_time sched_arr_time
#>   <int> <int> <int>    <int>          <int>     <dbl>    <int>          <int>
#> 1  2013     1     1     1540           1338       122     2020           1825
#> 2  2013     1     2     2334           2129       125       33           2242
#> 3  2013     1     3     1321           1115       126     1450           1257
#> 4  2013     1     3     1758           1550       128     2240           2050
#> 5  2013     1     3     1933           1730       123     2131           1953
#> 6  2013     1     4     1602           1359       123     1715           1517
#> # … with 1,256 more rows, and 11 more variables: arr_delay <dbl>,
#> #   carrier <chr>, flight <int>, tailnum <chr>, origin <chr>, dest <chr>,
#> #   air_time <dbl>, distance <dbl>, hour <dbl>, minute <dbl>, time_hour <dttm>
…
出发时间在午夜和早上6点之间（包括0点和6点）的航班

在变量dep_time中，0 点用数值 2400 代表：

summary(flights$dep_time)
#>    Min. 1st Qu.  Median    Mean 3rd Qu.    Max.    NA's 
#>       1     907    1401    1349    1744    2400    8255

出于这点，不能简单写成dep_time <= 600，而是如下：

flights %>%  filter(dep_time <= 600 | dep_time == 2400)
#> # A tibble: 9,373 x 19
#>    year month   day dep_time sched_dep_time dep_delay arr_time sched_arr_time
#>   <int> <int> <int>    <int>          <int>     <dbl>    <int>          <int>
#> 1  2013     1     1      517            515         2      830            819
#> 2  2013     1     1      533            529         4      850            830
#> 3  2013     1     1      542            540         2      923            850
#> 4  2013     1     1      544            545        -1     1004           1022
#> 5  2013     1     1      554            600        -6      812            837
#> 6  2013     1     1      554            558        -4      740            728
#> # … with 9,367 more rows, and 11 more variables: arr_delay <dbl>,
#> #   carrier <chr>, flight <int>, tailnum <chr>, origin <chr>, dest <chr>,
#> #   air_time <dbl>, distance <dbl>, hour <dbl>, minute <dbl>, time_hour <dttm>

Exercise 1.2  dep_time`有缺失值的航班有多少？其他变量的缺失值情况如何？

sum(is.na(flights$dep_time))
#> [1] 8255
flights %>% filter(is.na(dep_time))
#> # A tibble: 8,255 x 19
#>    year month   day dep_time sched_dep_time dep_delay arr_time sched_arr_time
#>   <int> <int> <int>    <int>          <int>     <dbl>    <int>          <int>
#> 1  2013     1     1       NA           1630        NA       NA           1815
#> 2  2013     1     1       NA           1935        NA       NA           2240
#> 3  2013     1     1       NA           1500        NA       NA           1825
#> 4  2013     1     1       NA            600        NA       NA            901
#> 5  2013     1     2       NA           1540        NA       NA           1747
#> 6  2013     1     2       NA           1620        NA       NA           1746
#> # … with 8,249 more rows, and 11 more variables: arr_delay <dbl>,
#> #   carrier <chr>, flight <int>, tailnum <chr>, origin <chr>, dest <chr>,
#> #   air_time <dbl>, distance <dbl>, hour <dbl>, minute <dbl>, time_hour <dttm>
…
当要求依据某种排序选出前/后n个观测时，arrange()配合slice()会很方便。例如，下面的代码都选出出发时间最早的10架航班，但是第一种方法更简单一些：

## arrange + slice
flights %>% arrange(dep_time) %>% slice(1:10)
#> # A tibble: 10 x 19
#>    year month   day dep_time sched_dep_time dep_delay arr_time sched_arr_time
#>   <int> <int> <int>    <int>          <int>     <dbl>    <int>          <int>
#> 1  2013     1    13        1           2249        72      108           2357
#> 2  2013     1    31        1           2100       181      124           2225
#> 3  2013    11    13        1           2359         2      442            440
#> 4  2013    12    16        1           2359         2      447            437
#> 5  2013    12    20        1           2359         2      430            440
#> 6  2013    12    26        1           2359         2      437            440
#> # … with 4 more rows, and 11 more variables: arr_delay <dbl>, carrier <chr>,
#> #   flight <int>, tailnum <chr>, origin <chr>, dest <chr>, air_time <dbl>,
#> #   distance <dbl>, hour <dbl>, minute <dbl>, time_hour <dttm>
## filter
flights %>% filter(min_rank(dep_time)<=10)
#> # A tibble: 25 x 19
#>    year month   day dep_time sched_dep_time dep_delay arr_time sched_arr_time
#>   <int> <int> <int>    <int>          <int>     <dbl>    <int>          <int>
#> 1  2013     1    13        1           2249        72      108           2357
#> 2  2013     1    31        1           2100       181      124           2225
#> 3  2013    11    13        1           2359         2      442            440
#> 4  2013    12    16        1           2359         2      447            437
#> 5  2013    12    20        1           2359         2      430            440
#> 6  2013    12    26        1           2359         2      437            440
#> # … with 19 more rows, and 11 more variables: arr_delay <dbl>, carrier <chr>,
#> #   flight <int>, tailnum <chr>, origin <chr>, dest <chr>, air_time <dbl>,
#> #   distance <dbl>, hour <dbl>, minute <dbl>, time_hour <dttm>
…
比较dep_time、sched_dep_time和dep_delay，这三者应该是何种关系？

flights_deptime <-
  mutate(flights,
    dep_time_min = (dep_time %/% 100 * 60 + dep_time %% 100) %% 1440,
    sched_dep_time_min = (sched_dep_time %/% 100 * 60 +
                          sched_dep_time %% 100) %% 1440,
    dep_delay_diff = dep_delay - dep_time_min + sched_dep_time_min
  )
filter(flights_deptime, dep_delay_diff != 0) %>% select(dep_delay_diff)
#> # A tibble: 1,236 x 1
#>   dep_delay_diff
#>            <dbl>
#> 1           1440
#> 2           1440
#> 3           1440
#> 4           1440
#> 5           1440
#> 6           1440
#> # … with 1,230 more rows
…
## 计算平均出发延误时间
summarize(flights,delay = mean(dep_delay,na.rm = TRUE))
#> # A tibble: 1 x 1
#>   delay
#>   <dbl>
#> 1  12.6

如果不和 group_by() 一起使用，那么 summarize() 也就没什么大用。group_by() 函数与 summarize() 联合使用的时候可以将分析单位从整个数据集更改为单个分组，接下来，在分组后的数据框上使用dplyr函数时，它们会自动应用到每个分组。更简单第说，你想从哪个层级上分析问题，就在group_by中对什么层级进行分组。group_by() + summarize()可以实现类似aggregate()函数的效果。
例如，我们想知道每一天的平均出发延误时间，可以先对(year,month,day)进行分组，然后再使用summarize()：

flights %>% 
  group_by(year,month,day) %>% 
  summarize(delay = mean(dep_delay,na.rm = T))
#> # A tibble: 365 x 4
#> # Groups:   year, month [12]
#>    year month   day delay
#>   <int> <int> <int> <dbl>
#> 1  2013     1     1 11.5 
#> 2  2013     1     2 13.9 
#> 3  2013     1     3 11.0 
#> 4  2013     1     4  8.95
#> 5  2013     1     5  5.73
#> 6  2013     1     6  7.15
#> # … with 359 more rows
…
比较这两个结果，我们可以发现group_by()中越靠后的参数是越基本的单位，group_by(year,month,day)将按照 day, month, year 的顺序开始循环 ； 而 aggregate() 函数则正好相反

1.6.1 缺失值

在按照日期计算平均出发延误时间的例子中，使用mean()时设置了参数na.rm =  T，如果没有这样做，很多日期的平均延误时间将是缺失值：

flights %>% 
  group_by(year,month,day) %>% 
  summarize(delay = mean(dep_delay))
#> # A tibble: 365 x 4
#> # Groups:   year, month [12]
#>    year month   day delay
#>   <int> <int> <int> <dbl>
#> 1  2013     1     1    NA
#> 2  2013     1     2    NA
#> 3  2013     1     3    NA
#> 4  2013     1     4    NA
#> 5  2013     1     5    NA
#> 6  2013     1     6    NA
#> # … with 359 more rows

这是因为聚合函数遵循缺失值的一般规则：如果输入中有缺失值，那么输出也是缺失值。好在所有聚合函数都有一个 na.rm 参数，可以在计算前出去缺失值。

在这个示例中，缺失值来源于取消的航班。我们也可以先取出取消的航班来解决却实质问题。保存去除缺失值的数据集为not_cancelled，以便我们可以在接下来的几个示例中继续使用：

not_cancelled <- flights %>% 
  filter(!is.na(dep_delay), !is.na(arr_delay))

not_cancelled %>% 
  group_by(year,month,day) %>% 
  summarize(delay = mean(dep_delay))
#> # A tibble: 365 x 4
#> # Groups:   year, month [12]
#>    year month   day delay
#>   <int> <int> <int> <dbl>
#> 1  2013     1     1 11.4 
#> 2  2013     1     2 13.7 
#> 3  2013     1     3 10.9 
#> 4  2013     1     4  8.97
#> 5  2013     1     5  5.73
#> 6  2013     1     6  7.15
#> # … with 359 more rows
…
flights %>% 
  summarize(n = n())
#> # A tibble: 1 x 1
#>        n
#>    <int>
#> 1 336776

和group_by联合使用时，它可以计算分组变量的每个水平上各有多少个观测：

## 每个月各有多少趟航班
flights %>% 
  group_by(month) %>% 
  summarize(n = n())  ## 等价于summarize(n = sum(month))
#> # A tibble: 12 x 2
#>   month     n
#>   <int> <int>
#> 1     1 27004
#> 2     2 24951
#> 3     3 28834
#> 4     4 28330
#> 5     5 28796
#> 6     6 28243
#> # … with 6 more rows

n()会把缺失值也包含到计数中，如果想要计算出非缺失值的数量，可以使用sum(is.na(x))。如果想要计算唯一值的数量，可以使用n_distinct()

## 哪个目的地有最多的航空公司？
flights %>% 
  group_by(dest) %>% 
  summarize(carriers = n_distinct(carrier)) %>% 
  arrange(desc(carriers))
#> # A tibble: 105 x 2
#>   dest  carriers
#>   <chr>    <int>
#> 1 ATL          7
#> 2 BOS          7
#> 3 CLT          7
#> 4 ORD          7
#> 5 TPA          7
#> 6 AUS          6
#> # … with 99 more rows
…
## count() 等价 group_by() + tally()
mtcars %>%
  count(cyl)
#> # A tibble: 3 x 2
#>     cyl     n
#>   <dbl> <int>
#> 1     4    11
#> 2     6     7
#> 3     8    14

## count() 也可以在已有分组上继续分组  
mtcars %>%
  group_by(gear) %>%
  count(carb)
#> # A tibble: 11 x 3
#> # Groups:   gear [3]
#>    gear  carb     n
#>   <dbl> <dbl> <int>
#> 1     3     1     3
#> 2     3     2     4
#> 3     3     3     3
#> 4     3     4     5
#> 5     4     1     4
#> 6     4     2     4
#> # … with 5 more rows

## add_tally() is short-hand for mutate()
mtcars %>% 
  add_tally()
#> # A tibble: 32 x 12
#>     mpg   cyl  disp    hp  drat    wt  qsec    vs    am  gear  carb     n
#>   <dbl> <dbl> <dbl> <dbl> <dbl> <dbl> <dbl> <dbl> <dbl> <dbl> <dbl> <int>
#> 1  21       6   160   110  3.9   2.62  16.5     0     1     4     4    32
#> 2  21       6   160   110  3.9   2.88  17.0     0     1     4     4    32
#> 3  22.8     4   108    93  3.85  2.32  18.6     1     1     4     1    32
#> 4  21.4     6   258   110  3.08  3.22  19.4     1     0     3     1    32
#> 5  18.7     8   360   175  3.15  3.44  17.0     0     0     3     2    32
#> 6  18.1     6   225   105  2.76  3.46  20.2     1     0     3     1    32
#> # … with 26 more rows

## add_count() is a short-hand for group_by() + add_tally()
mtcars %>%
  add_count(cyl, name = "count") %>%
  select(cyl, count)
#> # A tibble: 32 x 2
#>     cyl count
#>   <dbl> <int>
#> 1     6     7
#> 2     6     7
#> 3     4    11
#> 4     6     7
#> 5     8    14
#> 6     6     7
#> # … with 26 more rows

# add_count() is useful for groupwise filtering
# e.g.: show details for species that have a single member
starwars %>%
  add_count(species) %>%
  filter(n == 1)
#> # A tibble: 29 x 14
#>   name  height  mass hair_color skin_color eye_color birth_year gender homeworld
#>   <chr>  <int> <dbl> <chr>      <chr>      <chr>          <dbl> <chr>  <chr>    
#> 1 Gree…    173    74 <NA>       green      black             44 male   Rodia    
#> 2 Jabb…    175  1358 <NA>       green-tan… orange           600 herma… Nal Hutta
#> 3 Yoda      66    17 white      green      brown            896 male   <NA>     
#> 4 Bossk    190   113 none       green      red               53 male   Trandosha
#> 5 Ackb…    180    83 none       brown mot… orange            41 male   Mon Cala 
#> 6 Wick…     88    20 brown      brown      brown              8 male   Endor    
#> # … with 23 more rows, and 5 more variables: species <chr>, films <list>,
#> #   vehicles <list>, starships <list>, n <int>

另外，在z和一些函数中函数中设置sort = T可以使观测按照计数倒序排列，name参数可以指定新生成的计数行名字（默认为“n”):

not_cancelled %>% 
  count(dest, sort = T, name = "count")
#> # A tibble: 104 x 2
#>   dest  count
#>   <chr> <int>
#> 1 ATL   16837
#> 2 ORD   16566
#> 3 LAX   16026
#> 4 BOS   15022
#> 5 MCO   13967
#> 6 CLT   13674
#> # … with 98 more rows

还可以提供一个加权变量。例如，可以使用一下代码算出每架飞机飞行的总里程（实际上就是按计算某变量分组上另一个变量的和）：

not_cancelled %>% 
  count(tailnum, wt = distance)  
#> # A tibble: 4,037 x 2
#>   tailnum      n
#>   <chr>    <dbl>
#> 1 D942DN    3418
#> 2 N0EGMQ  239143
#> 3 N10156  109664
#> 4 N102UW   25722
#> 5 N103US   24619
#> 6 N104UW   24616
#> # … with 4,031 more rows
…
1.6.3 逻辑值的计数和比例:sum(x > 10) 和 mean(y == 0)

当与数值型函数一同使用时，TRUE会转换为1，FALSE会转换为0。这使得sum()和mean()非常适用于逻辑值：sum()可以找出x中TRUE的数量，mean()则可以找出比例。

## 每天中有多少架航班是在早上5点前出发的？（这通常表明前一天延误的航班数量）
not_cancelled %>% 
  group_by(year,month,day) %>% 
  summarize(n_early = sum(dep_time < 500))
#> # A tibble: 365 x 4
#> # Groups:   year, month [12]
#>    year month   day n_early
#>   <int> <int> <int>   <int>
#> 1  2013     1     1       0
#> 2  2013     1     2       3
#> 3  2013     1     3       4
#> 4  2013     1     4       3
#> 5  2013     1     5       3
#> 6  2013     1     6       2
#> # … with 359 more rows
## 每天中到达时间误超过一小时的航班比例是多少？
not_cancelled %>% 
  group_by(year,month,day) %>% 
  summarize(hour_perc = mean(arr_delay > 60))
#> # A tibble: 365 x 4
#> # Groups:   year, month [12]
#>    year month   day hour_perc
#>   <int> <int> <int>     <dbl>
#> 1  2013     1     1    0.0722
#> 2  2013     1     2    0.0851
#> 3  2013     1     3    0.0567
#> 4  2013     1     4    0.0396
#> 5  2013     1     5    0.0349
#> 6  2013     1     6    0.0470
#> # … with 359 more rows
…
R中还提供了许多常用的摘要函数

位置度量

我们已经使用过mean(x)、但用 median(x) 计算中位数也非常有用。

## 将聚合函数和逻辑筛选组合起来使用
not_cancelled %>% group_by(year,month,day) %>% summarize(
  ## 延误时间的中位数
  arr_delay1 = median(arr_delay),
  ## 正延误时间的中位数
  arr_delay2 = median(arr_delay[arr_delay > 0])
)
#> # A tibble: 365 x 5
#> # Groups:   year, month [12]
#>    year month   day arr_delay1 arr_delay2
#>   <int> <int> <int>      <dbl>      <dbl>
#> 1  2013     1     1          3         17
#> 2  2013     1     2          4         16
#> 3  2013     1     3          1         16
#> 4  2013     1     4         -8         16
#> 5  2013     1     5         -7         11
#> 6  2013     1     6         -1         15
#> # … with 359 more rows

分散程度度量sd(x)、IQR(x)和mad(x)

标准差是分散程度的标准度量方式。四分位距INterquartile RangeIQR(x)和绝对中位差mad(x)基本等价，更适合有离群点的情况：

## 为什么到某些目的地距离比到其他目的地更多变？
not_cancelled %>% group_by(dest) %>% summarize(distance_sd = sd(distance)) %>% arrange(desc(distance_sd))
#> # A tibble: 104 x 2
#>   dest  distance_sd
#>   <chr>       <dbl>
#> 1 EGE         10.5 
#> 2 SAN         10.4 
#> 3 SFO         10.2 
#> 4 HNL         10.0 
#> 5 SEA          9.98
#> 6 LAS          9.91
#> # … with 98 more rows

秩的度量:min(x)、quantile(x,0.25)和max(x)

分位数是中位数的扩展。例如quantile(x,0.25)会找出x中按从小到大顺序大于前25%而小于后75%的值（即下四分位数）

## 每天最早和最晚的航班何时出发？
not_cancelled %>% group_by(year,month,day) %>% summarize(first = min(dep_time),last = max(dep_time)) 
#> # A tibble: 365 x 5
#> # Groups:   year, month [12]
#>    year month   day first  last
#>   <int> <int> <int> <int> <int>
#> 1  2013     1     1   517  2356
#> 2  2013     1     2    42  2354
#> 3  2013     1     3    32  2349
#> 4  2013     1     4    25  2358
#> 5  2013     1     5    14  2357
#> 6  2013     1     6    16  2355
#> # … with 359 more rows

定位度量:first(x)、nth(x,n)、last(x)

这几个函数的作用与x[1]、x[n]和x[length(x)]相同，只是当定位不存在时（比如尝试从只有两个元素的分组中得到第三个元素），这些函数允许通过参数default设置一个默认值，而后者不能正常工作。

## 找出每天排在第10的的出发时间记录
not_cancelled %>% 
  group_by(month,year,day) %>% 
  summarize(tenth_dep = nth(dep_time,10))
#> # A tibble: 365 x 4
#> # Groups:   month, year [12]
#>   month  year   day tenth_dep
#>   <int> <int> <int>     <int>
#> 1     1  2013     1       558
#> 2     1  2013     2       554
#> 3     1  2013     3       552
#> 4     1  2013     4       553
#> 5     1  2013     5       555
#> 6     1  2013     6       558
#> # … with 359 more rows

1.6.5 多个分组变量的消耗

当时用多个分组变量时，每使用一次summarize就会消耗掉一个分组变量，如group_by(year,month,day)经过一次summarize后生成的数据集默认在(year,month)上分组，这使得我们可以对数据集进行循序渐进的分析：

daily <- not_cancelled %>% group_by(year,month,day) 
## 每天有多少架航班记录
(per_day <- daily %>% 
    summarize(flights = n()))  
#> # A tibble: 365 x 4
#> # Groups:   year, month [12]
#>    year month   day flights
#>   <int> <int> <int>   <int>
#> 1  2013     1     1     831
#> 2  2013     1     2     928
#> 3  2013     1     3     900
#> 4  2013     1     4     908
#> 5  2013     1     5     717
#> 6  2013     1     6     829
#> # … with 359 more rows
…
