19.1 Exploring | R for data science: tidyverse and beyond
…
It’s worth to mention one dplyr functions that does the same thing:

dplyr::na_if()

y <- c("abc", "def", "", "ghi")
na_if(y, "")
#> [1] "abc" "def" NA    "ghi"

# na_if is particularly useful inside mutate,
# and is meant for use with vectors rather than entire data frames
starwars %>%
  select(name, eye_color) %>%
  mutate(eye_color = na_if(eye_color, "unknown"))
#> # A tibble: 87 x 2
#>   name           eye_color
#>   <chr>          <chr>    
#> 1 Luke Skywalker blue     
#> 2 C-3PO          yellow   
#> 3 R2-D2          red      
#> 4 Darth Vader    yellow   
#> 5 Leia Organa    brown    
#> 6 Owen Lars      blue     
#> # ... with 81 more rows
…
