5 forcats | R for data science: tidyverse and beyond
…
levels(f1)
#> [1] "Dec" "Apr" "Jan" "Mar"
nlevels(f1)
#> [1] 4

5.2 排序

5.2.1 按照水平的频次排序

fct_infreq() 函数根据在数据集中出现的频次对因子的不同水平进行排序。

starwars数据集是对剧中角色信息的一些整理，假设我们想知道全部角色中最常见的发色是什么，可能会做出类似如下的条形图：

starwars
#> # A tibble: 87 x 13
#>   name  height  mass hair_color skin_color eye_color birth_year gender homeworld
#>   <chr>  <int> <dbl> <chr>      <chr>      <chr>          <dbl> <chr>  <chr>    
#> 1 Luke…    172    77 blond      fair       blue            19   male   Tatooine 
#> 2 C-3PO    167    75 <NA>       gold       yellow         112   <NA>   Tatooine 
#> 3 R2-D2     96    32 <NA>       white, bl… red             33   <NA>   Naboo    
#> 4 Dart…    202   136 none       white      yellow          41.9 male   Tatooine 
#> 5 Leia…    150    49 brown      light      brown           19   female Alderaan 
#> 6 Owen…    178   120 brown, gr… light      blue            52   male   Tatooine 
#> # … with 81 more rows, and 4 more variables: species <chr>, films <list>,
#> #   vehicles <list>, starships <list>
…
如果返回starwars数据集，你会发现hair_color其实是字符串变量，但是完全适用于fct_infreq()的操作。

5.2.2 按照其他变量排序

fct_reorder() 其实就是 reorder() 在 forcats 中的实现，它根据因子在其他变量上的统计量（中位数、平均数、···）的值对个水平进行排序，当绘制非频次条形图(stat = "identity")时它便很有用。
我们可以通过 fun 设定统计函数（默认为 median()），desc = T 设定降序排列（默认升序）：

## 对发色分组，计算身高的中位数
(avg_height <- starwars %>% group_by(hair_color) %>%
  summarize(avg_height = mean(height)))
#> # A tibble: 13 x 2
#>   hair_color    avg_height
#>   <chr>              <dbl>
#> 1 auburn              150 
#> 2 auburn, grey        180 
#> 3 auburn, white       182 
#> 4 black                NA 
#> 5 blond               177.
#> 6 blonde              168 
#> # … with 7 more rows
…
5.3 改变水平个数

5.3.1 合并水平

forcats包提供了fct_count()函数可以很方便地查看因子各水平分布的情况，使用count()函数也可以达到同样的效果

fct_count(starwars$skin_color, sort = T)
#> # A tibble: 31 x 2
#>   f         n
#>   <fct> <int>
#> 1 fair     17
#> 2 light    11
#> 3 dark      6
#> 4 green     6
#> 5 grey      6
#> 6 pale      5
#> # … with 25 more rows
…
如果给参数n或者prop指定一个复数，则频数最多的水平将被合并：

## 留下频次最低的5个水平
starwars %>%
  mutate(skin_color = fct_lump(skin_color, n = -5)) %>%
  count(skin_color, sort = T)
#> # A tibble: 17 x 2
#>   skin_color              n
#>   <fct>               <int>
#> 1 Other                  71
#> 2 brown mottle            1
#> 3 brown, white            1
#> 4 fair, green, yellow     1
#> 5 gold                    1
#> 6 green-tan, brown        1
#> # … with 11 more rows
## 占据频数超过90%的水平被合并为other
starwars %>%
  mutate(skin_color = fct_lump(skin_color, prop = -0.1)) %>%
  count(skin_color, sort = T)
#> # A tibble: 30 x 2
#>   skin_color     n
#>   <fct>      <int>
#> 1 Other         28
#> 2 dark           6
#> 3 green          6
#> 4 grey           6
#> 5 pale           5
#> 6 brown          4
#> # … with 24 more rows

如果想人为地对水平进行合并，而不考虑频次，可以使用fct_other(f,keep,drop,other_level = "Other)函数，keep指定保留水平，drop指定合并水平：

x <- factor(rep(LETTERS[1:9], times = c(40, 10, 5, 27, 1, 1, 1, 1, 1)))
fct_count(x,sort=T)
#> # A tibble: 9 x 2
#>   f         n
#>   <fct> <int>
#> 1 A        40
#> 2 D        27
#> 3 B        10
#> 4 C         5
#> 5 E         1
#> 6 F         1
#> # … with 3 more rows
…
5.3.3 舍弃水平(Dropping unused levels)

有时候我们希望在数据中取出一个子集，这可能导致在子集中，因子在某些水平上的频次为0，但R并不会自动舍弃舍弃频次为0的水平：

## 在原始数据汇总，hair_color共有12个水平
nlevels(factor(starwars$hair_color))
#> [1] 12

fct_count(starwars$hair_color)
#> # A tibble: 13 x 2
#>   f                 n
#>   <fct>         <int>
#> 1 auburn            1
#> 2 auburn, grey      1
#> 3 auburn, white     1
#> 4 black            13
#> 5 blond             3
#> 6 blonde            1
#> # … with 7 more rows

## 筛选重量在70~135的角色，得到一个子集
(starwars_sub <- starwars %>%
  filter(between(mass, 70, 135)))
#> # A tibble: 34 x 13
#>   name  height  mass hair_color skin_color eye_color birth_year gender homeworld
#>   <chr>  <int> <dbl> <chr>      <chr>      <chr>          <dbl> <chr>  <chr>    
#> 1 Luke…    172    77 blond      fair       blue              19 male   Tatooine 
#> 2 C-3PO    167    75 <NA>       gold       yellow           112 <NA>   Tatooine 
#> 3 Owen…    178   120 brown, gr… light      blue              52 male   Tatooine 
#> 4 Beru…    165    75 brown      light      blue              47 female Tatooine 
#> 5 Bigg…    183    84 black      light      brown             24 male   Tatooine 
#> 6 Obi-…    182    77 auburn, w… fair       blue-gray         57 male   Stewjon  
#> # … with 28 more rows, and 4 more variables: species <chr>, films <list>,
#> #   vehicles <list>, starships <list>

## 现在hair_color只在8个有效水平上有记录，但是总的水平个数没有改变 
nlevels(factor(starwars$hair_color))
#> [1] 12
fct_count(starwars_sub$hair_color)
#> # A tibble: 9 x 2
#>   f                 n
#>   <fct>         <int>
#> 1 auburn, white     1
#> 2 black             5
#> 3 blond             2
#> 4 brown             7
#> 5 brown, grey       1
#> 6 grey              1
#> # … with 3 more rows
…
# Set only to restrict which levels to drop
fct_drop(f, only = "a") ## a水平上有频次，不会被丢弃；c水平上没有频次，但不在only中，也不会被丢弃
#> [1] a b
#> Levels: a b c
fct_drop(f, only = "c")
#> [1] a b
#> Levels: a b

5.4 编码

比修改因子水平顺序、改变水平个数更强大的操作时修改水平的值。修改水平的值不仅可以使图形标签更为美观清晰，以满足出版发行的要求，还可以将水平汇集成更高层次的显示。修改水平最常用、最强大的工具是fct_recode()函数，它可以对每个水平进行修改或重新编码。例如，我们来看一下综合社会调查数据中的因子变量partyid:

fct_count(gss_cat$partyid)
#> # A tibble: 10 x 2
#>   f                      n
#>   <fct>              <int>
#> 1 No answer            154
#> 2 Don't know             1
#> 3 Other party          393
#> 4 Strong republican   2314
#> 5 Not str republican  3032
#> 6 Ind,near rep        1791
#> # … with 4 more rows

在这个因子中，对水平的描述太过简单，而且不一致，我们用fct_recode()将其修改为较为详细的排比结构，格式为fct_recode(f,level_new = level_old):

gss_cat %>%
  mutate(partyid = fct_recode(partyid, 
                            "Republican,strong" = "Strong republican",
                             "Republican weak"   = "Not str republican",
                             "Independent,near rep" ="Ind,near rep",
                             "Independent,near dem" = "Ind,near dem",
                             "Democrat,weak" = "Not str democrat",
                             "Democrat,strong" = "Strong democrat")) %>%
  count(partyid)
#> # A tibble: 10 x 2
#>   partyid                  n
#>   <fct>                <int>
#> 1 No answer              154
#> 2 Don't know               1
#> 3 Other party            393
#> 4 Republican,strong     2314
#> 5 Republican weak       3032
#> 6 Independent,near rep  1791
#> # … with 4 more rows
…
## 将"no answer"、"Don't know"和"Other party"合并为"Other"
gss_cat %>% mutate(partyid_recode = fct_recode( partyid,
   "Republican,strong" = "Strong republican",
   "Republican weak"   = "Not str republican",
   "Independent,near rep" ="Ind,near rep",
   "Independent,near dem" = "Ind,near dem",
   "Democrat,weak" = "Not str democrat",
   "Democrat,strong" = "Strong democrat",
   "Other" = "No answer",
   "Other" = "Don't know",
   "Other" = "Other party"
 ))  %>% 
  count(partyid_recode)
#> # A tibble: 8 x 2
#>   partyid_recode           n
#>   <fct>                <int>
#> 1 Other                  548
#> 2 Republican,strong     2314
#> 3 Republican weak       3032
#> 4 Independent,near rep  1791
#> 5 Independent           4119
#> 6 Independent,near dem  2499
#> # … with 2 more rows
…
5.5 合并因子

fct_c()
函数用于将因子合并，使用gapminder::gapminder数据，首先创建两个子集：

library(gapminder)

gapminder
#> # A tibble: 1,704 x 6
#>   country     continent  year lifeExp      pop gdpPercap
#>   <fct>       <fct>     <int>   <dbl>    <int>     <dbl>
#> 1 Afghanistan Asia       1952    28.8  8425333      779.
#> 2 Afghanistan Asia       1957    30.3  9240934      821.
#> 3 Afghanistan Asia       1962    32.0 10267083      853.
#> 4 Afghanistan Asia       1967    34.0 11537966      836.
#> 5 Afghanistan Asia       1972    36.1 13079460      740.
#> 6 Afghanistan Asia       1977    38.4 14880372      786.
#> # … with 1,698 more rows
…
