15 Janitor | R for data science: tidyverse and beyond
…
make_clean_names() 是 clean_names() 的向量版本，它还可以传入 as_tibble() 中的 .name_repair 参数中：

names(test_df) %>% 
  make_clean_names()
#> [1] "first_name"              "abc"                    
#> [3] "percent_successful_2009" "repeat_value"           
#> [5] "repeat_value_2"          "x"

as_tibble(iris, .name_repair  = janitor::make_clean_names)
#> # A tibble: 150 x 5
#>   sepal_length sepal_width petal_length petal_width species
#>          <dbl>       <dbl>        <dbl>       <dbl> <fct>  
#> 1          5.1         3.5          1.4         0.2 setosa 
#> 2          4.9         3            1.4         0.2 setosa 
#> 3          4.7         3.2          1.3         0.2 setosa 
#> 4          4.6         3.1          1.5         0.2 setosa 
#> 5          5           3.6          1.4         0.2 setosa 
#> 6          5.4         3.9          1.7         0.4 setosa 
#> # … with 144 more rows
…
