6.8 Miscellaneous Functions | R for data science: tidyverse and beyond
…
If there’s a size-0 element (like NULL or an empty data frame), that entire row will be dropped from the output. If you want to preserve all rows, use keep_empty = TRUE to replace size-0 elements with a single row of missing values.

# equivalent to df %>% unnest_longer(y)
df %>% unchop(y, keep_empty = TRUE)
#> # A tibble: 7 x 2
#>       x     y
#>   <int> <int>
#> 1     1    NA
#> 2     2     1
#> 3     3     1
#> 4     3     2
#> 5     4     1
#> 6     4     2
#> # ... with 1 more row
…
uncount() can be helpful in convertnig frequency form data to case form data, e.g:

fiber <- read_csv("data/Fiber.csv") 
#> Parsed with column specification:
#> cols(
#>   fiber = col_character(),
#>   bloat = col_character(),
#>   count = col_double()
#> )
fiber
#> # A tibble: 16 x 3
#>   fiber bloat  count
#>   <chr> <chr>  <dbl>
#> 1 bran  high       0
#> 2 gum   high       5
#> 3 both  high       2
#> 4 none  high       0
#> 5 bran  medium     1
#> 6 gum   medium     3
#> # ... with 10 more rows

fiber %>% uncount(count)
#> uncount: now 48 rows and 2 columns, ungrouped
#> # A tibble: 48 x 2
#>   fiber bloat
#>   <chr> <chr>
#> 1 gum   high 
#> 2 gum   high 
#> 3 gum   high 
#> 4 gum   high 
#> 5 gum   high 
#> 6 both  high 
#> # ... with 42 more rows

Other way that can achieve this transformation: rep():

fiber[rep(1:nrow(fiber), fiber$count), -3]
#> # A tibble: 48 x 2
#>   fiber bloat
#>   <chr> <chr>
#> 1 gum   high 
#> 2 gum   high 
#> 3 gum   high 
#> 4 gum   high 
#> 5 gum   high 
#> 6 both  high 
#> # ... with 42 more rows
…
