6.3 Nesting | R for data science: tidyverse and beyond
…
6.3.1 Example: Managing multiple models

Nested data is a great fit for problems where you have one of something for each group. A common place this arises is when you’re fitting multiple models.

gapminder <- gapminder::gapminder
gapminder_nest <- gapminder %>% 
  mutate(year1950 = year - 1950) %>% 
  group_nest(continent, country)
#> mutate: new variable 'year1950' with 12 unique values and 0% NA

gapminder_nest
#> # A tibble: 142 x 3
#>   continent country      data             
#>   <fct>     <fct>        <list>           
#> 1 Africa    Algeria      <tibble [12 x 5]>
#> 2 Africa    Angola       <tibble [12 x 5]>
#> 3 Africa    Benin        <tibble [12 x 5]>
#> 4 Africa    Botswana     <tibble [12 x 5]>
#> 5 Africa    Burkina Faso <tibble [12 x 5]>
#> 6 Africa    Burundi      <tibble [12 x 5]>
#> # ... with 136 more rows

Now gapminder_nest is a tibble with 142 rows representing 142 countries with their respective time series data from 1952 - 2007 stored in the list column data. Then we can combine mutate() and map to create a new column to fit a linear model for each country:

mod_fit <- function(data) {
  lm(lifeExp ~ year1950, data = data)
}

gapminder_model <- gapminder_nest %>% 
  mutate(model = map(data, mod_fit))
#> mutate: new variable 'model' with 142 unique values and 0% NA
gapminder_model
#> # A tibble: 142 x 4
#>   continent country      data              model 
#>   <fct>     <fct>        <list>            <list>
#> 1 Africa    Algeria      <tibble [12 x 5]> <lm>  
#> 2 Africa    Angola       <tibble [12 x 5]> <lm>  
#> 3 Africa    Benin        <tibble [12 x 5]> <lm>  
#> 4 Africa    Botswana     <tibble [12 x 5]> <lm>  
#> 5 Africa    Burkina Faso <tibble [12 x 5]> <lm>  
#> 6 Africa    Burundi      <tibble [12 x 5]> <lm>  
#> # ... with 136 more rows

Then use broom functions to generate “tidy” model summaries:

gapminder_summary <- gapminder_model %>% 
  mutate(
    glance = map(model, broom::glance),
    tidy = map(model, broom::tidy),
    augment = map(model, broom::augment)
  )
#> mutate: new variable 'glance' with 142 unique values and 0% NA
#>         new variable 'tidy' with 142 unique values and 0% NA
#>         new variable 'augment' with 142 unique values and 0% NA

gapminder_summary
#> # A tibble: 142 x 7
#>   continent country    data         model  glance       tidy        augment     
#>   <fct>     <fct>      <list>       <list> <list>       <list>      <list>      
#> 1 Africa    Algeria    <tibble [12~ <lm>   <tibble [1 ~ <tibble [2~ <tibble [12~
#> 2 Africa    Angola     <tibble [12~ <lm>   <tibble [1 ~ <tibble [2~ <tibble [12~
#> 3 Africa    Benin      <tibble [12~ <lm>   <tibble [1 ~ <tibble [2~ <tibble [12~
#> 4 Africa    Botswana   <tibble [12~ <lm>   <tibble [1 ~ <tibble [2~ <tibble [12~
#> 5 Africa    Burkina F~ <tibble [12~ <lm>   <tibble [1 ~ <tibble [2~ <tibble [12~
#> 6 Africa    Burundi    <tibble [12~ <lm>   <tibble [1 ~ <tibble [2~ <tibble [12~
#> # ... with 136 more rows

unnest() each column:

# which country has the best fit
gapminder_summary %>% 
  unnest(glance) %>% 
  arrange(desc(r.squared))
#> # A tibble: 142 x 17
#>   continent country data  model r.squared adj.r.squared sigma statistic  p.value
#>   <fct>     <fct>   <lis> <lis>     <dbl>         <dbl> <dbl>     <dbl>    <dbl>
#> 1 Americas  Brazil  <tib~ <lm>      0.998         0.998 0.326     5111. 6.99e-15
#> 2 Africa    Maurit~ <tib~ <lm>      0.998         0.997 0.408     4290. 1.68e-14
#> 3 Europe    France  <tib~ <lm>      0.998         0.997 0.220     4200. 1.86e-14
#> 4 Europe    Switze~ <tib~ <lm>      0.997         0.997 0.215     3823. 2.98e-14
#> 5 Asia      Pakist~ <tib~ <lm>      0.997         0.997 0.403     3626. 3.88e-14
#> 6 Asia      Indone~ <tib~ <lm>      0.997         0.997 0.646     3455. 4.93e-14
#> # ... with 136 more rows, and 8 more variables: df <int>, logLik <dbl>,
#> #   AIC <dbl>, BIC <dbl>, deviance <dbl>, df.residual <int>, tidy <list>,
#> #   augment <list>

gapminder_summary %>% 
  unnest(tidy)
#> # A tibble: 284 x 11
#>   continent country data  model glance term  estimate std.error statistic
#>   <fct>     <fct>   <lis> <lis> <list> <chr>    <dbl>     <dbl>     <dbl>
#> 1 Africa    Algeria <tib~ <lm>  <tibb~ (Int~   42.2      0.756      55.8 
#> 2 Africa    Algeria <tib~ <lm>  <tibb~ year~    0.569    0.0221     25.7 
#> 3 Africa    Angola  <tib~ <lm>  <tibb~ (Int~   31.7      0.804      39.4 
#> 4 Africa    Angola  <tib~ <lm>  <tibb~ year~    0.209    0.0235      8.90
#> 5 Africa    Benin   <tib~ <lm>  <tibb~ (Int~   38.9      0.671      58.0 
#> 6 Africa    Benin   <tib~ <lm>  <tibb~ year~    0.334    0.0196     17.0 
#> # ... with 278 more rows, and 2 more variables: p.value <dbl>, augment <list>

gapminder_summary %>% 
  unnest(augment)
#> # A tibble: 1,704 x 15
#>   continent country data  model glance tidy  lifeExp year1950 .fitted .se.fit
#>   <fct>     <fct>   <lis> <lis> <list> <lis>   <dbl>    <dbl>   <dbl>   <dbl>
#> 1 Africa    Algeria <tib~ <lm>  <tibb~ <tib~    43.1        2    43.4   0.718
#> 2 Africa    Algeria <tib~ <lm>  <tibb~ <tib~    45.7        7    46.2   0.627
#> 3 Africa    Algeria <tib~ <lm>  <tibb~ <tib~    48.3       12    49.1   0.544
#> 4 Africa    Algeria <tib~ <lm>  <tibb~ <tib~    51.4       17    51.9   0.472
#> 5 Africa    Algeria <tib~ <lm>  <tibb~ <tib~    54.5       22    54.8   0.416
#> 6 Africa    Algeria <tib~ <lm>  <tibb~ <tib~    58.0       27    57.6   0.386
#> # ... with 1,698 more rows, and 5 more variables: .resid <dbl>, .hat <dbl>,
#> #   .sigma <dbl>, .cooksd <dbl>, .std.resid <dbl>
…
6.3.2 Example: Multicple hoice data

multiple_choice <- tibble(method = c(
  "CNNs",
  "Bayesian, Logistic Regression",
  "Data Visualization, Decision Trees",
  "Linear Regression, A/B Testing",
  "Data Visualization, Text Analytics"
))

multiple_choice %>% 
  mutate(method = str_split(method, ",")) %>% 
  unnest(method)
#> mutate: converted 'method' from character to list (0 new NA)
#> # A tibble: 9 x 1
#>   method                
#>   <chr>                 
#> 1 "CNNs"                
#> 2 "Bayesian"            
#> 3 " Logistic Regression"
#> 4 "Data Visualization"  
#> 5 " Decision Trees"     
#> 6 "Linear Regression"   
#> # ... with 3 more rows
…
