3.4 解析文件 | R for data science: tidyverse and beyond
…
这些默认设置对更大的文件并不总是有效。以下是两个可能遇到的主要问题：

readr通过前 1000 行猜测数据类型，但是前 1000 行可能只是一种特殊情况，不足以代表整列。例如，一列双精度数值的前1000行有可能都是整数

列中可能包含大量缺失值。如果前 1000 行都是NA，那么readr会认为这是一个字符向量，但你其实想将这一类解析为更具体的值。

readr的安装包里包含了一份文件challenge.csv，用来说明解析过程中可能遇到的问题。这个csv文件包含两列x，y和2001行观测。x 列的前 1001 行均为整数，但之后的值均为双精度整数。y 列的前 1001 行均为NA，后面是日期型数据：

## readr_example()找到包含在R包中的文件的路径
challenge <- read_csv(readr_example("challenge.csv"))

可以看到，read_csv()成功解析了 x，但对于 y 则无从下手，因为使用了错误的解析函数col_logical()。使用 problems() 函数明确列出这些失败记录，以便深入探究其中的问题：

problems(challenge)
#> # A tibble: 1,000 x 5
#>     row col   expected       actual   file                                      
#>   <int> <chr> <chr>          <chr>    <chr>                                     
#> 1  1001 y     1/0/T/F/TRUE/~ 2015-01~ 'C:/Users/Lenovo/Documents/R/win-library/~
#> 2  1002 y     1/0/T/F/TRUE/~ 2018-05~ 'C:/Users/Lenovo/Documents/R/win-library/~
#> 3  1003 y     1/0/T/F/TRUE/~ 2015-09~ 'C:/Users/Lenovo/Documents/R/win-library/~
#> 4  1004 y     1/0/T/F/TRUE/~ 2012-11~ 'C:/Users/Lenovo/Documents/R/win-library/~
#> 5  1005 y     1/0/T/F/TRUE/~ 2020-01~ 'C:/Users/Lenovo/Documents/R/win-library/~
#> 6  1006 y     1/0/T/F/TRUE/~ 2016-04~ 'C:/Users/Lenovo/Documents/R/win-library/~
#> # ... with 994 more rows
…
