6.2 Pivoting | R for data science: tidyverse and beyond
…
6.2.1 pivot_longer()

tidyr::relig_income 是一个典型的宽数据，除第一列以外的所有列表示收入的不同水平，值表示对应的人数：

relig_income 
#> # A tibble: 18 x 11
#>   religion `<$10k` `$10-20k` `$20-30k` `$30-40k` `$40-50k` `$50-75k` `$75-100k`
#>   <chr>      <dbl>     <dbl>     <dbl>     <dbl>     <dbl>     <dbl>      <dbl>
#> 1 Agnostic      27        34        60        81        76       137        122
#> 2 Atheist       12        27        37        52        35        70         73
#> 3 Buddhist      27        21        30        34        33        58         62
#> 4 Catholic     418       617       732       670       638      1116        949
#> 5 Don’t k~      15        14        15        11        10        35         21
#> 6 Evangel~     575       869      1064       982       881      1486        949
#> # ... with 12 more rows, and 3 more variables: `$100-150k` <dbl>,
#> #   `>150k` <dbl>, `Don't know/refused` <dbl>
relig_income %>% pivot_longer(-religion, 
                              names_to = "income", 
                              values_to = "population")
#> pivot_longer: reorganized (<$10k, $10-20k, $20-30k, $30-40k, $40-50k, …) into (income, population) [was 18x11, now 180x3]
#> # A tibble: 180 x 3
#>   religion income  population
#>   <chr>    <chr>        <dbl>
#> 1 Agnostic <$10k           27
#> 2 Agnostic $10-20k         34
#> 3 Agnostic $20-30k         60
#> 4 Agnostic $30-40k         81
#> 5 Agnostic $40-50k         76
#> 6 Agnostic $50-75k        137
#> # ... with 174 more rows
…
ec2 <- economics %>% as_tibble() %>%
  transmute(year =  year(date),
            month = month(date),
            rate = unemploy) %>%
  filter(year > 2005) %>% 
  pivot_wider(names_from = "month", values_from = "rate")
#> transmute: dropped 6 variables (date, pce, pop, psavert, uempmed, …)
#>            new variable 'year' with 49 unique values and 0% NA
#>            new variable 'month' with 12 unique values and 0% NA
#>            new variable 'rate' with 550 unique values and 0% NA
#> filter: removed 462 rows (80%), 112 rows remaining
#> pivot_wider: reorganized (month, rate) into (1, 2, 3, 4, 5, …) [was 112x3, now 10x13]
ec2
#> # A tibble: 10 x 13
#>    year   `1`   `2`   `3`   `4`   `5`   `6`   `7`   `8`   `9`  `10`  `11`  `12`
#>   <dbl> <dbl> <dbl> <dbl> <dbl> <dbl> <dbl> <dbl> <dbl> <dbl> <dbl> <dbl> <dbl>
#> 1  2006  7064  7184  7072  7120  6980  7001  7175  7091  6847  6727  6872  6762
#> 2  2007  7116  6927  6731  6850  6766  6979  7149  7067  7170  7237  7240  7645
#> 3  2008  7685  7497  7822  7637  8395  8575  8937  9438  9494 10074 10538 11286
#> 4  2009 12058 12898 13426 13853 14499 14707 14601 14814 15009 15352 15219 15098
#> 5  2010 15046 15113 15202 15325 14849 14474 14512 14648 14579 14516 15081 14348
#> 6  2011 14013 13820 13737 13957 13855 13962 13763 13818 13948 13594 13302 13093
#> # ... with 4 more rows

化宽为长：

ec2 %>% 
  pivot_longer(-year, names_to = "month", values_to = "value")
#> pivot_longer: reorganized (1, 2, 3, 4, 5, …) into (month, value) [was 10x13, now 120x3]
#> # A tibble: 120 x 3
#>    year month value
#>   <dbl> <chr> <dbl>
#> 1  2006 1      7064
#> 2  2006 2      7184
#> 3  2006 3      7072
#> 4  2006 4      7120
#> 5  2006 5      6980
#> 6  2006 6      7001
#> # ... with 114 more rows

以上就是 pviot_longer 的基本用法，下面来处理一些更复杂的情况。

6.2.1.1 Numeric data in column names

pivot_longer() 提供了 names_ptype 和 values_ptypes 调整数据集变长后键列和值列的数据类型。看一下 billboard 数据集：

billboard
#> # A tibble: 317 x 79
#>   artist track date.entered   wk1   wk2   wk3   wk4   wk5   wk6   wk7   wk8
#>   <chr>  <chr> <date>       <dbl> <dbl> <dbl> <dbl> <dbl> <dbl> <dbl> <dbl>
#> 1 2 Pac  Baby~ 2000-02-26      87    82    72    77    87    94    99    NA
#> 2 2Ge+h~ The ~ 2000-09-02      91    87    92    NA    NA    NA    NA    NA
#> 3 3 Doo~ Kryp~ 2000-04-08      81    70    68    67    66    57    54    53
#> 4 3 Doo~ Loser 2000-10-21      76    76    72    69    67    65    55    59
#> 5 504 B~ Wobb~ 2000-04-15      57    34    25    17    17    31    36    49
#> 6 98^0   Give~ 2000-08-19      51    39    34    26    26    19     2     2
#> # ... with 311 more rows, and 68 more variables: wk9 <dbl>, wk10 <dbl>,
#> #   wk11 <dbl>, wk12 <dbl>, wk13 <dbl>, wk14 <dbl>, wk15 <dbl>, wk16 <dbl>,
#> #   wk17 <dbl>, wk18 <dbl>, wk19 <dbl>, wk20 <dbl>, wk21 <dbl>, wk22 <dbl>,
#> #   wk23 <dbl>, wk24 <dbl>, wk25 <dbl>, wk26 <dbl>, wk27 <dbl>, wk28 <dbl>,
#> #   wk29 <dbl>, wk30 <dbl>, wk31 <dbl>, wk32 <dbl>, wk33 <dbl>, wk34 <dbl>,
#> #   wk35 <dbl>, wk36 <dbl>, wk37 <dbl>, wk38 <dbl>, wk39 <dbl>, wk40 <dbl>,
#> #   wk41 <dbl>, wk42 <dbl>, wk43 <dbl>, wk44 <dbl>, wk45 <dbl>, wk46 <dbl>,
#> #   wk47 <dbl>, wk48 <dbl>, wk49 <dbl>, wk50 <dbl>, wk51 <dbl>, wk52 <dbl>,
#> #   wk53 <dbl>, wk54 <dbl>, wk55 <dbl>, wk56 <dbl>, wk57 <dbl>, wk58 <dbl>,
…
显然，我们希望将所有以 "wk"开头的列聚合以得到整洁数据，键列和值列分别命名为 “week” 和 “rank”。另外要考虑的一点是，我们很可能之后想计算歌曲保持在榜单上的周数，故需要将 “week” 列转换为数值类型：

billboard_tidy <- billboard %>% 
  pivot_longer(cols = starts_with("wk"),
               names_to = "week",
               values_to = "rank",
               names_prefix = "wk",
               names_ptypes = list(week = integer()),
               values_drop_na = T)
#> pivot_longer: reorganized (wk1, wk2, wk3, wk4, wk5, …) into (week, rank) [was 317x79, now 5307x5]

billboard_tidy
#> # A tibble: 5,307 x 5
#>   artist track                   date.entered  week  rank
#>   <chr>  <chr>                   <date>       <int> <dbl>
#> 1 2 Pac  Baby Don't Cry (Keep... 2000-02-26       1    87
#> 2 2 Pac  Baby Don't Cry (Keep... 2000-02-26       2    82
#> 3 2 Pac  Baby Don't Cry (Keep... 2000-02-26       3    72
#> 4 2 Pac  Baby Don't Cry (Keep... 2000-02-26       4    77
#> 5 2 Pac  Baby Don't Cry (Keep... 2000-02-26       5    87
#> 6 2 Pac  Baby Don't Cry (Keep... 2000-02-26       6    94
#> # ... with 5,301 more rows

names_prefix 去除前缀 “wk”(否则无法从字符串转换为数值)，names_ptype 以列表的形式转换键列的数据类型。同理, values_ptype 可以转换值列的数据类型。

## 计算保持周数
billboard_tidy %>% 
  group_by(track) %>% 
  summarise(stay = max(week) - min(week) + 1) %>% 
  arrange(desc(stay))
#> group_by: one grouping variable (track)
#> summarise: now 316 rows and 2 columns, ungrouped
#> # A tibble: 316 x 2
#>   track                stay
#>   <chr>               <dbl>
#> 1 Higher                 65
#> 2 Amazed                 64
#> 3 Breathe                53
#> 4 Kryptonite             53
#> 5 With Arms Wide Open    47
#> 6 I Wanna Know           44
#> # ... with 310 more rows

6.2.1.2 Many variables in column names

在 tidyr 1.0.0 之前，当进行一定处理后发现多个变量被糅合到一列中时，可能会考虑使用 separate() 或者 extract():

who
#> # A tibble: 7,240 x 60
#>   country iso2  iso3   year new_sp_m014 new_sp_m1524 new_sp_m2534 new_sp_m3544
#>   <chr>   <chr> <chr> <int>       <int>        <int>        <int>        <int>
#> 1 Afghan~ AF    AFG    1980          NA           NA           NA           NA
#> 2 Afghan~ AF    AFG    1981          NA           NA           NA           NA
#> 3 Afghan~ AF    AFG    1982          NA           NA           NA           NA
#> 4 Afghan~ AF    AFG    1983          NA           NA           NA           NA
#> 5 Afghan~ AF    AFG    1984          NA           NA           NA           NA
#> 6 Afghan~ AF    AFG    1985          NA           NA           NA           NA
#> # ... with 7,234 more rows, and 52 more variables: new_sp_m4554 <int>,
#> #   new_sp_m5564 <int>, new_sp_m65 <int>, new_sp_f014 <int>,
#> #   new_sp_f1524 <int>, new_sp_f2534 <int>, new_sp_f3544 <int>,
#> #   new_sp_f4554 <int>, new_sp_f5564 <int>, new_sp_f65 <int>,
#> #   new_sn_m014 <int>, new_sn_m1524 <int>, new_sn_m2534 <int>,
#> #   new_sn_m3544 <int>, new_sn_m4554 <int>, new_sn_m5564 <int>,
#> #   new_sn_m65 <int>, new_sn_f014 <int>, new_sn_f1524 <int>,
#> #   new_sn_f2534 <int>, new_sn_f3544 <int>, new_sn_f4554 <int>,
#> #   new_sn_f5564 <int>, new_sn_f65 <int>, new_ep_m014 <int>,
…
Note that we have two pieces of information (or values) for each child: their gender and their dob (date of birth). These need to go into separate columns in the result. Again we supply multiple variables to names_to, using names_sep to split up each variable name. Note the special name .value: this tells pivot_longer() that that part of the column name specifies the “value” being measured (which will become a variable in the output)

.value 在这里指代 dob 和 gender 两个值列

family %>% 
  pivot_longer(
    -family, 
    names_to = c(".value", "child"),   ## child 为每个 family 中的标识变量
    names_sep = "_", 
    values_drop_na = TRUE
  )
#> pivot_longer: reorganized (dob_child1, dob_child2, gender_child1, gender_child2) into (child, dob, gender) [was 5x5, now 9x4]
#> # A tibble: 9 x 4
#>   family child  dob        gender
#>    <int> <chr>  <date>      <int>
#> 1      1 child1 1998-11-26      1
#> 2      1 child2 2000-01-29      2
#> 3      2 child1 1996-06-22      2
#> 4      3 child1 2002-07-11      2
#> 5      3 child2 2004-04-05      2
#> 6      4 child1 2004-10-10      1
#> # ... with 3 more rows
…
#> 3  13 13 13  8  7.58 8.74 12.74  7.71
#> 4   9  9  9  8  8.81 8.77  7.11  8.84
#> 5  11 11 11  8  8.33 9.26  7.81  8.47
#> 6  14 14 14  8  9.96 8.10  8.84  7.04
#> 7   6  6  6  8  7.24 6.13  6.08  5.25
#> 8   4  4  4 19  4.26 3.10  5.39 12.50
#> 9  12 12 12  8 10.84 9.13  8.15  5.56
#> 10  7  7  7  8  4.82 7.26  6.42  7.91
#> 11  5  5  5  8  5.68 4.74  5.73  6.89
anscombe %>% 
  pivot_longer(everything(),
               names_to = c(".value", "set"),
               names_pattern = "([xy])([1234])")
#> pivot_longer: reorganized (x1, x2, x3, x4, y1, …) into (set, x, y) [was 11x8, now 44x3]
#> # A tibble: 44 x 3
#>   set       x     y
#>   <chr> <dbl> <dbl>
#> 1 1        10  8.04
#> 2 2        10  9.14
#> 3 3        10  7.46
#> 4 4         8  6.58
#> 5 1         8  6.95
#> 6 2         8  8.14
#> # ... with 38 more rows
…
pnl %>% 
  pivot_longer(-(x:b),
               names_to = c(".value", "time"),
               names_pattern = "([yz])([12])")
#> pivot_longer: reorganized (y1, y2, z1, z2) into (time, y, z) [was 4x7, now 8x6]
#> # A tibble: 8 x 6
#>       x     a     b time        y     z
#>   <int> <dbl> <dbl> <chr>   <dbl> <dbl>
#> 1     1     1     0 1      0.788      3
#> 2     1     1     0 2     -1.59      -2
#> 3     2     1     1 1     -0.422      3
#> 4     2     1     1 2      0.597     -2
#> 5     3     0     1 1      0.0569     3
#> 6     3     0     1 2      1.22      -2
#> # ... with 2 more rows
…
#  To create a tibble with duplicated names
# you have to explicitly opt out of the name repair 
# that usually prevents you from creating such a dataset:
(df <- tibble(x = 1:3, y = 4:6, y = 5:7, y = 7:9, .name_repair = "minimal")) 
#> # A tibble: 3 x 4
#>       x     y     y     y
#>   <int> <int> <int> <int>
#> 1     1     4     5     7
#> 2     2     5     6     8
#> 3     3     6     7     9

df %>% 
  pivot_longer(-x, names_to = "y")
#> pivot_longer: reorganized () into (.copy, value) [was 3x4, now 9x4]
#> # A tibble: 9 x 4
#>       x y     .copy value
#>   <int> <chr> <int> <int>
#> 1     1 y         1     4
#> 2     1 y         2     5
#> 3     1 y         3     7
#> 4     2 y         1     5
#> 5     2 y         2     6
#> 6     2 y         3     8
#> # ... with 3 more rows

6.2.2 pivot_wider()

pivot_wider() 是 pivot_longer() 的逆操作，虽然在获得 tidy data 上，前者没有后者常用，但它经常被用来创建一些 summary table。

fish_encounters 数据记录了一些沿河观测站对一批鱼群的观测情况(seen 为发现次数)：

fish_encounters
#> # A tibble: 114 x 3
#>   fish  station  seen
#>   <fct> <fct>   <int>
#> 1 4842  Release     1
#> 2 4842  I80_1       1
#> 3 4842  Lisbon      1
#> 4 4842  Rstr        1
#> 5 4842  Base_TD     1
#> 6 4842  BCE         1
#> # ... with 108 more rows

很多后续分析工具需要每个观测站的观测情况单独成一列，使用 pivot_wider():

# 数据中已有的列不需要引号便可引用
fish_encounters %>% 
  pivot_wider(names_from = station, values_from = seen)
#> pivot_wider: reorganized (station, seen) into (Release, I80_1, Lisbon, Rstr, Base_TD, …) [was 114x3, now 19x12]
#> # A tibble: 19 x 12
#>   fish  Release I80_1 Lisbon  Rstr Base_TD   BCE   BCW  BCE2  BCW2   MAE   MAW
#>   <fct>   <int> <int>  <int> <int>   <int> <int> <int> <int> <int> <int> <int>
#> 1 4842        1     1      1     1       1     1     1     1     1     1     1
#> 2 4843        1     1      1     1       1     1     1     1     1     1     1
#> 3 4844        1     1      1     1       1     1     1     1     1     1     1
#> 4 4845        1     1      1     1       1    NA    NA    NA    NA    NA    NA
#> 5 4847        1     1      1    NA      NA    NA    NA    NA    NA    NA    NA
#> 6 4848        1     1      1     1      NA    NA    NA    NA    NA    NA    NA
#> # ... with 13 more rows

关于 pivot_wider()，很重要的一点是它会暴露出数据中的隐式缺失值(implicit missing value)。这些没有出现在原数据中的 NA 值不是源自于记录错误或者遗失，只是没有对应的观测而已（观测站只能记录发生了的观测）。参数 values_fill 可以以一个列表填充 pivot_wider() 结果中的 NA， 当然如何处理这些隐式缺失值要按具体情境而定，在鱼群的例子里，用 0 填充是合适的：

fish_encounters %>% 
  pivot_wider(names_from = station, values_from = seen,
              values_fill = list(seen = 0))
#> pivot_wider: reorganized (station, seen) into (Release, I80_1, Lisbon, Rstr, Base_TD, …) [was 114x3, now 19x12]
#> # A tibble: 19 x 12
#>   fish  Release I80_1 Lisbon  Rstr Base_TD   BCE   BCW  BCE2  BCW2   MAE   MAW
#>   <fct>   <int> <int>  <int> <int>   <int> <int> <int> <int> <int> <int> <int>
#> 1 4842        1     1      1     1       1     1     1     1     1     1     1
#> 2 4843        1     1      1     1       1     1     1     1     1     1     1
#> 3 4844        1     1      1     1       1     1     1     1     1     1     1
#> 4 4845        1     1      1     1       1     0     0     0     0     0     0
#> 5 4847        1     1      1     0       0     0     0     0     0     0     0
#> 6 4848        1     1      1     1       0     0     0     0     0     0     0
#> # ... with 13 more rows

fish_encoutners 的贡献者 Myfanwy Johnston 在个人网站上有一篇相关的文章

6.2.2.1 Aggregation

pivot_wider() 可以用来执行一些简单的聚合操作。warpbreaks 是一个关于经纱强度的控制试验，每个处理 (wool, tension) 上进行了 9 次试验：

(warpbreaks <- warpbreaks %>% as_tibble() %>% select(wool, tension, breaks))
#> # A tibble: 54 x 3
#>   wool  tension breaks
#>   <fct> <fct>    <dbl>
#> 1 A     L           26
#> 2 A     L           30
#> 3 A     L           54
#> 4 A     L           25
#> 5 A     L           70
#> 6 A     L           52
#> # ... with 48 more rows
…
现有一个数据集存储了关于产品、生产国家、生产年份和产量的水平组合：

production <- expand_grid(
    product = c("A", "B"), 
    country = c("AI", "EI"), 
    year = 2000:2014
  ) %>%
  filter((product == "A" & country == "AI") | product == "B") %>% 
  mutate(production = rnorm(nrow(.)))
#> filter: removed 15 rows (25%), 45 rows remaining
#> mutate: new variable 'production' with 45 unique values and 0% NA

production
#> # A tibble: 45 x 4
#>   product country  year production
#>   <chr>   <chr>   <int>      <dbl>
#> 1 A       AI       2000     -0.209
#> 2 A       AI       2001     -0.369
#> 3 A       AI       2002      0.330
#> 4 A       AI       2003      1.88 
#> 5 A       AI       2004     -0.482
#> 6 A       AI       2005      1.74 
#> # ... with 39 more rows

假设现在希望对于每个 product 和 country 的组合均创建一列，关键是在 names_from 中传入一个向量：

production %>% 
  pivot_wider(names_from = c(product, country), values_from = production)
#> pivot_wider: reorganized (product, country, production) into (A_AI, B_AI, B_EI) [was 45x4, now 15x4]
#> # A tibble: 15 x 4
#>    year   A_AI   B_AI    B_EI
#>   <int>  <dbl>  <dbl>   <dbl>
#> 1  2000 -0.209  1.02  -1.14  
#> 2  2001 -0.369  0.598  0.143 
#> 3  2002  0.330  1.38  -0.0472
#> 4  2003  1.88  -1.06  -1.26  
#> 5  2004 -0.482  0.197  3.39  
#> 6  2005  1.74   1.37   0.120 
#> # ... with 9 more rows

names_sep 可以指定除了 _ 以外的分隔符。names_prefix 为展开后的各列添加前缀(as opposed to removing in pivot_longer())

6.2.2.3 Multiple value columns

The us_rent_income dataset contains information about median income and rent for each state in the US for 2017 (from the American Community Survey, retrieved with the tidycensus package).

us_rent_income
#> # A tibble: 104 x 5
#>   GEOID NAME    variable estimate   moe
#>   <chr> <chr>   <chr>       <dbl> <dbl>
#> 1 01    Alabama income      24476   136
#> 2 01    Alabama rent          747     3
#> 3 02    Alaska  income      32940   508
#> 4 02    Alaska  rent         1200    13
#> 5 04    Arizona income      27517   148
#> 6 04    Arizona rent          972     4
#> # ... with 98 more rows

Here both estimate and moe are values columns, so we can supply them to values_from:

us_rent_income %>% pivot_wider(names_from = variable, values_from = c(estimate, moe))
#> pivot_wider: reorganized (variable, estimate, moe) into (estimate_income, estimate_rent, moe_income, moe_rent) [was 104x5, now 52x6]
#> # A tibble: 52 x 6
#>   GEOID NAME       estimate_income estimate_rent moe_income moe_rent
#>   <chr> <chr>                <dbl>         <dbl>      <dbl>    <dbl>
#> 1 01    Alabama              24476           747        136        3
#> 2 02    Alaska               32940          1200        508       13
#> 3 04    Arizona              27517           972        148        4
#> 4 05    Arkansas             23789           709        165        5
#> 5 06    California           29454          1358        109        3
#> 6 08    Colorado             32401          1125        109        5
#> # ... with 46 more rows
…
6.2.3 Combining pivot_longer() and pivot_wider()

Some problems can’t be solved by pivotting in a single direction. The examples in this section show how you might combine pivot_longer() and pivot_wider() to solve more complex problems.

6.2.3.1 world bank data

world_bank_pop contains data from the World Bank about population per country from 2000 to 2018.

world_bank_pop
#> # A tibble: 1,056 x 20
#>   country indicator `2000` `2001` `2002` `2003`  `2004`  `2005`   `2006`
#>   <chr>   <chr>      <dbl>  <dbl>  <dbl>  <dbl>   <dbl>   <dbl>    <dbl>
#> 1 ABW     SP.URB.T~ 4.24e4 4.30e4 4.37e4 4.42e4 4.47e+4 4.49e+4  4.49e+4
#> 2 ABW     SP.URB.G~ 1.18e0 1.41e0 1.43e0 1.31e0 9.51e-1 4.91e-1 -1.78e-2
#> 3 ABW     SP.POP.T~ 9.09e4 9.29e4 9.50e4 9.70e4 9.87e+4 1.00e+5  1.01e+5
#> 4 ABW     SP.POP.G~ 2.06e0 2.23e0 2.23e0 2.11e0 1.76e+0 1.30e+0  7.98e-1
#> 5 AFG     SP.URB.T~ 4.44e6 4.65e6 4.89e6 5.16e6 5.43e+6 5.69e+6  5.93e+6
#> 6 AFG     SP.URB.G~ 3.91e0 4.66e0 5.13e0 5.23e0 5.12e+0 4.77e+0  4.12e+0
#> # ... with 1,050 more rows, and 11 more variables: `2007` <dbl>, `2008` <dbl>,
#> #   `2009` <dbl>, `2010` <dbl>, `2011` <dbl>, `2012` <dbl>, `2013` <dbl>,
#> #   `2014` <dbl>, `2015` <dbl>, `2016` <dbl>, `2017` <dbl>
…
Now we can complete the tidying by pivoting variable and value to make TOTL and GROW columns:

pop3 %>% 
  pivot_wider(names_from = variable, values_from = value)
#> pivot_wider: reorganized (variable, value) into (TOTL, GROW) [was 19008x5, now 9504x5]
#> # A tibble: 9,504 x 5
#>   country area  year   TOTL  GROW
#>   <chr>   <chr> <chr> <dbl> <dbl>
#> 1 ABW     URB   2000  42444 1.18 
#> 2 ABW     URB   2001  43048 1.41 
#> 3 ABW     URB   2002  43670 1.43 
#> 4 ABW     URB   2003  44246 1.31 
#> 5 ABW     URB   2004  44669 0.951
#> 6 ABW     URB   2005  44889 0.491
#> # ... with 9,498 more rows
…
But the actual order isn’t important, and you’d prefer to have the individual questions in the columns. You can achieve the desired transformation in two steps. First, you make the data longer, eliminating the explcit NAs, and adding a column to indicate that this choice was chosen:

multi2 <- multi %>% 
  pivot_longer(-id, values_drop_na = TRUE) %>% 
  mutate(checked = TRUE)
#> pivot_longer: reorganized (choice1, choice2, choice3) into (name, value) [was 4x4, now 8x3]
#> mutate: new variable 'checked' with one unique value and 0% NA
multi2
#> # A tibble: 8 x 4
#>      id name    value checked
#>   <dbl> <chr>   <chr> <lgl>  
#> 1     1 choice1 A     TRUE   
#> 2     1 choice2 B     TRUE   
#> 3     1 choice3 C     TRUE   
#> 4     2 choice1 C     TRUE   
#> 5     2 choice2 B     TRUE   
#> 6     3 choice1 D     TRUE   
#> # ... with 2 more rows
…
