3 readr | R for data science: tidyverse and beyond
…
na表明文件中缺失值的表示方法

下面用一些例子演示read_delim()函数的用法，因为它是最一般的形式，一旦掌握它，我们就可将从中学到的经验轻松应用于readr的其他函数。

## column names 
properties <- c("area", "temp", "size", "storage", "method",
                "texture", "flavor", "moistness")

## 文件中用制表符为分隔符
potatoes <- read_delim("data\\potatoes.txt",delim = "\t",
                       col_names = properties)

potatoes
#> # A tibble: 160 x 8
#>    area  temp  size storage method texture flavor moistness
#>   <dbl> <dbl> <dbl>   <dbl>  <dbl>   <dbl>  <dbl>     <dbl>
#> 1     1     1     1       1      1     2.9    3.2       3  
#> 2     1     1     1       1      2     2.3    2.5       2.6
#> 3     1     1     1       1      3     2.5    2.8       2.8
#> 4     1     1     1       1      4     2.1    2.9       2.4
#> 5     1     1     1       1      5     1.9    2.8       2.2
#> 6     1     1     1       2      1     1.8    3         1.7
#> # … with 154 more rows

当运行readr中的数据导入函数时，会打印出一份数据了说明，给出每个列的名称和类型。后面我们学习解析时，还会继续讨论这项功能。

通过col_types指定前五列为integer类型：

properties <- c("area", "temp", "size", "storage", "method",
                "texture", "flavor", "moistness")

potatoes <- read_delim("data\\potatoes.txt",delim = "\t",
                       col_names = properties,
                       col_types = "iiiiiddd")

potatoes
#> # A tibble: 160 x 8
#>    area  temp  size storage method texture flavor moistness
#>   <int> <int> <int>   <int>  <int>   <dbl>  <dbl>     <dbl>
#> 1     1     1     1       1      1     2.9    3.2       3  
#> 2     1     1     1       1      2     2.3    2.5       2.6
#> 3     1     1     1       1      3     2.5    2.8       2.8
#> 4     1     1     1       1      4     2.1    2.9       2.4
#> 5     1     1     1       1      5     1.9    2.8       2.2
#> 6     1     1     1       2      1     1.8    3         1.7
#> # … with 154 more rows
…
这些默认设置对更大的文件并不总是有效。以下是两个可能遇到的主要问题：

readr通过前 1000 行猜测数据类型，但是前 1000 行可能只是一种特殊情况，不足以代表整列。例如，一列双精度数值的前1000行有可能都是整数

列中可能包含大量缺失值。如果前 1000 行都是NA，那么readr会认为这是一个字符向量，但你其实想将这一类解析为更具体的值。

readr的安装包里包含了一份文件challenge.csv，用来说明解析过程中可能遇到的问题。这个csv文件包含两列x，y和2001行观测。x 列的前 1001 行均为整数，但之后的值均为双精度整数。y 列的前 1001 行均为NA，后面是日期型数据：

## readr_example()找到包含在R包中的文件的路径
challenge <- read_csv(readr_example("challenge.csv"))

可以看到，read_csv()成功解析了 x，但对于 y 则无从下手，因为使用了错误的解析函数col_logical()。使用 problems() 函数明确列出这些失败记录，以便深入探究其中的问题：

problems(challenge)
#> # A tibble: 1,000 x 5
#>     row col   expected       actual   file                                      
#>   <int> <chr> <chr>          <chr>    <chr>                                     
#> 1  1001 y     1/0/T/F/TRUE/… 2015-01… 'C:/Users/56570/Documents/R/win-library/3…
#> 2  1002 y     1/0/T/F/TRUE/… 2018-05… 'C:/Users/56570/Documents/R/win-library/3…
#> 3  1003 y     1/0/T/F/TRUE/… 2015-09… 'C:/Users/56570/Documents/R/win-library/3…
#> 4  1004 y     1/0/T/F/TRUE/… 2012-11… 'C:/Users/56570/Documents/R/win-library/3…
#> 5  1005 y     1/0/T/F/TRUE/… 2020-01… 'C:/Users/56570/Documents/R/win-library/3…
#> 6  1006 y     1/0/T/F/TRUE/… 2016-04… 'C:/Users/56570/Documents/R/win-library/3…
#> # … with 994 more rows
…
默认设置下，read_excel()会将这些元数据一并读入：

deaths 
#> # A tibble: 18 x 6
#>   `Lots of people`           ...2      ...3  ...4    ...5        ...6           
#>   <chr>                      <chr>     <chr> <chr>   <chr>       <chr>          
#> 1 simply cannot resist writ… <NA>      <NA>  <NA>    <NA>        some notes     
#> 2 at                         the       top   <NA>    of          their spreadsh…
#> 3 or                         merging   <NA>  <NA>    <NA>        cells          
#> 4 Name                       Professi… Age   Has ki… Date of bi… Date of death  
#> 5 David Bowie                musician  69    TRUE    17175       42379          
#> 6 Carrie Fisher              actor     60    TRUE    20749       42731          
#> # … with 12 more rows
…
对于deaths.xlsx这个Excel文件，可以结合使用n_max 和 skip 参数去除不想读取的部分（分别对应图形界面里的Max Rows和Skip：

read_excel(path,  skip= 4, n_max = 10)
#> # A tibble: 10 x 6
#>   Name       Profession   Age `Has kids` `Date of birth`     `Date of death`    
#>   <chr>      <chr>      <dbl> <lgl>      <dttm>              <dttm>             
#> 1 David Bow… musician      69 TRUE       1947-01-08 00:00:00 2016-01-10 00:00:00
#> 2 Carrie Fi… actor         60 TRUE       1956-10-21 00:00:00 2016-12-27 00:00:00
#> 3 Chuck Ber… musician      90 TRUE       1926-10-18 00:00:00 2017-03-18 00:00:00
#> 4 Bill Paxt… actor         61 TRUE       1955-05-17 00:00:00 2017-02-25 00:00:00
#> 5 Prince     musician      57 TRUE       1958-06-07 00:00:00 2016-04-21 00:00:00
#> 6 Alan Rick… actor         69 FALSE      1946-02-21 00:00:00 2016-01-14 00:00:00
#> # … with 4 more rows

read_excel()中另一个很有用的参数是range，用于指定一块Excel表中要读取的区域：

read_excel(path, sheet = "arts", range = "A5:F15")
#> # A tibble: 10 x 6
#>   Name       Profession   Age `Has kids` `Date of birth`     `Date of death`    
#>   <chr>      <chr>      <dbl> <lgl>      <dttm>              <dttm>             
#> 1 David Bow… musician      69 TRUE       1947-01-08 00:00:00 2016-01-10 00:00:00
#> 2 Carrie Fi… actor         60 TRUE       1956-10-21 00:00:00 2016-12-27 00:00:00
#> 3 Chuck Ber… musician      90 TRUE       1926-10-18 00:00:00 2017-03-18 00:00:00
#> 4 Bill Paxt… actor         61 TRUE       1955-05-17 00:00:00 2017-02-25 00:00:00
#> 5 Prince     musician      57 TRUE       1958-06-07 00:00:00 2016-04-21 00:00:00
#> 6 Alan Rick… actor         69 FALSE      1946-02-21 00:00:00 2016-01-14 00:00:00
#> # … with 4 more rows
## 还可以在range中指定列名
read_excel(path, range = "arts!A5:F15")
#> # A tibble: 10 x 6
#>   Name       Profession   Age `Has kids` `Date of birth`     `Date of death`    
#>   <chr>      <chr>      <dbl> <lgl>      <dttm>              <dttm>             
#> 1 David Bow… musician      69 TRUE       1947-01-08 00:00:00 2016-01-10 00:00:00
#> 2 Carrie Fi… actor         60 TRUE       1956-10-21 00:00:00 2016-12-27 00:00:00
#> 3 Chuck Ber… musician      90 TRUE       1926-10-18 00:00:00 2017-03-18 00:00:00
#> 4 Bill Paxt… actor         61 TRUE       1955-05-17 00:00:00 2017-02-25 00:00:00
#> 5 Prince     musician      57 TRUE       1958-06-07 00:00:00 2016-04-21 00:00:00
#> 6 Alan Rick… actor         69 FALSE      1946-02-21 00:00:00 2016-01-14 00:00:00
#> # … with 4 more rows
…
