…
```r
df <- expand.grid(x = 1:3, y = 3:1)
df_done <- df %>% 
  rowwise() %>% 
  do(i = seq(.$x, .$y))
df_done
#> Source: local data frame [9 x 1]
#> Groups: <by row>
#> 
#> # A tibble: 9 x 1
#>   i        
#> * <list>   
#> 1 <int [3]>
#> 2 <int [2]>
#> 3 <int [1]>
#> 4 <int [2]>
#> 5 <int [1]>
#> 6 <int [2]>
#> # ... with 3 more rows
```


```r
df_done %>% 
  summarise(n = length(i))
#> # A tibble: 9 x 1
#>       n
#>   <int>
#> 1     3
#> 2     2
#> 3     1
#> 4     2
#> 5     1
#> 6     2
#> # ... with 3 more rows
```
…
