…
`chop()`


```r
chopped <- chop(x, breaks = -5:5)

chopped %>% table()
#> .
#> [-3, -2) [-2, -1)  [-1, 0)   [0, 1)   [1, 2)   [3, 4) 
#>        3       15       27       38       16        1

# chop() returns a factor
tibble(x, chopped)
#> # A tibble: 100 x 2
#>         x chopped 
#>     <dbl> <fct>   
#> 1  0.788  [0, 1)  
#> 2 -0.422  [-1, 0) 
#> 3  0.0569 [0, 1)  
#> 4  0.711  [0, 1)  
#> 5 -1.59   [-2, -1)
#> 6  0.597  [0, 1)  
#> # ... with 94 more rows
```

If data is beyond the limits of `breaks`, they will be extended automatically, unless `extend = FALSE`, and values beyond the bounds will be converted to `NA`:  


```r
chopped <- chop(x, breaks = -1:1, extend = FALSE)
tibble(x, chopped)
#> # A tibble: 100 x 2
#>         x chopped
#>     <dbl> <fct>  
#> 1  0.788  [0, 1] 
#> 2 -0.422  [-1, 0)
#> 3  0.0569 [0, 1] 
#> 4  0.711  [0, 1] 
#> 5 -1.59   <NA>   
#> 6  0.597  [0, 1] 
#> # ... with 94 more rows
```

To chop a single number into a separate category, put the number twice in `breaks`:


```r
x_zeros <- x 
x_zeros[1:5] <- 0

chopped <- chop(x_zeros, c(-1, 0, 0, 1))
tibble(x, chopped)
#> # A tibble: 100 x 2
#>         x chopped
#>     <dbl> <fct>  
#> 1  0.788  {0}    
#> 2 -0.422  {0}    
#> 3  0.0569 {0}    
#> 4  0.711  {0}    
#> 5 -1.59   {0}    
#> 6  0.597  (0, 1] 
#> # ... with 94 more rows
```
…
