6.5 separate() and untie() | R for data science: tidyverse and beyond
…
df %>% separate_rows(y, z, sep = ",")
#> # A tibble: 6 x 3
#>       x y     z    
#>   <int> <chr> <chr>
#> 1     1 a     1    
#> 2     2 d     2    
#> 3     2 e     3    
#> 4     2 f     4    
#> 5     3 g     5    
#> 6     3 h     6

The multiple choice data mentioned in 6.3.2 can easily be solved when using separate_rows():

multiple_choice %>% separate_rows(method, sep = ",")
#> # A tibble: 9 x 1
#>   method                
#>   <chr>                 
#> 1 "CNNs"                
#> 2 "Bayesian"            
#> 3 " Logistic Regression"
#> 4 "Data Visualization"  
#> 5 " Decision Trees"     
#> 6 "Linear Regression"   
#> # ... with 3 more rows
…
