# sjmisc  

https://strengejacke.github.io/sjmisc/articles/exploringdatasets.html  


```r
library(sjmisc)
```


```r
data(efc)
(efc <- efc %>% as_tibble())
#> # A tibble: 908 x 26
#>   c12hour e15relat e16sex e17age e42dep c82cop1 c83cop2 c84cop3 c85cop4 c86cop5
#>     <dbl>    <dbl>  <dbl>  <dbl>  <dbl>   <dbl>   <dbl>   <dbl>   <dbl>   <dbl>
#> 1      16        2      2     83      3       3       2       2       2       1
#> 2     148        2      2     88      3       3       3       3       3       4
#> 3      70        1      2     82      3       2       2       1       4       1
#> 4     168        1      2     67      4       4       1       3       1       1
#> 5     168        2      2     84      4       3       2       1       2       2
#> 6      16        2      2     85      4       2       2       3       3       3
#> # ... with 902 more rows, and 16 more variables: c87cop6 <dbl>, c88cop7 <dbl>,
#> #   c89cop8 <dbl>, c90cop9 <dbl>, c160age <dbl>, c161sex <dbl>, c172code <dbl>,
#> #   c175empl <dbl>, barthtot <dbl>, neg_c_7 <dbl>, pos_v_4 <dbl>, quol_5 <dbl>,
#> #   resttotn <dbl>, tot_sc_e <dbl>, n4pstu <dbl>, nur_pst <dbl>
```
…
