2 tibble | R for data science: tidyverse and beyond
…
2 tibble

tidyverse 的设计理念之一是用 tibble 代替传统的 R 数据框(data.frame类)。tibble 是一种更简单的数据框，它对传统数据框的功能进行了一些修改，以便更易于使用。多数情况下，我们不再区分 tibble 和数据框这两个词 ； 如果想要强调 R 内置的传统数据框，用 data. frame 来表示。除了这里展示的知识以外，使用 vignette("tibble") 可以获得更多关于 tibble 的信息。

2.1 简介

之前介绍的所有函数几乎都将返回一个tibble，filter()、arrange()、select()、mutate()、summarize()等函数最后的结果都是一个tibble，因为它是tidyverse最底层的功能之一。由于多数其他R包使用的是标准数据框，因此经常需要将data.frame转换为tibble，可以使用as_tibble()函数来完成转换：

## iris数据集是一个data.frame
class(iris)
#> [1] "data.frame"
## 转换为tibble
(iris_tibble <- as_tibble(iris))
#> # A tibble: 150 x 5
#>   Sepal.Length Sepal.Width Petal.Length Petal.Width Species
#>          <dbl>       <dbl>        <dbl>       <dbl> <fct>  
#> 1          5.1         3.5          1.4         0.2 setosa 
#> 2          4.9         3            1.4         0.2 setosa 
#> 3          4.7         3.2          1.3         0.2 setosa 
#> 4          4.6         3.1          1.5         0.2 setosa 
#> 5          5           3.6          1.4         0.2 setosa 
#> 6          5.4         3.9          1.7         0.4 setosa 
#> # … with 144 more rows
…
2.2.2 打印

tibble 的打印方法进行了优化，只显示前 10 行结果，显示列的数目将自动适应屏幕的宽度，这种打印方式非常适合大数据集。除了打印列名，tibble 还会第一行的下面打印出列的类型，这项功能有些类似于 str() 函数

tibble(
  a = lubridate::now() + runif(1e3) * 96400,
  b = lubridate::today() + runif(1e3) * 30,
  c = 1:1e3,
  d = runif(1e3),
  e = sample(letters,1e3, replace = T)
)
#> # A tibble: 1,000 x 5
#>   a                   b              c     d e    
#>   <dttm>              <date>     <int> <dbl> <chr>
#> 1 2019-12-12 21:49:54 2019-12-14     1 0.392 i    
#> 2 2019-12-12 14:53:28 2019-12-16     2 0.409 p    
#> 3 2019-12-12 09:50:02 2019-12-27     3 0.944 t    
#> 4 2019-12-12 14:34:31 2020-01-05     4 0.614 z    
#> 5 2019-12-12 14:49:10 2019-12-28     5 0.672 f    
#> 6 2019-12-12 15:43:59 2019-12-22     6 0.113 q    
#> # … with 994 more rows
…
## 创建一个名称为3的新列，其值为列2除以列1
mutate(annoying,`3`= `2`/`1`)
#> # A tibble: 10 x 3
#>     `1`   `2`   `3`
#>   <int> <dbl> <dbl>
#> 1     1  2.17  2.17
#> 2     2  3.85  1.93
#> 3     3  5.58  1.86
#> 4     4  7.20  1.80
#> 5     5  9.12  1.82
#> 6     6 12.1   2.02
#> # … with 4 more rows
## 将前两列重新命名为one、two
(annoying <- rename(annoying,one = `1`, two = `2`))
#> # A tibble: 10 x 2
#>     one   two
#>   <int> <dbl>
#> 1     1  2.17
#> 2     2  3.85
#> 3     3  5.58
#> 4     4  7.20
#> 5     5  9.12
#> 6     6 12.1 
#> # … with 4 more rows

Exercise 2.3  tibble::enframe()函数的功能是什么？什么时候可以使用这个函数？

enframe()接受一个具名向量(named vectors)转换为一个tibble：

enframe(c(a = 5, b = 7))
#> # A tibble: 2 x 2
#>   name  value
#>   <chr> <dbl>
#> 1 a         5
#> 2 b         7
enframe(c(a = 1:3, b = 2:4, c = 3:5))
#> # A tibble: 9 x 2
#>   name  value
#>   <chr> <int>
#> 1 a1        1
#> 2 a2        2
#> 3 a3        3
#> 4 b1        2
#> 5 b2        3
#> 6 b3        4
#> # … with 3 more rows

tibble() 在这种情况下只会识别一个完整的向量

tibble(c(a = 1:3, b = 2:4, c = 3:5))
#> # A tibble: 9 x 1
#>   `c(a = 1:3, b = 2:4, c = 3:5)`
#>                            <int>
#> 1                              1
#> 2                              2
#> 3                              3
#> 4                              2
#> 5                              3
#> 6                              4
#> # … with 3 more rows
