…
同样的数据可以有不同的表现形式，但只有满足整洁数据的三个条件的数据集才是最容易使用的，这也是。以下的3个数据集背后的均来自1999年和2000年世界卫生组织在阿富汗、巴西和中国的一次肺结核病例调查，都有`country`、`year`、`cases`和`population`四个变量，但采用了不同的组织方式:

```r
table1
#> # A tibble: 6 x 4
#>   country      year  cases population
#>   <chr>       <int>  <int>      <int>
#> 1 Afghanistan  1999    745   19987071
#> 2 Afghanistan  2000   2666   20595360
#> 3 Brazil       1999  37737  172006362
#> 4 Brazil       2000  80488  174504898
#> 5 China        1999 212258 1272915272
#> 6 China        2000 213766 1280428583
table2
#> # A tibble: 12 x 4
#>   country      year type           count
#>   <chr>       <int> <chr>          <int>
#> 1 Afghanistan  1999 cases            745
#> 2 Afghanistan  1999 population  19987071
#> 3 Afghanistan  2000 cases           2666
#> 4 Afghanistan  2000 population  20595360
#> 5 Brazil       1999 cases          37737
#> 6 Brazil       1999 population 172006362
#> # … with 6 more rows
…
<img src="tidyr_files/figure-html/unnamed-chunk-5-1.svg" width="80%" />

### 练习  
> 1. 用`table2`计算`rate`($\frac{cases}{population}$)。提示：需要进行以下四步操作：
  * 得到每个国家每年的`cases`  
  * 得到每个国家每年的`population`  
  * 计算`rate = cases / population`  
  * 把算好的数据存储到正确的位置 
  
首先，分别对`cases`和`population`建立一张表，并且确保两张表的排列顺序相同：  


```r
table2
#> # A tibble: 12 x 4
#>   country      year type           count
#>   <chr>       <int> <chr>          <int>
#> 1 Afghanistan  1999 cases            745
#> 2 Afghanistan  1999 population  19987071
#> 3 Afghanistan  2000 cases           2666
#> 4 Afghanistan  2000 population  20595360
#> 5 Brazil       1999 cases          37737
#> 6 Brazil       1999 population 172006362
#> # … with 6 more rows
…
另一个例子：美国劳工市场的月度数据，首先创建一个messy data：

```r
library(lubridate)
ec2 <- economics %>% as_tibble() %>%
  transmute(year = year(date),
            month = month(date),
            rate = unemploy) %>%
  filter(year > 2005) %>%
  spread(year,rate)

ec2
#> # A tibble: 12 x 11
#>   month `2006` `2007` `2008` `2009` `2010` `2011` `2012` `2013` `2014` `2015`
#>   <dbl>  <dbl>  <dbl>  <dbl>  <dbl>  <dbl>  <dbl>  <dbl>  <dbl>  <dbl>  <dbl>
#> 1     1   7064   7116   7685  12058  15046  14013  12797  12471  10202   8903
#> 2     2   7184   6927   7497  12898  15113  13820  12813  11950  10349   8610
#> 3     3   7072   6731   7822  13426  15202  13737  12713  11689  10380   8504
#> 4     4   7120   6850   7637  13853  15325  13957  12646  11760   9702   8526
#> 5     5   6980   6766   8395  14499  14849  13855  12660  11654   9859     NA
#> 6     6   7001   6979   8575  14707  14474  13962  12692  11751   9460     NA
#> # … with 6 more rows
```

下面，将除了`month`列的所有列聚集为一个键列和一个值列

```r
ec2 %>%
  gather(-month,key = year,value = unemploy)
#> # A tibble: 120 x 3
#>   month year  unemploy
#>   <dbl> <chr>    <dbl>
#> 1     1 2006      7064
#> 2     2 2006      7184
#> 3     3 2006      7072
#> 4     4 2006      7120
#> 5     5 2006      6980
#> 6     6 2006      7001
#> # … with 114 more rows
```
…
```r
ggplot(economics_2,aes(month,unemploy))+
  geom_line(aes(group = year,color = factor(year)),size = 1)
```

<img src="tidyr_files/figure-html/unnamed-chunk-15-1.svg" width="80%" />



### `spread()`  
`spread()`函数是`gather()`的逆运算，当某个变量的值实际上是其他变量的名字，就需要将数据集化长为宽，也可以说这种“错误”的表现形式是一个观测分散到了多行中（an observation is scattered across multiple rows）。例如`table2()`:  

```r
table2
#> # A tibble: 12 x 4
#>   country      year type           count
#>   <chr>       <int> <chr>          <int>
#> 1 Afghanistan  1999 cases            745
#> 2 Afghanistan  1999 population  19987071
#> 3 Afghanistan  2000 cases           2666
#> 4 Afghanistan  2000 population  20595360
#> 5 Brazil       1999 cases          37737
#> 6 Brazil       1999 population 172006362
#> # … with 6 more rows
```
…
`R for Data Science`中对这两种缺失的概括：  

> An explicit missing value is the presence of an absence; an implicit missing value is the absence of a presence.

通过一个简单的数据框区分两种数据缺失的方式：  

```r
stocks <- tibble(
  year   = c(2015, 2015, 2015, 2015, 2016, 2016, 2016),
  qtr    = c(   1,    2,    3,    4,    2,    3,    4),
  return = c(1.88, 0.59, 0.35,   NA, 0.92, 0.17, 2.66)
)

stocks
#> # A tibble: 7 x 3
#>    year   qtr return
#>   <dbl> <dbl>  <dbl>
#> 1  2015     1   1.88
#> 2  2015     2   0.59
#> 3  2015     3   0.35
#> 4  2015     4  NA   
#> 5  2016     2   0.92
#> 6  2016     3   0.17
#> # … with 1 more row
```
…
现在，再使用`gather()`不能得到原来的数据框，因为将比原来多出一行显示的缺失值

```r
stocks %>%
  spread(key = year,value = return) %>%
  gather(key = year,value = return,`2015`:`2016`)
#> # A tibble: 8 x 3
#>     qtr year  return
#>   <dbl> <chr>  <dbl>
#> 1     1 2015    1.88
#> 2     2 2015    0.59
#> 3     3 2015    0.35
#> 4     4 2015   NA   
#> 5     1 2016   NA   
#> 6     2 2016    0.92
#> # … with 2 more rows
```
…
另一个用于处理确实值的有用工具是`complete()`函数，它将生成一个指定列集合里面所有的水平组合，并自动将原本隐式的缺失值填充为`NA`

```r
stocks %>%
  complete(year, qtr)
#> # A tibble: 8 x 3
#>    year   qtr return
#>   <dbl> <dbl>  <dbl>
#> 1  2015     1   1.88
#> 2  2015     2   0.59
#> 3  2015     3   0.35
#> 4  2015     4  NA   
#> 5  2016     1  NA   
#> 6  2016     2   0.92
#> # … with 2 more rows
```
…
## Case Study  

To finish off the chapter, let’s pull together everything you’ve learned to tackle a realistic data tidying problem. The `tidyr::who` dataset contains tuberculosis (TB) cases broken down by year, country, age, gender, and diagnosis method. The data comes from the *2014 World Health Organization Global Tuberculosis Report*, available at [http://www.who.int/tb/country/data/download/en/](http://www.who.int/tb/country/data/download/en/).  

There’s a wealth of epidemiological information in this dataset, but it’s challenging to work with the data in the form that it’s provided:


```r
who
#> # A tibble: 7,240 x 60
#>   country iso2  iso3   year new_sp_m014 new_sp_m1524 new_sp_m2534 new_sp_m3544
#>   <chr>   <chr> <chr> <int>       <int>        <int>        <int>        <int>
#> 1 Afghan… AF    AFG    1980          NA           NA           NA           NA
#> 2 Afghan… AF    AFG    1981          NA           NA           NA           NA
#> 3 Afghan… AF    AFG    1982          NA           NA           NA           NA
#> 4 Afghan… AF    AFG    1983          NA           NA           NA           NA
#> 5 Afghan… AF    AFG    1984          NA           NA           NA           NA
#> 6 Afghan… AF    AFG    1985          NA           NA           NA           NA
#> # … with 7,234 more rows, and 52 more variables: new_sp_m4554 <int>,
#> #   new_sp_m5564 <int>, new_sp_m65 <int>, new_sp_f014 <int>,
#> #   new_sp_f1524 <int>, new_sp_f2534 <int>, new_sp_f3544 <int>,
#> #   new_sp_f4554 <int>, new_sp_f5564 <int>, new_sp_f65 <int>,
#> #   new_sn_m014 <int>, new_sn_m1524 <int>, new_sn_m2534 <int>,
#> #   new_sn_m3544 <int>, new_sn_m4554 <int>, new_sn_m5564 <int>,
#> #   new_sn_m65 <int>, new_sn_f014 <int>, new_sn_f1524 <int>,
#> #   new_sn_f2534 <int>, new_sn_f3544 <int>, new_sn_f4554 <int>,
#> #   new_sn_f5564 <int>, new_sn_f65 <int>, new_ep_m014 <int>,
…
We can get some hint of the structure of the values in the new `key` column by counting them:  

```r
who1 %>%
  count(key)
#> # A tibble: 56 x 2
#>   key              n
#>   <chr>        <int>
#> 1 new_ep_f014   1032
#> 2 new_ep_f1524  1021
#> 3 new_ep_f2534  1021
#> 4 new_ep_f3544  1021
#> 5 new_ep_f4554  1017
#> 6 new_ep_f5564  1017
#> # … with 50 more rows
```
…
```r
pivot_wider(data, 
  names_from = name,
  values_from = value)
```


#### `pivot_longer()`  

基本用法：  


```r
relig_income
#> # A tibble: 18 x 11
#>   religion `<$10k` `$10-20k` `$20-30k` `$30-40k` `$40-50k` `$50-75k` `$75-100k`
#>   <chr>      <dbl>     <dbl>     <dbl>     <dbl>     <dbl>     <dbl>      <dbl>
#> 1 Agnostic      27        34        60        81        76       137        122
#> 2 Atheist       12        27        37        52        35        70         73
#> 3 Buddhist      27        21        30        34        33        58         62
#> 4 Catholic     418       617       732       670       638      1116        949
#> 5 Don’t k…      15        14        15        11        10        35         21
#> 6 Evangel…     575       869      1064       982       881      1486        949
#> # … with 12 more rows, and 3 more variables: `$100-150k` <dbl>, `>150k` <dbl>,
#> #   `Don't know/refused` <dbl>

relig_income %>% 
  pivot_longer(cols = -religion, 
               names_to = "income",
               values_to = "count")
#> # A tibble: 180 x 3
#>   religion income  count
#>   <chr>    <chr>   <dbl>
#> 1 Agnostic <$10k      27
#> 2 Agnostic $10-20k    34
#> 3 Agnostic $20-30k    60
#> 4 Agnostic $30-40k    81
#> 5 Agnostic $40-50k    76
#> 6 Agnostic $50-75k   137
#> # … with 174 more rows
```


`names_to` 和 `values_to` 参数相当于原来 `gather()` 中的 `key` 和 `value`，其中 “键” 列的默认名称变为 “name” 

____

**Numeric data in column names**  

`pivot_longer()` 现在提供了 `names_ptype` 和 `values_ptypes` 两个参数调整数据集变长后键列和值列的数据类别。看一下 billboard 数据集：  


```r
billboard
#> # A tibble: 317 x 79
#>   artist track date.entered   wk1   wk2   wk3   wk4   wk5   wk6   wk7   wk8
#>   <chr>  <chr> <date>       <dbl> <dbl> <dbl> <dbl> <dbl> <dbl> <dbl> <dbl>
#> 1 2 Pac  Baby… 2000-02-26      87    82    72    77    87    94    99    NA
#> 2 2Ge+h… The … 2000-09-02      91    87    92    NA    NA    NA    NA    NA
#> 3 3 Doo… Kryp… 2000-04-08      81    70    68    67    66    57    54    53
#> 4 3 Doo… Loser 2000-10-21      76    76    72    69    67    65    55    59
#> 5 504 B… Wobb… 2000-04-15      57    34    25    17    17    31    36    49
#> 6 98^0   Give… 2000-08-19      51    39    34    26    26    19     2     2
#> # … with 311 more rows, and 68 more variables: wk9 <dbl>, wk10 <dbl>,
#> #   wk11 <dbl>, wk12 <dbl>, wk13 <dbl>, wk14 <dbl>, wk15 <dbl>, wk16 <dbl>,
#> #   wk17 <dbl>, wk18 <dbl>, wk19 <dbl>, wk20 <dbl>, wk21 <dbl>, wk22 <dbl>,
#> #   wk23 <dbl>, wk24 <dbl>, wk25 <dbl>, wk26 <dbl>, wk27 <dbl>, wk28 <dbl>,
#> #   wk29 <dbl>, wk30 <dbl>, wk31 <dbl>, wk32 <dbl>, wk33 <dbl>, wk34 <dbl>,
#> #   wk35 <dbl>, wk36 <dbl>, wk37 <dbl>, wk38 <dbl>, wk39 <dbl>, wk40 <dbl>,
#> #   wk41 <dbl>, wk42 <dbl>, wk43 <dbl>, wk44 <dbl>, wk45 <dbl>, wk46 <dbl>,
#> #   wk47 <dbl>, wk48 <dbl>, wk49 <dbl>, wk50 <dbl>, wk51 <dbl>, wk52 <dbl>,
#> #   wk53 <dbl>, wk54 <dbl>, wk55 <dbl>, wk56 <dbl>, wk57 <dbl>, wk58 <dbl>,
…
显然，我们希望将所有以 `"wk"`开头的列聚合以得到整洁数据，键列和值列分别命名为 “week” 和 “rank”。另外要考虑的一点是，我们很可能之后想计算歌曲保持在榜单上的周数，故需要将 “week” 列转换为数值类型：  


```r
billboard_tidy <- billboard %>% 
  pivot_longer(cols = starts_with("wk"),
               names_to = "week",
               values_to = "rank",
               names_prefix = "wk",
               names_ptypes = list(week = integer()),
               values_drop_na = T)
billboard_tidy
#> # A tibble: 5,307 x 5
#>   artist track                   date.entered  week  rank
#>   <chr>  <chr>                   <date>       <int> <dbl>
#> 1 2 Pac  Baby Don't Cry (Keep... 2000-02-26       1    87
#> 2 2 Pac  Baby Don't Cry (Keep... 2000-02-26       2    82
#> 3 2 Pac  Baby Don't Cry (Keep... 2000-02-26       3    72
#> 4 2 Pac  Baby Don't Cry (Keep... 2000-02-26       4    77
#> 5 2 Pac  Baby Don't Cry (Keep... 2000-02-26       5    87
#> 6 2 Pac  Baby Don't Cry (Keep... 2000-02-26       6    94
#> # … with 5,301 more rows
```

`names_prefix` 去除前缀 `"wk"`，`names_ptype` 以列表的形式转换键列的数据类型  


```r
## 计算保持周数
billboard_tidy %>% 
  group_by(track) %>% 
  summarise(stay = max(week) - min(week) + 1) %>% 
  arrange(stay)
#> # A tibble: 316 x 2
#>   track                    stay
#>   <chr>                   <dbl>
#> 1 Cherchez LaGhost            1
#> 2 No Me Dejes De Quere...     1
#> 3 Souljas                     1
#> 4 Toca's Miracle              1
#> 5 Deck The Halls              2
#> 6 Got Beef                    2
#> # … with 310 more rows
```

____  


**Many variables in column names**  

`pivot_longer()` 现在可以方便地拆分键列，之前曾处理过 `who` 数据集：  


```r
who
#> # A tibble: 7,240 x 60
#>   country iso2  iso3   year new_sp_m014 new_sp_m1524 new_sp_m2534 new_sp_m3544
#>   <chr>   <chr> <chr> <int>       <int>        <int>        <int>        <int>
#> 1 Afghan… AF    AFG    1980          NA           NA           NA           NA
#> 2 Afghan… AF    AFG    1981          NA           NA           NA           NA
#> 3 Afghan… AF    AFG    1982          NA           NA           NA           NA
#> 4 Afghan… AF    AFG    1983          NA           NA           NA           NA
#> 5 Afghan… AF    AFG    1984          NA           NA           NA           NA
#> 6 Afghan… AF    AFG    1985          NA           NA           NA           NA
#> # … with 7,234 more rows, and 52 more variables: new_sp_m4554 <int>,
#> #   new_sp_m5564 <int>, new_sp_m65 <int>, new_sp_f014 <int>,
#> #   new_sp_f1524 <int>, new_sp_f2534 <int>, new_sp_f3544 <int>,
#> #   new_sp_f4554 <int>, new_sp_f5564 <int>, new_sp_f65 <int>,
#> #   new_sn_m014 <int>, new_sn_m1524 <int>, new_sn_m2534 <int>,
#> #   new_sn_m3544 <int>, new_sn_m4554 <int>, new_sn_m5564 <int>,
#> #   new_sn_m65 <int>, new_sn_f014 <int>, new_sn_f1524 <int>,
#> #   new_sn_f2534 <int>, new_sn_f3544 <int>, new_sn_f4554 <int>,
#> #   new_sn_f5564 <int>, new_sn_f65 <int>, new_ep_m014 <int>,
…
Note that we have two pieces of information (or values) for each child: their `gender and` their `dob` (date of birth). These need to go into separate columns in the result. Again we supply multiple variables to `names_to`, using `names_sep` to split up each variable name. Note the special name `.value`: this tells `pivot_longer()` that that part of the column name specifies the “value” being measured (which will become a variable in the output)  


```r
family %>% 
  pivot_longer(
    -family, 
    names_to = c(".value", "child"),   ## child 为每个 family 中的标识变量
    names_sep = "_", 
    values_drop_na = TRUE
  )
#> # A tibble: 9 x 4
#>   family child  dob        gender
#>    <int> <chr>  <date>      <int>
#> 1      1 child1 1998-11-26      1
#> 2      1 child2 2000-01-29      2
#> 3      2 child1 1996-06-22      2
#> 4      3 child1 2002-07-11      2
#> 5      3 child2 2004-04-05      2
#> 6      4 child1 2004-10-10      1
#> # … with 3 more rows
```
…
anscombe %>% 
  pivot_longer(everything(),
               names_to = c(".value", "set"),
               names_pattern = "([xy])([1234])")
#> # A tibble: 44 x 3
#>   set       x     y
#>   <chr> <dbl> <dbl>
#> 1 1        10  8.04
#> 2 2        10  9.14
#> 3 3        10  7.46
#> 4 4         8  6.58
#> 5 1         8  6.95
#> 6 2         8  8.14
#> # … with 38 more rows
```
…
```r
pnl %>% 
  pivot_longer(-(x:b),
               names_to = c(".value", "time"),
               names_pattern = "([yz])([12])")
#> # A tibble: 8 x 6
#>       x     a     b time        y     z
#>   <int> <dbl> <dbl> <chr>   <dbl> <dbl>
#> 1     1     1     0 1      0.788      3
#> 2     1     1     0 2     -1.59      -2
#> 3     2     1     1 1     -0.422      3
#> 4     2     1     1 2      0.597     -2
#> 5     3     0     1 1      0.0569     3
#> 6     3     0     1 2      1.22      -2
#> # … with 2 more rows
```
…
df <- tibble(x = 1:3, y = 4:6, y = 5:7, y = 7:9, .name_repair = "minimal") 
df
#> # A tibble: 3 x 4
#>       x     y     y     y
#>   <int> <int> <int> <int>
#> 1     1     4     5     7
#> 2     2     5     6     8
#> 3     3     6     7     9
```


```r
df %>% 
  pivot_longer(-x, names_to = "y")
#> # A tibble: 9 x 4
#>       x y     .copy value
#>   <int> <chr> <int> <int>
#> 1     1 y         1     4
#> 2     1 y         2     5
#> 3     1 y         3     7
#> 4     2 y         1     5
#> 5     2 y         2     6
#> 6     2 y         3     8
#> # … with 3 more rows
```


### `pivot_wider()`  

The `fish_encounters` dataset, contributed by [Myfanwy Johnston](https://fishsciences.github.io/post/visualizing-fish-encounter-histories/), describes when fish swimming down a river are detected by automatic monitoring stations:  



```r
fish_encounters
#> # A tibble: 114 x 3
#>   fish  station  seen
#>   <fct> <fct>   <int>
#> 1 4842  Release     1
#> 2 4842  I80_1       1
#> 3 4842  Lisbon      1
#> 4 4842  Rstr        1
#> 5 4842  Base_TD     1
#> 6 4842  BCE         1
#> # … with 108 more rows
```


```r
fish_encounters %>% 
  pivot_wider(names_from = station,
              values_from = seen,
              )
#> # A tibble: 19 x 12
#>   fish  Release I80_1 Lisbon  Rstr Base_TD   BCE   BCW  BCE2  BCW2   MAE   MAW
#>   <fct>   <int> <int>  <int> <int>   <int> <int> <int> <int> <int> <int> <int>
#> 1 4842        1     1      1     1       1     1     1     1     1     1     1
#> 2 4843        1     1      1     1       1     1     1     1     1     1     1
#> 3 4844        1     1      1     1       1     1     1     1     1     1     1
#> 4 4845        1     1      1     1       1    NA    NA    NA    NA    NA    NA
#> 5 4847        1     1      1    NA      NA    NA    NA    NA    NA    NA    NA
#> 6 4848        1     1      1     1      NA    NA    NA    NA    NA    NA    NA
#> # … with 13 more rows
```
