Using {infer} for Tidy Statistical Inference | Qiushi Yan
…
Chi-square test

Conclusion

library(tidyverse)
library(infer) 
theme_set(theme_light())

titanic <- Titanic %>% 
  as_tibble() %>% 
  uncount(n) %>% 
  janitor::clean_names()

titanic
#> # A tibble: 2,201 x 4
#>    class sex   age   survived
#>    <chr> <chr> <chr> <chr>   
#>  1 3rd   Male  Child No      
#>  2 3rd   Male  Child No      
#>  3 3rd   Male  Child No      
#>  4 3rd   Male  Child No      
#>  5 3rd   Male  Child No      
#>  6 3rd   Male  Child No      
#>  7 3rd   Male  Child No      
#>  8 3rd   Male  Child No      
#>  9 3rd   Male  Child No      
#> 10 3rd   Male  Child No      
#> # ... with 2,191 more rows
…
t-test

One sample t test

The data I used this t test section comes from moderndive package and book (Ismay and Kim 2019), which actually first introduced to the infer package.

library(moderndive)
movies_sample
#> # A tibble: 68 x 4
#>    title                     year rating genre  
#>    <chr>                    <int>  <dbl> <chr>  
#>  1 Underworld                1985    3.1 Action 
#>  2 Love Affair               1932    6.3 Romance
#>  3 Junglee                   1961    6.8 Romance
#>  4 Eversmile, New Jersey     1989    5   Romance
#>  5 Search and Destroy        1979    4   Action 
#>  6 Secreto de Romelia, El    1988    4.9 Romance
#>  7 Amants du Pont-Neuf, Les  1991    7.4 Romance
#>  8 Illicit Dreams            1995    3.5 Action 
#>  9 Kabhi Kabhie              1976    7.7 Romance
#> 10 Electric Horseman, The    1979    5.8 Romance
#> # ... with 58 more rows
…
