…
* `plot_name`: 变量名，如我们经常用变量 `p` 来存储 ggplot 图形  
* `source`:需要在图表左下角暂时的来源文字，需要在文字前先打上 "Source:",比如 `source = "Source: ONS"。  
* `svae_filepath`:图表的保存路径，需要包括.png 后缀。  
* `width_pixels`:默认 640 px。hieght_pixels:，默认 450 px。  
* `logo_image_path`:指定在图表右下角需要展示的 logo 保存的位置。默认是一个 png 格式的占位文件，颜色和图表的背景色一样。如果你不需要展示 logo， 则无需调整此参数。当你想给图表增加 logo 时，通过此参数指定 logo 的位置即可。

## 折线图  

使用 gapminder 数据集作一些试验：  


```r
library(gapminder)
gapminder
#> # A tibble: 1,704 x 6
#>   country     continent  year lifeExp      pop gdpPercap
#>   <fct>       <fct>     <int>   <dbl>    <int>     <dbl>
#> 1 Afghanistan Asia       1952    28.8  8425333      779.
#> 2 Afghanistan Asia       1957    30.3  9240934      821.
#> 3 Afghanistan Asia       1962    32.0 10267083      853.
#> 4 Afghanistan Asia       1967    34.0 11537966      836.
#> 5 Afghanistan Asia       1972    36.1 13079460      740.
#> 6 Afghanistan Asia       1977    38.4 14880372      786.
#> # ... with 1,698 more rows
```
…
```r
#prepare data
stacked_df <- gapminder %>% 
  filter(year == 2007) %>%
  mutate(lifeExpGrouped = cut(lifeExp, 
                    breaks = c(0, 50, 65, 80, 90),
                    labels = c("Under 50", "50-65", "65-80", "80+"))) %>%
  group_by(continent, lifeExpGrouped) %>%
  summarise(continentPop = sum(as.numeric(pop)))

stacked_df
#> # A tibble: 13 x 3
#> # Groups:   continent [5]
#>   continent lifeExpGrouped continentPop
#>   <fct>     <fct>                 <dbl>
#> 1 Africa    Under 50          376100713
#> 2 Africa    50-65             386811458
#> 3 Africa    65-80             166627521
#> 4 Americas  50-65               8502814
#> 5 Americas  65-80             856978229
#> 6 Americas  80+                33390141
#> # ... with 7 more rows
…
<img src="bbplot_files/figure-html/unnamed-chunk-14-2.svg" width="90%" />


### 簇状条形图  


```r
## prepare data
grouped_bar_df <- gapminder %>%
    filter(year == 1967 | year == 2007) %>%
    head(10)
grouped_bar_df
#> # A tibble: 10 x 6
#>   country     continent  year lifeExp      pop gdpPercap
#>   <fct>       <fct>     <int>   <dbl>    <int>     <dbl>
#> 1 Afghanistan Asia       1967    34.0 11537966      836.
#> 2 Afghanistan Asia       2007    43.8 31889923      975.
#> 3 Albania     Europe     1967    66.2  1984060     2760.
#> 4 Albania     Europe     2007    76.4  3600523     5937.
#> 5 Algeria     Africa     1967    51.4 12760499     3247.
#> 6 Algeria     Africa     2007    72.3 33333216     6223.
#> # ... with 4 more rows
```
…
```r
## prepare data
library(ggalt)
dumbbell_df <- gapminder %>%
  filter(year == 1967 | year == 2007) %>% 
  .[c("country", "year", "continent", "lifeExp")] %>%
  pivot_wider(names_from = year, values_from = lifeExp) %>%
  mutate(gap = `2007` - `1967`) %>%
  arrange(desc(gap)) %>%
  head(10)   ## 这里为了使用 geom_dumbbell() 没有再使用聚合函数

dumbbell_df
#> # A tibble: 10 x 5
#>   country     continent `1967` `2007`   gap
#>   <fct>       <fct>      <dbl>  <dbl> <dbl>
#> 1 Oman        Asia        47.0   75.6  28.7
#> 2 Vietnam     Asia        47.8   74.2  26.4
#> 3 Yemen, Rep. Asia        37.0   62.7  25.7
#> 4 Indonesia   Asia        46.0   70.6  24.7
#> 5 Libya       Africa      50.2   74.0  23.7
#> 6 Gambia      Africa      35.9   59.4  23.6
#> # ... with 4 more rows
```
…
