…
数据： `data\EconomistData.csv`

```r
corruption <- read_csv("data\\EconomistData.csv")
corruption
#> # A tibble: 173 x 5
#>   Country     HDI.Rank   HDI   CPI Region           
#>   <chr>          <dbl> <dbl> <dbl> <chr>            
#> 1 Afghanistan      172 0.398   1.5 Asia Pacific     
#> 2 Albania           70 0.739   3.1 East EU Cemt Asia
#> 3 Algeria           96 0.698   2.9 MENA             
#> 4 Angola           148 0.486   2   SSA              
#> 5 Argentina         45 0.797   3   Americas         
#> 6 Armenia           86 0.716   2.6 East EU Cemt Asia
#> # ... with 167 more rows
…
