…
<img src="ggridges_files/figure-html/unnamed-chunk-13-1.svg" width="90%" />


下面是一个用 `geom_density_ridges_gradient()` 的例子：

\BeginKnitrBlock{rmdtip}<div class="rmdtip">注意这里我们映射到 `fill` 上的不是原数据集中的变量 `temperature`，而是生成变量 `..x..`。
因为`geom_density_ridges_gradient` 的统计变换 `stat_density_ridges` 在估计密度同时生成了新的 x 轴变量</div>\EndKnitrBlock{rmdtip}


```r
lincoln_weather  ## 顺便提一下，这是个典型的 messy dataset
#> # A tibble: 366 x 24
#>   CST   `Max Temperatur~ `Mean Temperatu~ `Min Temperatur~ `Max Dew Point ~
#>   <chr>            <int>            <int>            <int>            <int>
#> 1 2016~               37               24               11               19
#> 2 2016~               41               23                5               22
#> 3 2016~               37               23                8               23
#> 4 2016~               30               17                4               24
#> 5 2016~               38               29               19               29
#> 6 2016~               34               33               32               33
#> # ... with 360 more rows, and 19 more variables: `Mean Dew Point [F]` <int>,
#> #   `Min Dewpoint [F]` <int>, `Max Humidity` <int>, `Mean Humidity` <int>, `Min
#> #   Humidity` <int>, `Max Sea Level Pressure [In]` <dbl>, `Mean Sea Level
#> #   Pressure [In]` <dbl>, `Min Sea Level Pressure [In]` <dbl>, `Max Visibility
#> #   [Miles]` <int>, `Mean Visibility [Miles]` <int>, `Min Visibility
#> #   [Miles]` <int>, `Max Wind Speed [MPH]` <int>, `Mean Wind Speed[MPH]` <int>,
#> #   `Max Gust Speed [MPH]` <int>, `Precipitation [In]` <chr>, CloudCover <int>,
#> #   Events <chr>, `WindDir [Degrees]` <int>, Month <fct>
…
<img src="ggridges_files/figure-html/unnamed-chunk-44-1.svg" width="90%" />



## 实例：澳大利亚运动员身高   

本例使用数据：  


```r
df <- as_tibble(DAAG::ais)
df
#> # A tibble: 202 x 13
#>     rcc   wcc    hc    hg  ferr   bmi   ssf pcBfat   lbm    ht    wt sex   sport
#>   <dbl> <dbl> <dbl> <dbl> <dbl> <dbl> <dbl>  <dbl> <dbl> <dbl> <dbl> <fct> <fct>
#> 1  3.96   7.5  37.5  12.3    60  20.6 109.    19.8  63.3  196.  78.9 f     B_Ba~
#> 2  4.41   8.3  38.2  12.7    68  20.7 103.    21.3  58.6  190.  74.4 f     B_Ba~
#> 3  4.14   5    36.4  11.6    21  21.9 105.    19.9  55.4  178.  69.1 f     B_Ba~
#> 4  4.11   5.3  37.3  12.6    69  21.9 126.    23.7  57.2  185   74.9 f     B_Ba~
#> 5  4.45   6.8  41.5  14      29  19.0  80.3   17.6  53.2  185.  64.6 f     B_Ba~
#> 6  4.1    4.4  37.4  12.5    42  21.0  75.2   15.6  53.8  174   63.7 f     B_Ba~
#> # ... with 196 more rows
```
…
