3 hpackedbubble | 进阶 R 图形
…
            进阶 R 图形

3 hpackedbubble

hpackedbubble 提供了 highchart.js 中 packed bubble chart 在 R 语言 中的接口，同名的核心函数 hpackedbubble() 主要绘制两种图形：packed bubble charts 和 split packed bubble charts.

library(tidyverse)
library(hpackedbubble)

hpackedbubble 自带的数据集：CO2（2014 年各国碳排放量）:

CO2 %>% as_tibble()

## # A tibble: 116 x 3
##    continent country          CO2
##    <chr>     <chr>          <dbl>
##  1 Europe    Germany        767. 
##  2 Europe    Croatia         20.7
##  3 Europe    Belgium         97.2
##  4 Europe    Czech Republic 112. 
##  5 Europe    Netherlands    158. 
##  6 Europe    Spain          242. 
##  7 Europe    Ukraine        249. 
##  8 Europe    Poland         298. 
##  9 Europe    France         324. 
## 10 Europe    Romania         78.3
## # ... with 106 more rows
…
