Exploring the London Stage Database | Qiushi Yan
…
    Photo by Sid Ali

# setup
library(tidyverse)
library(jsonlite)

# get the data
london_stage <- fromJSON("D:/RProjects/data/LondonStageFull.json") %>% 
  as_tibble()

london_stage
#> # A tibble: 52,617 x 13
#>    EventId EventDate TheatreCode Season Volume Hathi CommentC TheatreId Phase2
#>    <chr>   <chr>     <chr>       <chr>  <chr>  <chr> <chr>    <chr>     <chr> 
#>  1 0       16591029  city        1659-~ 1      ""    "The <i~ 63        *p165~
#>  2 1       16591100  mt          1659-~ 1      ""    "On 23 ~ 206       *p165~
#>  3 2       16591218  none        1659-~ 1      ""    "Repres~ 1         *p165~
#>  4 3       16600200  mt          1659-~ 1      ""    "6 Feb.~ 206       *p166~
#>  5 4       16600204  cockpit     1659-~ 1      ""    "$Thoma~ 73        *p166~
#>  6 5       16600328  dh          1659-~ 1      ""    "At <i>~ 90        *p166~
#>  7 6       16600406  none        1659-~ 1      ""    ""       1         *p166~
#>  8 7       16600412  vh          1659-~ 1      ""    "Editio~ 319       *p166~
#>  9 8       16600413  fh          1659-~ 1      ""    "<i>The~ 116       *p166~
#> 10 9       16600416  none        1659-~ 1      ""    ""       1         *p166~
#> # ... with 52,607 more rows, and 4 more variables: Phase1 <chr>,
#> #   CommentCClean <chr>, BookPDF <chr>, Performances <list>
…
