Working with JSON Columns in R | Qiushi Yan
…
This produces a tbl_json object, where each row corresponds to an element of the people vector (a “document” in tidyjson). The JSON attribute of the tbl_json object is shown first, then the columns of the tibble are shown: a document.id indicating document in which the row originated.

On the other hand, spread_all cannot spread arrays, this is when gather_array come into use. Consider the worldbank data built in the package, it is a 500 length character vector of projects funded by the world bank

worldbank %>%
  spread_all()
#> # A tbl_json: 500 x 9 tibble with a "JSON" attribute
#>    ..JSON document.id boardapprovalda~ closingdate countryshortname project_name
#>    <chr>        <int> <chr>            <chr>       <chr>            <chr>       
#>  1 "{\"_~           1 2013-11-12T00:0~ 2018-07-07~ Ethiopia         Ethiopia Ge~
#>  2 "{\"_~           2 2013-11-04T00:0~ <NA>        Tunisia          TN: DTF Soc~
#>  3 "{\"_~           3 2013-11-01T00:0~ <NA>        Tuvalu           Tuvalu Avia~
#>  4 "{\"_~           4 2013-10-31T00:0~ <NA>        Yemen, Republic~ Gov't and C~
#>  5 "{\"_~           5 2013-10-31T00:0~ 2019-04-30~ Lesotho          Second Priv~
#>  6 "{\"_~           6 2013-10-31T00:0~ <NA>        Kenya            Additional ~
#>  7 "{\"_~           7 2013-10-29T00:0~ 2019-06-30~ India            National Hi~
#>  8 "{\"_~           8 2013-10-29T00:0~ <NA>        China            China Renew~
#>  9 "{\"_~           9 2013-10-29T00:0~ 2018-12-31~ India            Rajasthan R~
#> 10 "{\"_~          10 2013-10-29T00:0~ 2014-12-31~ Morocco          MA Accounta~
#> # ... with 490 more rows, and 3 more variables: regionname <chr>,
#> #   totalamt <dbl>, `_id.$oid` <chr>
…
We can use enter_object to extract any name-value pair from the entire json string, then use gather_array and spread_all:

worldbank %>% 
  enter_object(majorsector_percent) %>%
  gather_array() %>%
  spread_all()
#> # A tbl_json: 1,405 x 5 tibble with a "JSON" attribute
#>    ..JSON            document.id array.index Name                        Percent
#>    <chr>                   <int>       <int> <chr>                         <dbl>
#>  1 "{\"Name\":\"Edu~           1           1 Education                        46
#>  2 "{\"Name\":\"Edu~           1           2 Education                        26
#>  3 "{\"Name\":\"Pub~           1           3 Public Administration, Law~      16
#>  4 "{\"Name\":\"Edu~           1           4 Education                        12
#>  5 "{\"Name\":\"Pub~           2           1 Public Administration, Law~      70
#>  6 "{\"Name\":\"Pub~           2           2 Public Administration, Law~      30
#>  7 "{\"Name\":\"Tra~           3           1 Transportation                  100
#>  8 "{\"Name\":\"Hea~           4           1 Health and other social se~     100
#>  9 "{\"Name\":\"Ind~           5           1 Industry and trade               50
#> 10 "{\"Name\":\"Ind~           5           2 Industry and trade               40
#> # ... with 1,395 more rows

These steps can be readily combined with the initial spread, just enter into the unsolved majorsector_percent after the first spread_all

worldbank %>%
  spread_all() %>% 
  enter_object(majorsector_percent) %>% 
  gather_array() %>% 
  spread_all()
#> # A tbl_json: 1,405 x 12 tibble with a "JSON" attribute
#>    ..JSON document.id boardapprovalda~ closingdate countryshortname project_name
#>    <chr>        <int> <chr>            <chr>       <chr>            <chr>       
#>  1 "{\"N~           1 2013-11-12T00:0~ 2018-07-07~ Ethiopia         Ethiopia Ge~
#>  2 "{\"N~           1 2013-11-12T00:0~ 2018-07-07~ Ethiopia         Ethiopia Ge~
#>  3 "{\"N~           1 2013-11-12T00:0~ 2018-07-07~ Ethiopia         Ethiopia Ge~
#>  4 "{\"N~           1 2013-11-12T00:0~ 2018-07-07~ Ethiopia         Ethiopia Ge~
#>  5 "{\"N~           2 2013-11-04T00:0~ <NA>        Tunisia          TN: DTF Soc~
#>  6 "{\"N~           2 2013-11-04T00:0~ <NA>        Tunisia          TN: DTF Soc~
#>  7 "{\"N~           3 2013-11-01T00:0~ <NA>        Tuvalu           Tuvalu Avia~
#>  8 "{\"N~           4 2013-10-31T00:0~ <NA>        Yemen, Republic~ Gov't and C~
#>  9 "{\"N~           5 2013-10-31T00:0~ 2019-04-30~ Lesotho          Second Priv~
#> 10 "{\"N~           5 2013-10-31T00:0~ 2019-04-30~ Lesotho          Second Priv~
#> # ... with 1,395 more rows, and 6 more variables: regionname <chr>,
#> #   totalamt <dbl>, `_id.$oid` <chr>, array.index <int>, Name <chr>,
#> #   Percent <dbl>
…
All four columns are json columns. First let’s define function that is used to parse a single json character vector:

parse_json_col <- function(col) {
  map_dfr(col, ~ fromJSON(.) %>% as_tibble)
} 

The traffixSource column need some special treatments, otherwise row length would not match. But the other three can be parsed at the same time.

ga[1:3] %>% 
  map_dfc(parse_json_col) %>% 
  bind_cols(ga$trafficSource %>% 
              map_dfr(~ fromJSON(.) %>% 
                        as_tibble %>% 
                        nest(data = c(adwordsClickInfo))))
#> # A tibble: 100 x 38
#>    browser browserVersion browserSize operatingSystem operatingSystem~ isMobile
#>    <chr>   <chr>          <chr>       <chr>           <chr>            <lgl>   
#>  1 Chrome  not available~ not availa~ Macintosh       not available i~ FALSE   
#>  2 Chrome  not available~ not availa~ Windows         not available i~ FALSE   
#>  3 Chrome  not available~ not availa~ Macintosh       not available i~ FALSE   
#>  4 Safari  not available~ not availa~ iOS             not available i~ TRUE    
#>  5 Safari  not available~ not availa~ Macintosh       not available i~ FALSE   
#>  6 Chrome  not available~ not availa~ Linux           not available i~ FALSE   
#>  7 Chrome  not available~ not availa~ Macintosh       not available i~ FALSE   
#>  8 Chrome  not available~ not availa~ Windows         not available i~ FALSE   
#>  9 Chrome  not available~ not availa~ Macintosh       not available i~ FALSE   
#> 10 Chrome  not available~ not availa~ Windows         not available i~ FALSE   
#> # ... with 90 more rows, and 32 more variables: mobileDeviceBranding <chr>,
#> #   mobileDeviceModel <chr>, mobileInputSelector <chr>, mobileDeviceInfo <chr>,
#> #   mobileDeviceMarketingName <chr>, flashVersion <chr>, language <chr>,
#> #   screenColors <chr>, screenResolution <chr>, deviceCategory <chr>,
#> #   continent <chr>, subContinent <chr>, country <chr>, region <chr>,
#> #   metro <chr>, city <chr>, cityId <chr>, networkDomain <chr>, latitude <chr>,
#> #   longitude <chr>, networkLocation <chr>, visits <chr>, hits <chr>,
#> #   pageviews <chr>, newVisits <chr>, campaign <chr>, source <chr>,
#> #   medium <chr>, keyword <chr>, isTrueDirect <lgl>, data <list>,
#> #   referralPath <chr>

There are 38 columns in total, we can verify this by applying spread_all to each columns: (the following tally exludes ..JSON and document.id)

# 16 columns
spread_all(ga$device)
#> # A tbl_json: 100 x 18 tibble with a "JSON" attribute
#>    ..JSON document.id browser browserVersion browserSize operatingSystem
#>    <chr>        <int> <chr>   <chr>          <chr>       <chr>          
#>  1 "{\"b~           1 Chrome  not available~ not availa~ Macintosh      
#>  2 "{\"b~           2 Chrome  not available~ not availa~ Windows        
#>  3 "{\"b~           3 Chrome  not available~ not availa~ Macintosh      
#>  4 "{\"b~           4 Safari  not available~ not availa~ iOS            
#>  5 "{\"b~           5 Safari  not available~ not availa~ Macintosh      
#>  6 "{\"b~           6 Chrome  not available~ not availa~ Linux          
#>  7 "{\"b~           7 Chrome  not available~ not availa~ Macintosh      
#>  8 "{\"b~           8 Chrome  not available~ not availa~ Windows        
#>  9 "{\"b~           9 Chrome  not available~ not availa~ Macintosh      
#> 10 "{\"b~          10 Chrome  not available~ not availa~ Windows        
#> # ... with 90 more rows, and 12 more variables: operatingSystemVersion <chr>,
#> #   isMobile <lgl>, mobileDeviceBranding <chr>, mobileDeviceModel <chr>,
#> #   mobileInputSelector <chr>, mobileDeviceInfo <chr>,
#> #   mobileDeviceMarketingName <chr>, flashVersion <chr>, language <chr>,
#> #   screenColors <chr>, screenResolution <chr>, deviceCategory <chr>

# 11 columns
spread_all(ga$geoNetwork)
#> # A tbl_json: 100 x 13 tibble with a "JSON" attribute
#>    ..JSON document.id continent subContinent country region metro city  cityId
#>    <chr>        <int> <chr>     <chr>        <chr>   <chr>  <chr> <chr> <chr> 
#>  1 "{\"c~           1 Asia      Southeast A~ Singap~ (not ~ (not~ (not~ not a~
#>  2 "{\"c~           2 Europe    Southern Eu~ Spain   Aragon (not~ Zara~ not a~
#>  3 "{\"c~           3 Europe    Western Eur~ France  not a~ not ~ not ~ not a~
#>  4 "{\"c~           4 Americas  Northern Am~ United~ Calif~ San ~ Moun~ not a~
#>  5 "{\"c~           5 Americas  Northern Am~ United~ Calif~ San ~ San ~ not a~
#>  6 "{\"c~           6 Americas  Northern Am~ United~ not a~ not ~ not ~ not a~
#>  7 "{\"c~           7 Americas  Northern Am~ United~ not a~ not ~ not ~ not a~
#>  8 "{\"c~           8 Americas  Northern Am~ United~ not a~ not ~ not ~ not a~
#>  9 "{\"c~           9 Europe    Southern Eu~ Portug~ Lisbon (not~ Lisb~ not a~
#> 10 "{\"c~          10 Europe    Southern Eu~ Spain   Aragon (not~ Zara~ not a~
#> # ... with 90 more rows, and 4 more variables: networkDomain <chr>,
#> #   latitude <chr>, longitude <chr>, networkLocation <chr>

# 4 columns
spread_all(ga$totals)
#> # A tbl_json: 100 x 6 tibble with a "JSON" attribute
#>    ..JSON                    document.id visits hits  pageviews newVisits
#>    <chr>                           <int> <chr>  <chr> <chr>     <chr>    
#>  1 "{\"visits\":\"1\",\"..."           1 1      4     4         <NA>     
#>  2 "{\"visits\":\"1\",\"..."           2 1      5     5         1        
#>  3 "{\"visits\":\"1\",\"..."           3 1      7     7         1        
#>  4 "{\"visits\":\"1\",\"..."           4 1      8     4         1        
#>  5 "{\"visits\":\"1\",\"..."           5 1      9     4         1        
#>  6 "{\"visits\":\"1\",\"..."           6 1      11    5         1        
#>  7 "{\"visits\":\"1\",\"..."           7 1      37    15        1        
#>  8 "{\"visits\":\"1\",\"..."           8 1      52    22        1        
#>  9 "{\"visits\":\"1\",\"..."           9 1      5     5         <NA>     
#> 10 "{\"visits\":\"1\",\"..."          10 1      6     6         1        
#> # ... with 90 more rows

# 7 columns, all adwordsClickInfo columns are seen as one column
spread_all(ga$trafficSource)
#> # A tbl_json: 100 x 14 tibble with a "JSON" attribute
#>    ..JSON document.id campaign source medium keyword isTrueDirect referralPath
#>    <chr>        <int> <chr>    <chr>  <chr>  <chr>   <lgl>        <chr>       
#>  1 "{\"c~           1 (not se~ google organ~ (not p~ TRUE         <NA>        
#>  2 "{\"c~           2 (not se~ google organ~ (not p~ NA           <NA>        
#>  3 "{\"c~           3 (not se~ google organ~ (not p~ NA           <NA>        
#>  4 "{\"c~           4 (not se~ google organ~ (not p~ NA           <NA>        
#>  5 "{\"c~           5 (not se~ google organ~ (not p~ NA           <NA>        
#>  6 "{\"c~           6 (not se~ google organ~ (not p~ NA           <NA>        
#>  7 "{\"c~           7 (not se~ google organ~ (not p~ NA           <NA>        
#>  8 "{\"c~           8 (not se~ google organ~ (not p~ NA           <NA>        
#>  9 "{\"c~           9 (not se~ google organ~ (not p~ TRUE         <NA>        
#> 10 "{\"c~          10 (not se~ google organ~ (not p~ NA           <NA>        
#> # ... with 90 more rows, and 6 more variables:
#> #   adwordsClickInfo.criteriaParameters <chr>, adwordsClickInfo.page <chr>,
#> #   adwordsClickInfo.slot <chr>, adwordsClickInfo.gclId <chr>,
#> #   adwordsClickInfo.adNetworkType <chr>, adwordsClickInfo.isVideoAd <lgl>

And this may reminds you of a even simpler solution with the tidyjson package.

ga %>% 
  map_dfc(spread_all)
#> # A tbl_json: 100 x 51 tibble with a "JSON" attribute
#>    ..JSON document.id browser browserVersion browserSize operatingSystem
#>    <chr>        <int> <chr>   <chr>          <chr>       <chr>          
#>  1 "{\"b~           1 Chrome  not available~ not availa~ Macintosh      
#>  2 "{\"b~           2 Chrome  not available~ not availa~ Windows        
#>  3 "{\"b~           3 Chrome  not available~ not availa~ Macintosh      
#>  4 "{\"b~           4 Safari  not available~ not availa~ iOS            
#>  5 "{\"b~           5 Safari  not available~ not availa~ Macintosh      
#>  6 "{\"b~           6 Chrome  not available~ not availa~ Linux          
#>  7 "{\"b~           7 Chrome  not available~ not availa~ Macintosh      
#>  8 "{\"b~           8 Chrome  not available~ not availa~ Windows        
#>  9 "{\"b~           9 Chrome  not available~ not availa~ Macintosh      
#> 10 "{\"b~          10 Chrome  not available~ not availa~ Windows        
#> # ... with 90 more rows, and 45 more variables: operatingSystemVersion <chr>,
#> #   isMobile <lgl>, mobileDeviceBranding <chr>, mobileDeviceModel <chr>,
#> #   mobileInputSelector <chr>, mobileDeviceInfo <chr>,
#> #   mobileDeviceMarketingName <chr>, flashVersion <chr>, language <chr>,
#> #   screenColors <chr>, screenResolution <chr>, deviceCategory <chr>,
#> #   document.id1 <int>, continent <chr>, subContinent <chr>, country <chr>,
#> #   region <chr>, metro <chr>, city <chr>, cityId <chr>, networkDomain <chr>,
#> #   latitude <chr>, longitude <chr>, networkLocation <chr>, ..JSON1 <list>,
#> #   document.id2 <int>, visits <chr>, hits <chr>, pageviews <chr>,
…
